Latest Price,Mean Price,Price Stddev,Sigmas from mean,Symbol,Undervalued
109.19,111.33380634920636,1.689293697046289,-1.2690548440184077,EDV,No
80.19,81.06087301587303,0.4940065706157552,-1.7628773940952436,BIV,No
61.9934,62.492049206349236,0.29011351520692574,-1.718807226176862,VGIT,No
87.09,89.13936507936509,1.0854987486790222,-1.8879478966318717,BLV,No
72.15,73.31492063492063,0.8415478426559956,-1.3842595463664102,VGLT,No
50.94,51.29960317460319,0.18766379425041377,-1.916209655887852,VMBS,No
77.96,78.21349206349208,0.16288235826947176,-1.5562892518581626,BSV,No
48.905,48.825952380952394,0.09087693205674008,0.8698315101378283,VTIP,No
59.75,59.904473015873,0.09717310720523627,-1.5896683796139635,VGSH,No
78.54,79.2631746031746,0.40075652821951147,-1.8045235754175535,BND,No
83.105,84.10134920634923,0.5960785917802577,-1.6715064424197996,VCIT,No
87.53,89.60301587301588,1.2191652555674997,-1.7003567511042008,VCLT,No
77.98,78.22174603174605,0.168351386891762,-1.435961034888725,VCSH,No
80.7969,81.82817777777775,0.592628757811784,-1.7401750491920753,VTC,No
50.59,50.65746031746031,0.0857222953341748,-0.7869634987878691,VTEB,No
102.76,101.68206349206349,1.6657427522290698,0.6471206352205564,VIG,No
148.71,144.9603174603175,3.245170755530791,1.1554654044912342,VUG,No
84.78,83.7784126984127,1.5187329789749255,0.6594887419007204,VYM,No
125.68,123.46238095238097,2.392304935098018,0.926980091494138,VV,No
94.06,92.44476190476192,1.8769418364979695,0.860569072428916,MGC,No
117.92,114.95111111111109,2.7115140215830764,1.0949192463167023,MGK,No
76.18,75.29642857142856,1.4063502320036394,0.6282726794964945,MGV,No
251.09,246.67809523809518,4.771331336334591,0.9246695420851057,VOO,No
141.25,138.2395238095238,2.57731090853905,1.1680686953607344,VTI,No
105.99,104.8504761904762,1.9015227219603557,0.5992690996345359,VTV,No
117.63,113.41765396825397,2.0437034936080734,2.061133645326065,VXF,No
158.59,155.82365079365084,2.4024685066976375,1.1514611736374867,VO,No
134.42,130.91730158730155,2.4506074441968537,1.4293184414309112,VOT,No
111.7,110.5884126984127,1.5277800123669498,0.7275833513917708,VOE,No
155.59,149.24571428571434,2.7890623754660564,2.2747019823196037,VB,No
174.11,166.56873015873006,3.5572329589178,2.1199819995944815,VBK,No
136.6,131.39301587301586,2.2011430183088123,2.3655819197903742,VBR,No
75.62,77.44833968253967,0.8899455975061241,-2.0544398305505207,VWOB,No
55.16,54.782857142857154,0.5847002449266067,0.6450191536864897,VEU,No
121.31,119.91857142857143,1.1361308011311508,1.2247080794246994,VSS,No
45.54,44.756190476190476,0.5343247587804673,1.466915973720693,VEA,No
45.24,46.675396825396824,1.049410757409938,-1.3678121891370165,VWO,No
60.27,59.161587301587296,0.8133337360444091,1.3628018232753916,VGK,No
73.82,73.09777777777778,0.7735374206161414,0.933661647095168,VPL,No
61.04,60.75460317460318,0.6183896788519012,0.4615161526089542,VNQI,No
66.79,65.34588253968253,0.8489906544140751,1.7009815747784869,VIGI,No
66.8492,66.77616825396825,0.7299848558606139,0.1000455631995879,VYMI,No
54.36,54.455396825396825,0.20402167171554184,-0.4675818240026631,BNDX,No
57.39,56.97174603174602,0.593465848451201,0.704765016126063,VXUS,No
75.61,74.60444444444447,1.0629903578498878,0.9459686516719401,VT,No
84.01,85.67857777777778,2.177564143457375,-0.7662588414633453,VOX,No
164.9,161.94259047619047,2.7564658171613763,1.0728990381078216,VCR,No
129.79,134.37968253968253,4.0587764863177185,-1.1308044567505815,VDC,No
108.92,97.04730158730156,5.531749402198877,2.1462827668908915,VDE,No
71.31,70.65206349206348,1.6706021713790433,0.39383194826893747,VFH,No
158.34,156.27253968253967,3.253695319563938,0.6354191509662966,VHT,No
143.54,140.14786031746027,3.0264566389546896,1.120828773450174,VIS,No
182.01,176.05190476190475,4.996523507953593,1.1924481549243173,VGT,No
136.54,132.73968253968252,3.2302410191928526,1.1764810853857173,VAW,No
76.74,75.39444444444443,1.2981559299029344,1.0365130448205657,VNQ,No
110.19,111.07984126984128,1.837798451791684,-0.4841887144772436,VPU,No
