Latest Price,Mean Price,Price Stddev,Sigmas from mean,Symbol,Undervalued
109.05,111.3455523809524,1.6768735355536983,-1.368947825987615,EDV,No
80.15,81.08055555555556,0.4835074490251276,-1.9245940417914775,BIV,No
61.99,62.500884126984154,0.2831859113426512,-1.8040591234285979,VGIT,No
87.02,89.17857142857144,1.0549473125230218,-2.0461414545992724,BLV,No
72.14,73.32523809523808,0.831122509531741,-1.4260690591882135,VGLT,No
50.96,51.306587301587314,0.18226055263029228,-1.9016034824076846,VMBS,No
77.95,78.22000000000004,0.16080156360291656,-1.67908815032904,BSV,No
48.9,48.82079365079366,0.09535733276507129,0.8306267269605349,VTIP,No
59.78,59.907806349206346,0.09540273343562607,-1.3396508108709888,VGSH,No
78.54,79.27952380952381,0.3918309830454655,-1.8873540927670678,BND,No
83.08,84.12904761904764,0.5896453448074197,-1.779116257400903,VCIT,No
87.44,89.65539682539682,1.1997100514745087,-1.846610206086029,VCLT,No
78.0,78.22968253968254,0.16855330515674907,-1.3626700435743182,VCSH,No
80.74,81.85478730158727,0.5832884041179224,-1.9112111499509528,VTC,No
50.64,50.659841269841266,0.0858984646737536,-0.23098515109232048,VTEB,No
101.91,101.68349206349208,1.6667049126375146,0.13590164329057625,VIG,No
147.73,144.91111111111113,3.211266926521153,0.8778120764761957,VUG,No
84.1,83.78587301587301,1.5247769911576976,0.20601503429592213,VYM,No
124.73,123.44841269841271,2.381862154227972,0.5380610709618047,VV,No
93.4,92.43793650793651,1.8718305773371882,0.513969321642398,MGC,No
117.13,114.9174603174603,2.687509006705598,0.8232678205056043,MGK,No
75.53,75.30373015873016,1.4121010374205178,0.1602362970309593,MGV,No
249.26,246.65158730158723,4.751343738537922,0.5489842120358611,VOO,No
140.2,138.20809523809524,2.5523601633837116,0.7804168042115356,VTI,No
105.12,104.86015873015876,1.9088394979078234,0.1361252583708814,VTV,No
116.84,113.3309873015873,1.9779466322018786,1.7740684411219025,VXF,No
157.63,155.78539682539687,2.377169735976108,0.7759661191571142,VO,No
133.53,130.84984126984122,2.4114406496015555,1.111434664834743,VOT,No
111.05,110.58666666666667,1.5265710096877407,0.30351246708667595,VOE,No
154.47,149.11571428571432,2.679021210913806,1.998597731318204,VB,No
173.32,166.39492063492054,3.450423426059186,2.007023054845405,VBK,No
135.35,131.29936507936506,2.1008387387897223,1.9281036882290523,VBR,No
75.69,77.48833968253966,0.8630967453984273,-2.083589924452216,VWOB,No
54.8,54.78555555555557,0.5868229710010787,0.024614654091995977,VEU,No
120.48,119.89380952380951,1.1224525705982544,0.522240753458351,VSS,No
45.25,44.74650793650793,0.5254874040752769,0.9581429727665595,VEA,No
44.95,46.71714285714285,1.0437758510383752,-1.6930290688224405,VWO,No
59.85,59.15015873015872,0.8026671651309397,0.8718947282802002,VGK,No
73.46,73.09095238095237,0.7690185753029615,0.4798942846110459,VPL,No
60.81,60.741904761904756,0.6206086545004162,0.1097233137202416,VNQI,No
66.3736,65.32445396825395,0.829074044183161,1.265443103793837,VIGI,No
66.39,66.78903809523807,0.7382593976586369,-0.5405120429263806,VYMI,No
54.34,54.44888888888889,0.2132895126951848,-0.510521532507317,BNDX,No
57.02,56.97142857142857,0.5932473376494143,0.0818738247758289,VXUS,No
75.18,74.59841269841272,1.058335330105662,0.5495302717799533,VT,No
83.28,85.74270476190476,2.1869487015727316,-1.1260916911922627,VOX,No
164.04,161.92259047619046,2.7394538543707485,0.7729312616203553,VCR,No
129.21,134.54,4.073764687627246,-1.308372085454064,VDC,No
107.84,96.78857142857142,5.348547602036198,2.0662485208547636,VDE,No
70.69,70.66857142857143,1.6821205977026195,0.01273902207596686,VFH,No
158.28,156.27238095238096,3.2535946978764705,0.6170464467898725,VHT,No
141.57,140.13309841269836,3.0121091545964656,0.4770416719822149,VIS,No
180.6,175.93714285714285,4.941080926844205,0.9436917168315327,VGT,No
136.0,132.73031587301585,3.220047199013552,1.0154149690680931,VAW,No
75.84,75.35730158730158,1.2925896319652836,0.3734351574246497,VNQ,No
109.63,111.06619047619047,1.8475255253699272,-0.7773589357597153,VPU,No
