Symbol,Latest Price,Mean Price,Price Stddev,Sigmas from mean,Undervalued,Percent Below
EDV,134.3,118.99666846307386,11.444047944459744,1.3372306382493575,No,82.83433133732535
BIV,87.82,83.21875249500998,2.891927471707327,1.5910660104741643,No,92.61477045908184
VGIT,66.33,63.90211596806387,1.7035996081634448,1.4251494425697224,No,86.82634730538922
BLV,101.94,92.15965489021956,5.814115470308178,1.682172492054416,No,91.61676646706587
VGLT,85.26,77.13978043912175,5.466294384964134,1.4855071807354798,No,86.02794411177645
VMBS,53.3,51.90651696606787,0.8642255623194931,1.6124066386004159,No,98.20359281437126
BSV,80.74,79.11828343313373,1.0978981222914665,1.4771102472436333,No,88.82235528942115
VTIP,49.38,48.813203592814375,0.44394739315743625,1.2767197553621528,No,90.21956087824351
VGSH,60.88,60.24167984031936,0.46261846832816544,1.379798264404446,No,85.42914171656686
BND,84.27,80.71725548902195,2.187629688792014,1.624015494569299,No,92.21556886227545
VCIT,91.71,86.20122754491018,3.188352311022318,1.7277803447397162,No,98.20359281437126
VCLT,102.39,91.85437125748503,5.585023721878388,1.8864071608583193,No,98.20359281437126
VCSH,81.14,79.16468063872254,1.2193571396994891,1.619967847782705,No,97.2055888223553
VTC,89.05,83.48392275449102,3.053772949481874,1.822688633892497,No,98.40319361277444
VTEB,53.79,51.766287824351295,1.2439625695825467,1.6268272254589047,No,95.00998003992017
VIG,124.8,109.4127145708583,7.22926809448946,2.128470714880628,No,99.20159680638723
VUG,183.52,155.78423153692614,11.097651387822207,2.4992466868718886,No,99.60079840319361
VYM,93.23,86.02427145708583,3.1405200184350504,2.2944380231987354,No,97.40518962075848
VV,148.12,130.06117764471057,7.096669400304963,2.5446898166784266,No,98.80239520958084
MGC,112.07,97.84015648702594,5.476763027244255,2.5982215119017287,No,99.20159680638723
MGK,146.81,123.80674650698603,8.955622326288138,2.5685823558560217,No,99.60079840319361
MGV,86.98,78.47493612774451,3.372296179292447,2.522039411745847,No,97.60479041916167
VOO,296.24,260.0029740518962,14.229854749958466,2.546549250491089,No,99.00199600798403
VTI,163.93,145.08265469061877,7.545307112350271,2.4978897517016403,No,98.80239520958084
VTV,119.48,108.45159680638723,4.463405277561769,2.4708496109583122,No,97.40518962075848
VXF,126.06,116.2201740518962,5.443867092012291,1.8075066458807647,No,98.40319361277444
VO,178.02,160.70489021956087,8.118128984040665,2.13289414524932,No,98.60279441117764
VOT,159.78,139.6683033932136,9.50997124126824,2.1148009911441474,No,99.60079840319361
VOE,118.31,110.36740518962075,4.601926487754408,1.7259282240849045,No,97.2055888223553
VB,165.33,153.52616766467065,7.091532022840368,1.6644967966458646,No,97.80439121756487
VBK,199.08,177.16658682634733,11.014045547767157,1.9895880290866532,No,98.80239520958084
VBR,136.39,131.41251497005987,5.845416108653757,0.8515193678977396,No,78.2435129740519
VWOB,81.32,77.67637764471058,2.2514022773175433,1.6183790840038774,No,98.20359281437126
VEU,53.75,51.38345309381238,2.7149960304583507,0.8716575934691505,No,77.44510978043913
VSS,110.86,108.82077844311377,7.984168416448261,0.25540813401245555,No,61.67664670658683
VEA,43.88,42.14211576846307,2.214878538586141,0.7846408736464179,No,76.64670658682634
VWO,44.72,42.56063872255489,2.841960259220313,0.7598140299250787,No,78.64271457085829
VGK,58.35,55.35876247504989,3.147987930321551,0.9502061606203708,No,80.03992015968063
VPL,69.32,68.0820758483034,3.813231466067581,0.3246391315901959,No,61.477045908183634
VNQI,59.18,58.3711377245509,2.490180175886327,0.3248207833640808,No,60.47904191616767
VIGI,71.87,65.0494500998004,3.264018560984616,2.0896173758712138,No,98.40319361277444
VYMI,63.78,62.20867884231537,3.319112464687656,0.47341606360195987,No,73.85229540918164
BNDX,56.89,55.71516966067864,1.6162513061366748,0.7268859334316995,No,73.25349301397206
VXUS,55.62,53.292495009980044,2.890229732506004,0.8053010332856363,No,76.24750499001996
VT,81.07,74.18121756487025,3.041051253943714,2.265263509188209,No,99.00199600798403
VOX,94.64,85.77679081836328,4.076242283991462,2.174357794296234,No,99.20159680638723
VCR,190.37,171.84654351297405,9.328090420466454,1.9857715408058494,No,99.20159680638723
VDC,159.59,143.913502994012,8.561147869812402,1.8311209249480616,No,97.40518962075848
VDE,82.01,90.48630738522954,10.211583269580784,-0.830067890694242,No,26.147704590818364
VFH,76.19,69.06784431137724,3.5742895032169626,1.9926073929413415,No,97.80439121756487
VHT,190.39,168.60602794411176,8.51608008131176,2.5579811190000896,No,98.00399201596807
VIS,156.26,141.72345668662675,7.253054799380367,2.0041959857541833,No,99.60079840319361
VGT,246.72,196.4467864271457,19.87090559772624,2.5299910628435023,No,99.60079840319361
VAW,130.69,127.49435109780438,7.253054284451302,0.44059354540421275,No,60.27944111776447
VNQ,92.27,83.68453093812374,6.173999957773223,1.3905845676378616,No,89.02195608782435
VPU,141.16,124.61278522954092,10.763456252530649,1.537351421535121,No,91.81636726546907
