Latest Price,Mean Price,Percent Below,Price Stddev,Sigmas from mean,Symbol,Undervalued
115.46,111.34440882352939,98.52941176470588,1.7397030099598378,2.365686069926161,EDV,No
81.47,81.0381617647059,80.88235294117646,0.49609201027199473,0.8704801253649064,BIV,No
62.95,62.483611764705906,97.05882352941177,0.2941189397912766,1.5857130303307658,VGIT,No
89.88,89.07058823529411,72.05882352941177,1.105393039432715,0.7322388832132264,BLV,No
75.1,73.31220588235291,98.52941176470588,0.8576624277449704,2.084496253785632,VGLT,No
51.61,51.29448529411766,98.52941176470588,0.19064738722134442,1.6549647518432486,VMBS,No
78.49,78.2102941176471,98.52941176470588,0.16476338282014927,1.6976216290619528,BSV,No
49.05,48.836911764705896,98.52941176470588,0.0964556794433888,2.2091828757389655,VTIP,No
60.09,59.90407058823527,98.52941176470588,0.09795282186552194,1.898152684360561,VGSH,No
79.68,79.24573529411762,88.23529411764706,0.40383935425914397,1.0753402344332108,BND,No
84.28,84.06735294117648,48.529411764705884,0.5958326295960548,0.3568905901774547,VCIT,No
89.57,89.51514705882354,39.705882352941174,1.2301093837625823,0.0445919215807202,VCLT,No
78.49,78.22014705882353,95.58823529411765,0.16868647080464344,1.5997307898449344,VCSH,No
82.04,81.79125441176473,51.470588235294116,0.5968036479825188,0.41679636020349287,VTC,No
51.09,50.671911764705875,98.52941176470588,0.10544035605554954,3.965163348593637,VTEB,No
101.6,101.73235294117649,47.05882352941177,1.617820899749975,-0.08180939014754149,VIG,No
147.53,145.21323529411774,67.6470588235294,3.2534404600345197,0.712096850808108,VUG,No
83.33,83.815,41.1764705882353,1.4738509981357966,-0.32906989961227606,VYM,No
123.75,123.58000000000001,47.05882352941177,2.347298196550539,0.07242369131020941,VV,No
92.63,92.53382352941175,47.05882352941177,1.8397258662571923,0.052277609589689765,MGC,No
117.07,115.15661764705881,67.6470588235294,2.712622244626319,0.7053626271522244,MGK,No
74.41,75.31595588235294,27.941176470588236,1.3654072483826896,-0.6635059857973045,MGV,No
247.15,246.9132352941176,47.05882352941177,4.6834528618683215,0.05055345123895264,VOO,No
139.21,138.40588235294118,55.88235294117647,2.5564665615409137,0.31454260312098437,VTI,No
103.67,104.87661764705885,27.941176470588236,1.845682250944969,-0.653751557962414,VTV,No
116.57,113.67385588235295,86.76470588235294,2.167711404398547,1.3360376809248757,VXF,No
156.3,155.95985294117648,51.470588235294116,2.3703136381246233,0.143502975029353,VO,No
132.83,131.11338235294116,66.17647058823529,2.4620266701224964,0.6972376326749721,VOT,No
109.78,110.62426470588235,27.941176470588236,1.4871284174309884,-0.5677147285913735,VOE,No
154.15,149.6313235294118,88.23529411764706,3.013855213554542,1.4993011111701313,VB,No
172.74,167.03705882352938,89.70588235294117,3.8068599299096326,1.498069611561991,VBK,No
135.21,131.71014705882348,88.23529411764706,2.400196984959566,1.4581523779538812,VBR,No
76.48,77.36816764705883,25.0,0.9062090465296125,-0.9800913491871643,VWOB,No
53.17,54.75088235294119,0.0,0.6015097067675967,-2.6281909255239806,VEU,No
118.15,119.93455882352943,8.823529411764707,1.1345865194286429,-1.5728715201270806,VSS,No
43.78,44.75911764705883,5.882352941176471,0.5375345003814596,-1.8214973110823598,VEA,No
44.17,46.55279411764706,0.0,1.1061616805398793,-2.154110162706142,VWO,No
57.12,59.14823529411763,0.0,0.8341620331673306,-2.431464407959667,VGK,No
72.27,73.09676470588236,11.764705882352942,0.7555197688394827,-1.094299236077332,VPL,No
60.09,60.74764705882353,16.176470588235293,0.6014226214154016,-1.093485737659496,VNQI,No
65.29,65.40427352941177,41.1764705882353,0.8516500373181549,-0.13417897540591744,VIGI,No
63.7,66.68836176470586,0.0,0.8229921872671505,-3.631093722322067,VYMI,No
54.35,54.45132352941175,26.470588235294116,0.19749091127087842,-0.5130541388447766,BNDX,No
55.37,56.94176470588235,1.4705882352941178,0.6087135450528404,-2.5821089717100216,VXUS,No
73.78,74.63014705882357,22.058823529411764,1.0408162699465577,-0.8168080028833699,VT,No
82.28,85.49427058823528,2.9411764705882355,2.20254776265624,-1.4593420595605688,VOX,No
164.6,162.15857647058826,82.3529411764706,2.7669021125841855,0.8823671492778383,VCR,No
129.82,134.04691176470592,20.58823529411765,4.081838994920038,-1.035541031864912,VDC,No
102.53,97.63911764705881,76.47058823529412,5.752282343785792,0.8502507458148026,VDE,No
68.41,70.64441176470586,5.882352941176471,1.6374885561817816,-1.3645358047056915,VFH,No
156.55,156.38426470588237,47.05882352941177,3.1617569185950605,0.052418733756193873,VHT,No
140.02,140.2455985294117,44.11764705882353,2.941099929122789,-0.0767054961913419,VIS,No
181.86,176.52102941176463,77.94117647058823,5.0919648754928195,1.0485089192055077,VGT,No
132.2,132.8586764705882,42.64705882352941,3.153864065299506,-0.20884745092070214,VAW,No
78.1,75.5530882352941,95.58823529411765,1.3750393121149638,1.8522465083477957,VNQ,No
113.15,111.16073529411767,86.76470588235294,1.8097085532145376,1.0992182704496014,VPU,No
