Latest Price,Mean Price,Percent Below,Price Stddev,Sigmas from mean,Symbol,Undervalued
114.22,111.386084057971,94.20289855072464,1.7609109547661446,1.6093465341666575,EDV,No
81.14,81.03963768115943,39.130434782608695,0.4926343845500426,0.20372576902490236,BIV,No
62.74,62.4873275362319,76.81159420289855,0.29358323259196384,0.8606501861067669,VGIT,No
89.22,89.0727536231884,46.3768115942029,1.0974989803012272,0.13416538826412402,BLV,No
74.59,73.33072463768113,89.85507246376811,0.8650112152084861,1.4557907922793372,VGLT,No
51.51,51.29760869565219,88.40579710144928,0.1910053658394394,1.111965118960841,VMBS,No
78.36,78.21246376811597,78.26086956521739,0.16454069402916213,0.8966549749564333,BSV,No
49.015,48.8394927536232,97.10144927536231,0.09809099933423322,1.7892288545127704,VTIP,No
60.005,59.9055333333333,86.95652173913044,0.09798568908621545,1.0151142232533732,VGSH,No
79.44,79.24855072463767,57.971014492753625,0.4015739878488966,0.4767472026459264,BND,No
83.9,84.06492753623189,37.68115942028985,0.591837284699601,-0.27867040569368384,VCIT,No
88.85,89.50550724637682,33.333333333333336,1.2237475540463585,-0.5356556131281928,VCLT,No
78.41,78.22289855072462,84.05797101449275,0.1689897642837639,1.1071762249528783,VCSH,No
81.635,81.78898985507249,37.68115942028985,0.5927574228644029,-0.25978562078286715,VTC,No
50.97,50.67623188405796,97.10144927536231,0.11056969012668498,2.6568593581609234,VTEB,No
103.0,101.75072463768117,76.81159420289855,1.6131841937659108,0.774415821297161,VIG,No
149.2,145.2710144927537,88.40579710144928,3.26473344670753,1.2034628772553118,VUG,No
84.57,83.82594202898552,68.1159420289855,1.4659115172306643,0.507573589721235,VYM,No
125.32,123.60521739130435,75.3623188405797,2.3394868808746287,0.7329738083654321,VV,No
93.85,92.55289855072462,69.56521739130434,1.8331070491043773,0.7075972185634843,MGC,No
118.31,115.2023188405797,88.40579710144928,2.7191362358946236,1.142892775432361,MGK,No
75.49,75.31847826086954,46.3768115942029,1.355636463268049,0.12652487873995757,MGV,No
250.41,246.96391304347824,73.91304347826087,4.668134101805407,0.7382150729536615,VOO,No
141.01,138.4436231884058,85.5072463768116,2.5568849769884565,1.0037122649986803,VTI,No
105.16,104.88072463768117,52.17391304347826,1.8325718989320183,0.1523953098274523,VTV,No
118.18,113.73916231884058,98.55072463768116,2.2183072290911614,2.0019038043611435,VXF,No
158.21,155.99246376811595,81.15942028985508,2.3683911287079096,0.9363049054713546,VO,No
134.5,131.16246376811594,91.30434782608695,2.4774053782349674,1.3471901939043553,VOT,No
111.1,110.63115942028986,62.31884057971015,1.4774071845899235,0.31734012437489684,VOE,No
156.35,149.72869565217394,98.55072463768116,3.0978075056650964,2.137416329361132,VB,No
175.27,167.15637681159416,98.55072463768116,3.9051571146238278,2.0776688236236085,VBK,No
137.11,131.78840579710143,98.55072463768116,2.468585597021392,2.1557260195148364,VBR,No
76.49,77.35544057971013,26.08695652173913,0.9057194335258186,-0.955528332147097,VWOB,No
53.81,54.7372463768116,7.246376811594203,0.6076299504548562,-1.5260050563957266,VEU,No
119.94,119.93463768115944,47.82608695652174,1.1263350593080668,0.004760855836138156,VSS,No
44.41,44.75405797101449,23.18840579710145,0.5352537494959807,-0.642794135190036,VEA,No
44.56,46.52391304347826,1.4492753623188406,1.1236460030920101,-1.747804057571539,VWO,No
58.15,59.13376811594202,15.942028985507246,0.8366446121856932,-1.1758494605875411,VGK,No
72.78,73.09217391304348,24.63768115942029,0.7509797842957685,-0.415688836865591,VPL,No
60.59,60.74536231884057,31.884057971014492,0.5973457710357827,-0.26008775214256935,VNQI,No
66.11,65.41450144927536,73.91304347826087,0.8496526245835224,0.8185681190187007,VIGI,No
64.69,62.265653356890496,54.59363957597173,4.866042550567914,0.49821731271679015,VYMI,No
54.44,54.45115942028984,43.47826086956522,0.19605926515912553,-0.056918607140477986,BNDX,No
56.09,56.92942028985507,10.144927536231885,0.6128003766458597,-1.3698103360340592,VXUS,No
74.74,74.63173913043481,47.82608695652174,1.0333299997913579,0.10476892143559643,VT,No
83.55,92.89301952191235,3.3864541832669324,4.736579426947916,-1.9725246173972986,VOX,No
166.17,162.21671304347825,94.20289855072464,2.78830145366252,1.4178118909377506,VCR,No
131.62,134.0117391304348,39.130434782608695,4.062519371288215,-0.588732978687649,VDC,No
105.84,97.75797101449274,86.95652173913044,5.793943509429841,1.394909869651557,VDE,No
69.67,70.63028985507245,30.434782608695652,1.629745219720379,-0.5892269806670802,VFH,No
158.78,156.4189855072464,82.6086956521739,3.1517936668872433,0.7491018582715102,VHT,No
141.89,140.26943043478255,65.21739130434783,2.9263162402189855,0.5537916725965901,VIS,No
183.2,176.61782608695643,94.20289855072464,5.117564771172473,1.2861925949860593,VGT,No
133.81,132.8724637681159,57.971014492753625,3.132990147316137,0.2992464667299533,VAW,No
79.16,75.60536231884056,98.55072463768116,1.431484057841893,2.483183561623739,VNQ,No
114.09,111.20318840579712,88.40579710144928,1.8303373354670738,1.5772019388252345,VPU,No
