Latest Price,Mean Price,Price Stddev,Sigmas from mean,Symbol,Undervalued
107.89,111.3271396825397,1.708057137304929,-2.012309546016131,EDV,No
79.95,81.07738095238096,0.49021687550921117,-2.2997595731682985,BIV,No
61.82,62.49818571428574,0.2887955358760762,-2.3483247835823624,VGIT,No
86.61,89.17206349206351,1.0694089136248048,-2.3957753291762804,BLV,No
71.52,73.3153968253968,0.8485857990814006,-2.115751674539375,VGLT,No
50.82,51.3043650793651,0.18725776323469315,-2.5866221565299563,VMBS,No
77.89,78.21904761904766,0.16256587710553827,-2.0240878646017335,BSV,No
48.87,48.82031746031747,0.09503496856785335,0.5227816711177864,VTIP,No
59.74,59.907171428571424,0.09637929769895227,-1.7345159444260916,VGSH,No
78.33,79.27619047619046,0.3989367956123171,-2.3717804088193586,BND,No
82.84,84.1252380952381,0.5971383002788078,-2.1523290243449695,VCIT,No
86.92,89.64714285714287,1.2165935119186806,-2.2416220622793794,VCLT,No
77.89,78.22793650793652,0.171468065703382,-1.9708422472153266,VCSH,No
80.6,81.85256507936505,0.5877806950276743,-2.1310075168530016,VTC,No
50.62,50.659523809523805,0.0860080943298327,-0.4595359289352128,VTEB,No
101.86,101.68269841269843,1.6666087669459115,0.10638464816579538,VIG,No
147.86,144.91317460317464,3.213118855417202,0.9171230600004522,VUG,No
84.31,83.78920634920634,1.5256893332349777,0.3413497357875636,VYM,No
125.06,123.45365079365081,2.385035557012444,0.6735116386949582,VV,No
93.63,92.4415873015873,1.873926534066062,0.6341831853109324,MGC,No
117.26,114.91952380952378,2.6892563606399884,0.8703060908329462,MGK,No
75.76,75.30738095238097,1.412978351967663,0.32032978211501745,MGV,No
249.88,246.6614285714285,4.757374511734174,0.676543631499436,VOO,No
140.51,138.21301587301588,2.5564910443937636,0.8984909734071891,VTI,No
105.53,104.86666666666669,1.9104125707491015,0.34721993745738894,VTV,No
116.76,113.32971746031747,1.975717863552842,1.7362208455786388,VXF,No
157.68,155.78619047619054,2.377793714317078,0.7964566111881509,VO,No
133.11,130.84317460317456,2.4045927123674975,0.9427065902539469,VOT,No
111.43,110.59269841269841,1.5291383675587824,0.5475643048825722,VOE,No
154.43,149.1150793650794,2.6777566262184362,1.9848408114767373,VB,No
173.11,166.3915873015872,3.443826870244745,1.9508566927278033,VBK,No
135.46,131.3011111111111,2.104247489149227,1.9764257342991465,VBR,No
75.62,77.48722857142855,0.865452971300508,-2.1575159290546706,VWOB,No
55.08,54.790000000000006,0.5879747322073339,0.4932184737110967,VEU,No
120.82,119.89920634920634,1.126069581976065,0.8177058198995263,VSS,No
45.41,44.74904761904762,0.5282937923785961,1.2511076043057292,VEA,No
45.37,46.72380952380952,1.0337609385174773,-1.3095963228703824,VWO,No
60.12,59.15444444444444,0.8071009806370735,1.1963255883959074,VGK,No
73.69,73.09460317460318,0.7713044514426955,0.7719349010408944,VPL,No
60.76,60.74111111111111,0.6205530332045772,0.03043879874592637,VNQI,No
66.52,65.32677777777776,0.8322106749151208,1.4337982654980144,VIGI,No
66.75,66.79475238095237,0.7365398785219047,-0.06076029588809766,VYMI,No
54.31,54.448412698412696,0.2135653972121168,-0.6481045160851587,BNDX,No
57.27,56.97539682539682,0.5943939834898815,0.49563619886168847,VXUS,No
75.43,74.60238095238097,1.0609739674644174,0.7800559419916157,VT,No
83.29,85.74286349206349,2.18677030672667,-1.121683189367577,VOX,No
164.18,161.92481269841272,2.741226787783339,0.82269271248838,VCR,No
129.97,134.55206349206347,4.059062038314934,-1.12884785913882,VDC,No
108.59,96.80047619047618,5.373907102939202,2.1938458525037903,VDE,No
71.25,70.6774603174603,1.6836892299437176,0.34005068890227286,VFH,No
157.87,156.265873015873,3.249980529817446,0.49358049053207637,VHT,No
140.73,140.11976507936504,3.0075748379324962,0.2028993303636117,VIS,No
181.3,175.94825396825394,4.952328148884149,1.0806525478227693,VGT,No
135.72,132.7258714285714,3.2157215047834162,0.9310907573851807,VAW,No
75.74,75.35571428571427,1.2920571935418417,0.2974215972841759,VNQ,No
109.57,111.06523809523809,1.8482809320090163,-0.8089885413754836,VPU,No
