Latest Price,Mean Price,Percent Below,Price Stddev,Sigmas from mean,Symbol,Undervalued
113.38,111.4514056338028,80.28169014084507,1.7786636531267432,1.0842940219792987,EDV,No
80.77,81.03739436619719,35.2112676056338,0.4868704741097055,-0.5492104787955231,BIV,No
62.45,62.49007887323944,38.028169014084504,0.29076826982454335,-0.13783785027032713,VGIT,No
88.64,89.07211267605634,36.61971830985915,1.0841234734171026,-0.39858252925226045,BLV,No
73.92,73.35619718309856,67.6056338028169,0.8673991660311303,0.649992343757002,VGLT,No
51.24,51.29950704225353,35.2112676056338,0.1897889022445606,-0.31354331865436635,VMBS,No
78.06,78.21154929577469,23.943661971830984,0.16354047513244624,-0.926677604745558,BSV,No
48.99,48.844647887323944,94.36619718309859,0.10142409894916127,1.4331121911067246,VTIP,No
59.86,59.90636338028167,32.394366197183096,0.09753440164406939,-0.47535412634058943,VGSH,No
79.09,79.24859154929577,35.2112676056338,0.39678743652961096,-0.3996889384473461,BND,No
83.5,84.05492957746479,25.35211267605634,0.5874482254427854,-0.9446442314920869,VCIT,No
88.2,89.47915492957749,19.718309859154928,1.2178389385391553,-1.0503481939178942,VCLT,No
78.04,78.2212676056338,15.492957746478874,0.1681814879654323,-1.0778095010733253,VCSH,No
81.2388,81.78073521126763,23.943661971830984,0.5879433368545951,-0.921747347570765,VTC,No
50.86,50.6838028169014,92.95774647887323,0.11858456538266102,1.485835720104298,VTEB,No
102.9,101.76873239436621,74.64788732394366,1.5961114098372255,0.7087648134469283,VIG,No
150.29,145.38732394366204,95.77464788732394,3.293519440281355,1.488582698609829,VUG,No
84.63,83.83859154929578,70.4225352112676,1.4482522694561624,0.5464575940222035,VYM,No
125.84,123.65014084507042,84.50704225352112,2.3238303088018992,0.9423489945178518,VV,No
94.29,92.58760563380282,84.50704225352112,1.820540443507678,0.9351038436241161,MGC,No
119.34,115.29915492957745,95.77464788732394,2.742762433155527,1.473275636845291,MGK,No
75.63,75.3175352112676,54.929577464788736,1.3376718984545866,0.23358851232009106,MGV,No
251.41,247.0522535211268,84.50704225352112,4.636292896598638,0.9399204442131354,VOO,No
141.5,138.50915492957745,90.14084507042253,2.5527768622406457,1.1716045827042638,VTI,No
105.23,104.87661971830987,54.929577464788736,1.8086466371855887,0.19538381595645798,VTV,No
118.21,113.85143943661973,98.59154929577464,2.285565291217162,1.906994554095256,VXF,No
158.21,156.0338028169014,80.28169014084507,2.350759761029734,0.9257420597268204,VO,No
134.98,131.2467605633803,95.77464788732394,2.4957918242501815,1.495813633311058,VOT,No
110.7,110.62211267605633,46.478873239436616,1.458888169644767,0.05338813869649503,VOE,No
156.12,149.89281690140848,97.1830985915493,3.203805036664025,1.94368353483694,VB,No
175.47,167.36901408450703,98.59154929577464,4.049327941084733,2.0005754123541992,VBK,No
136.6,131.9128169014084,95.77464788732394,2.541780003500148,1.844055383289318,VBR,No
75.7,77.31613239436619,5.633802816901408,0.9231316503512275,-1.7507062982309118,VWOB,No
54.09,54.711971830985924,15.492957746478874,0.6185572029254963,-1.005520310885193,VEU,No
120.15,119.93084507042256,54.929577464788736,1.1121337776441764,0.1970580644009179,VSS,No
44.5,44.74225352112676,25.35211267605634,0.5329170249160254,-0.45458018753470314,VEA,No
45.11,46.47704225352113,9.859154929577464,1.1421765660675212,-1.1968747163390085,VWO,No
58.45,59.107605633802805,22.535211267605632,0.839977304838837,-0.7828850017905835,VGK,No
73.01,73.0811267605634,43.66197183098591,0.7449842597746883,-0.09547417899124379,VPL,No
60.58,60.73859154929577,32.394366197183096,0.5905387747096954,-0.2685539986324073,VNQI,No
66.41,65.43747323943661,87.32394366197182,0.8489361199541139,1.1455829687349732,VIGI,No
64.86,62.299398939929375,55.65371024734982,4.849041320856829,0.5280633615261014,VYMI,No
54.37,54.449718309859136,30.985915492957748,0.19352891716078255,-0.41191937116513455,BNDX,No
56.39,56.90704225352112,18.309859154929576,0.6197214148449744,-0.8343140016396864,VXUS,No
75.08,74.6342253521127,60.563380281690144,1.0205668984867413,0.4367912074635018,VT,No
83.22,92.00391554770319,3.7102473498233217,5.147886593487167,-1.7063148902340104,VOX,No
166.56,162.3203267605634,95.77464788732394,2.817527941196805,1.5047493149742135,VCR,No
129.64,133.88816901408453,18.309859154929576,4.070131087572706,-1.043742553416875,VDC,No
105.39,97.96690140845068,81.69014084507042,5.842212486443692,1.2705971596846102,VDE,No
69.82,70.59746478873238,39.436619718309856,1.6192510164869338,-0.4801385213388017,VFH,No
159.0,156.46788732394367,83.09859154929578,3.123554726293294,0.810650972349434,VHT,No
141.4098,140.2800070422535,56.33802816901409,2.8883293609898506,0.39115793822049255,VIS,No
186.32,176.84450704225347,98.59154929577464,5.225098095644265,1.8134574287984113,VGT,No
134.3,132.88873239436612,66.19718309859155,3.093317618049219,0.4562310696448632,VAW,No
79.24,75.70281690140843,98.59154929577464,1.523137221212823,2.322301004354046,VNQ,No
112.52,111.26408450704227,74.64788732394366,1.844943281287644,0.6807339313332077,VPU,No
