Date, Close/Last, Volume, Open, High, Low
01/06/2020,56.85,2892237,56.93,56.94,56.84
01/03/2020,56.89,1682961,56.86,56.9,56.82
01/02/2020,56.73,2593502,56.66,56.73,56.65
12/31/2019,56.58,1717258,56.62,56.63,56.58
12/30/2019,56.6,3503282,56.59,56.6,56.52
12/27/2019,56.71,3346247,56.725,56.75,56.69
12/26/2019,56.71,1704190,56.71,56.74,56.685
12/24/2019,56.67,1858210,56.61,56.68,56.6
12/23/2019,56.64,1640780,56.63,56.65,56.59
12/20/2019,57.97,1809987,57.96,58.01,57.92
12/19/2019,57.92,1659070,57.93,57.99,57.9
12/18/2019,58.04,1923604,58.08,58.09,57.98
12/17/2019,58.09,1480217,58.08,58.09,58.03
12/16/2019,58.07,1893499,58.14,58.16,58.06
12/13/2019,58.1,1499017,57.99,58.1,57.92
12/12/2019,57.96,1595879,58.11,58.12,57.9418
12/11/2019,58.1,1472819,58.03,58.1,57.99
12/10/2019,58.0,1418493,58.01,58.0163,57.9638
12/09/2019,57.99,1574514,58.03,58.03,57.97
12/06/2019,57.93,1385953,57.92,57.99,57.905
12/05/2019,57.9,1438277,57.88,57.94,57.852
12/04/2019,58.06,2354871,58.17,58.17,58.05
12/03/2019,58.14,1718712,58.05,58.17,58.03
12/02/2019,57.96,1841991,57.97,57.98,57.91
11/29/2019,58.16,920860,58.22,58.23,58.16
11/27/2019,58.26,1265673,58.28,58.3,58.25
11/26/2019,58.26,1557590,58.26,58.29,58.25
11/25/2019,58.18,1462550,58.21,58.215,58.17
11/22/2019,58.17,3883531,58.14,58.17,58.1
11/21/2019,58.09,3130983,58.1,58.13,58.08
11/20/2019,58.18,1260129,58.16,58.19,58.13399999999999
11/19/2019,58.08,1789168,58.05,58.1,58.05
11/18/2019,58.03,1924701,58.06,58.12,58.03
11/15/2019,58.05,1165195,58.01,58.07,58.0
11/14/2019,58.07,1619344,58.04,58.09,58.03
11/13/2019,57.95,1369616,57.96,58.005,57.95
11/12/2019,57.82,831572,57.78,57.83,57.74
11/11/2019,57.82,948698,57.83,57.87,57.8
11/08/2019,57.82,1490992,57.78,57.88,57.75
11/07/2019,57.81,1928347,57.94,57.95,57.78
11/06/2019,58.12,1692092,58.08,58.12,58.0301
11/05/2019,58.07,1446164,58.09,58.09,58.03
11/04/2019,58.17,2047458,58.24,58.24,58.16
11/01/2019,58.32,1789298,58.43,58.44,58.29
10/31/2019,58.49,1566802,58.46,58.51,58.4303
10/30/2019,58.28,1002662,58.22,58.3,58.22
10/29/2019,58.16,1051740,58.14,58.18,58.13
10/28/2019,58.12,1302551,58.195,58.2,58.11
10/25/2019,58.27,1571485,58.34,58.34,58.23
10/24/2019,58.4,1212574,58.36,58.4,58.343
10/23/2019,58.33,1053328,58.35,58.38,58.31
10/22/2019,58.29,1114244,58.25,58.3,58.22
10/21/2019,58.15,1001889,58.16,58.18,58.13
10/18/2019,58.27,1447681,58.28,58.31,58.25
10/17/2019,58.38,2481433,58.3,58.39,58.2775
10/16/2019,58.24,1367376,58.31,58.32,58.24
10/15/2019,58.35,2286626,58.49,58.5,58.28
10/14/2019,58.46,1268744,58.48,58.49,58.41
10/11/2019,58.32,1394744,58.4,58.44,58.32
10/10/2019,58.54,1023669,58.64,58.64,58.53
10/09/2019,58.81,1197087,58.82,58.83,58.76
10/08/2019,58.82,1121195,58.86,58.89,58.812
10/07/2019,58.76,1082401,58.87,58.885,58.76
10/04/2019,58.91,1309546,58.89,58.93,58.87
10/03/2019,58.9,1164626,58.83,58.94,58.81
10/02/2019,58.68,1301626,58.67,58.72,58.661
10/01/2019,58.68,1889005,58.6,58.76,58.585
09/30/2019,58.83,1597112,58.81,58.85,58.8
09/27/2019,58.88,2407961,58.89,58.91,58.83
09/26/2019,58.85,1327792,58.89,58.92,58.85
09/25/2019,58.84,6711500,58.92,58.965,58.83
09/24/2019,58.93,15654980,58.8,58.9563,58.78
09/23/2019,58.84,17454370,58.79,58.86,58.78
09/20/2019,58.66,1327813,58.6,58.66,58.555
09/19/2019,58.53,1488830,58.51,58.59,58.51
09/18/2019,58.55,1128958,58.5,58.575,58.49
09/17/2019,58.36,1175709,58.41,58.41,58.34
09/16/2019,58.32,1180060,58.31,58.34,58.26
09/13/2019,58.16,3425185,58.26,58.3,58.07
09/12/2019,58.5,1446463,58.69,58.7265,58.46
09/11/2019,58.55,1294668,58.44,58.55,58.43
09/10/2019,58.47,1021434,58.58,58.61,58.45
09/09/2019,58.73,1305045,58.7,58.73,58.66
09/06/2019,58.88,1251451,58.89,58.93,58.865
09/05/2019,58.81,2120304,58.835,58.88,58.75
09/04/2019,59.03,2070224,58.99,59.09,58.98
09/03/2019,59.22,2260157,59.18,59.27,59.16
08/30/2019,59.13,3389146,59.19,59.19,59.08
08/29/2019,59.16,1355505,59.23,59.235,59.14
08/28/2019,59.17,1288734,59.22,59.245,59.17
08/27/2019,59.06,1522381,58.92,59.06,58.9
08/26/2019,58.88,1467510,58.89,58.95,58.855
08/23/2019,58.89,1308768,58.76,58.89,58.75
08/22/2019,58.79,1434071,58.775,58.82,58.77
08/21/2019,58.89,1269128,58.9,58.96,58.88
08/20/2019,58.98,1261811,58.97,59.005,58.95
08/19/2019,58.9,1111566,58.87,58.92,58.8401
08/16/2019,59.08,1280188,59.12,59.13,59.02
08/15/2019,59.17,1796226,58.91,59.185,58.89
08/14/2019,58.8,1801178,58.73,58.84,58.73
08/13/2019,58.67,1328059,58.66,58.67,58.57
08/12/2019,58.52,1205169,58.45,58.54,58.45
08/09/2019,58.46,1262464,58.48,58.5,58.44
08/08/2019,58.41,1300461,58.385,58.43,58.35
08/07/2019,58.6,1601649,58.65,58.67,58.58
08/06/2019,58.36,1320038,58.3,58.37,58.28
08/05/2019,58.27,1392687,58.31,58.31,58.24
08/02/2019,58.17,1614349,58.15,58.2,58.14
08/01/2019,58.05,1617984,57.96,58.07,57.93
07/31/2019,57.96,1409466,57.9,58.01,57.895
07/30/2019,57.89,1243096,57.86,57.89,57.83
07/29/2019,57.92,1260798,57.89,57.92,57.86
07/26/2019,57.83,1114984,57.87,57.87,57.82
07/25/2019,57.85,1496771,57.87,57.88,57.8
07/24/2019,57.85,1223419,57.82,57.86,57.82
07/23/2019,57.75,1093887,57.71,57.75,57.695
07/22/2019,57.7,1247380,57.7,57.71,57.68
07/19/2019,57.68,1217391,57.67,57.7,57.65
07/18/2019,57.7,1461444,57.62,57.7,57.62
07/17/2019,57.55,1396681,57.56,57.58,57.54
07/16/2019,57.43,1203387,57.43,57.47,57.43
07/15/2019,57.4,1386895,57.39,57.43,57.36
07/12/2019,57.22,1167109,57.26,57.27,57.22
07/11/2019,57.32,1239643,57.43,57.43,57.3
07/10/2019,57.43,1200657,57.46,57.46,57.41
07/09/2019,57.54,1035659,57.57,57.57,57.52
07/08/2019,57.56,1773953,57.58,57.62,57.55
07/05/2019,57.56,1253339,57.55,57.5779,57.52
07/03/2019,57.63,1371947,57.61,57.65,57.6
07/02/2019,57.41,1630344,57.4,57.45,57.39
07/01/2019,57.3,2205180,57.29,57.35,57.28
06/28/2019,57.3,1338664,57.3,57.33,57.29
06/27/2019,57.25,915675,57.24,57.27,57.23
06/26/2019,57.21,1371378,57.28,57.29,57.21
06/25/2019,57.3,1791684,57.29,57.34,57.2853
06/24/2019,57.24,2167793,57.24,57.27,57.22
06/21/2019,57.18,1696046,57.21,57.235,57.15
06/20/2019,57.25,1064002,57.34,57.35,57.25
06/19/2019,57.2,1078234,57.11,57.2,57.07
06/18/2019,57.15,1227270,57.18,57.2,57.14
06/17/2019,56.9,1996525,56.91,56.92,56.89
06/14/2019,56.92,1285567,56.89,56.93,56.887
06/13/2019,56.84,1233140,56.79,56.85,56.78
06/12/2019,56.77,912473,56.76,56.79,56.75
06/11/2019,56.73,981031,56.74,56.78,56.73
06/10/2019,56.71,1463878,56.76,56.76,56.59
06/07/2019,56.82,926578,56.82,56.8336,56.78
06/06/2019,56.67,1195296,56.63,56.68,56.61
06/05/2019,56.61,1632596,56.61,56.64,56.59
06/04/2019,56.52,1477199,56.51,56.54,56.5
06/03/2019,56.46,1890258,56.45,56.46,56.43
05/31/2019,56.47,1885155,56.4,56.49,56.4
05/30/2019,56.35,1619478,56.35,56.39,56.32
05/29/2019,56.33,1261366,56.32,56.38,56.31
05/28/2019,56.24,807296,56.26,56.28,56.22
05/24/2019,56.2,923772,56.18,56.21,56.16
05/23/2019,56.12,912083,56.06,56.15,56.06
05/22/2019,56.05,900702,56.01,56.06,56.01
05/21/2019,55.96,898684,55.97,56.0,55.95
05/20/2019,55.96,811980,56.0,56.0181,55.96
05/17/2019,56.04,899906,56.06,56.07,56.0
05/16/2019,56.01,776249,56.0,56.04,55.98
05/15/2019,55.98,1266866,55.98,56.01,55.97
05/14/2019,55.91,1096729,55.87,55.91,55.86
05/13/2019,55.87,1651715,55.81,55.89,55.81
05/10/2019,55.81,1111067,55.81,55.84,55.77
05/09/2019,55.83,1010674,55.84,55.88,55.8
05/08/2019,55.83,1720696,55.85,55.89,55.8
05/07/2019,55.79,1032992,55.79,55.83,55.79
05/06/2019,55.73,966488,55.75,55.77,55.72
05/03/2019,55.75,1623536,55.76,55.815,55.72
05/02/2019,55.71,1200478,55.77,55.8,55.71
05/01/2019,55.76,955164,55.77,55.84,55.75
04/30/2019,55.81,1322981,55.75,55.82,55.71
04/29/2019,55.76,1415464,55.74,55.805,55.74
04/26/2019,55.78,1733464,55.79,55.8191,55.77
04/25/2019,55.7,766728,55.69,55.74,55.69
04/24/2019,55.73,931662,55.72,55.77,55.7
04/23/2019,55.6,1132853,55.61,55.64,55.6
04/22/2019,55.57,1120245,55.6,55.62,55.57
04/18/2019,55.59,1074229,55.59,55.62,55.58
04/17/2019,55.44,1050585,55.51,55.51,55.43
04/16/2019,55.54,2088244,55.55,55.57,55.49
04/15/2019,55.52,1214058,55.52,55.56,55.5
04/12/2019,55.61,959215,55.62,55.64,55.56
04/11/2019,55.74,1000379,55.74,55.75,55.71
04/10/2019,55.73,894771,55.72,55.73,55.69
04/09/2019,55.67,970442,55.64,55.68,55.64
04/08/2019,55.62,1065394,55.62,55.63,55.6
04/05/2019,55.61,904545,55.6,55.61,55.56
04/04/2019,55.58,1241733,55.57,55.62,55.5684
04/03/2019,55.57,1048794,55.6,55.62,55.55
04/02/2019,55.63,1448733,55.66,55.71,55.63
04/01/2019,55.6,1751094,55.69,55.69,55.59
03/29/2019,55.77,1059627,55.75,55.82,55.73
03/28/2019,55.85,1155065,55.83,55.86,55.8
03/27/2019,55.81,908555,55.82,55.85,55.76
03/26/2019,55.71,1444328,55.71,55.75,55.67
03/25/2019,55.8,1045373,55.74,55.81,55.72
03/22/2019,55.71,1468458,55.71,55.75,55.69
03/21/2019,55.56,881837,55.54,55.58,55.53
03/20/2019,55.4,940541,55.35,55.4493,55.33
03/19/2019,55.355,1097131,55.31,55.36,55.29
03/18/2019,55.33,1288748,55.3,55.35,55.29
03/15/2019,55.3,795110,55.3,55.31,55.26
03/14/2019,55.26,796129,55.27,55.3,55.25
03/13/2019,55.25,881496,55.28,55.285,55.24
03/12/2019,55.24,973461,55.21,55.2588,55.2
03/11/2019,55.21,926275,55.24,55.24,55.18
03/08/2019,55.27,1065515,55.22,55.27,55.2
03/07/2019,55.22,839795,55.15,55.22,55.13
03/06/2019,55.05,908993,54.96,55.06,54.96
03/05/2019,54.91,1058711,54.85,54.91,54.85
03/04/2019,54.83,1504174,54.81,54.86,54.78
03/01/2019,54.76,1654062,54.77,54.78,54.74
02/28/2019,54.85,1011300,54.86,54.88,54.83
02/27/2019,54.9,1075503,54.96,54.9665,54.9
02/26/2019,55.01,1250109,55.02,55.05,54.99
02/25/2019,55.0,1897088,54.99,55.02,54.98
02/22/2019,55.03,1009454,55.01,55.03,54.98
02/21/2019,54.96,854479,54.92,54.97,54.9
02/20/2019,54.97,1080270,54.96,54.99,54.94
02/19/2019,54.95,1310760,54.93,54.96,54.93
02/15/2019,54.9,1327581,54.9,54.92,54.881
02/14/2019,54.93,1315785,54.94,54.95,54.92
02/13/2019,54.85,9007389,54.83,54.86,54.79
02/12/2019,54.83,7258296,54.85,54.86,54.8
02/11/2019,54.85,4482077,54.84,54.88,54.83
02/08/2019,54.89,5086324,54.83,54.9,54.83
02/07/2019,54.83,4627805,54.83,54.84,54.8023
02/06/2019,54.78,9917817,54.82,54.83,54.74
02/05/2019,54.78,4985526,54.76,54.79,54.74
02/04/2019,54.71,8443199,54.68,54.735,54.68
02/01/2019,54.73,7933019,54.75,54.75,54.683
01/31/2019,54.79,9751694,54.81,54.85,54.77
01/30/2019,54.73,998759,54.68,54.76,54.67
01/29/2019,54.7,2012118,54.68,54.7061,54.65
01/28/2019,54.58,2351495,54.64,54.66,54.57
01/25/2019,54.63,991310,54.67,54.67,54.63
01/24/2019,54.65,1507804,54.61,54.65,54.58
01/23/2019,54.51,1337646,54.47,54.52,54.46
01/22/2019,54.47,2248295,54.46,54.47,54.42
01/18/2019,54.37,1324663,54.36,54.39,54.34
01/17/2019,54.39,1879520,54.4,54.41,54.355
01/16/2019,54.37,8489704,54.28,54.39,54.25
01/15/2019,54.3,1466567,54.3,54.328,54.26
01/14/2019,54.21,1340151,54.27,54.29,54.2
01/11/2019,54.21,1154331,54.26,54.26,54.17
01/10/2019,54.15,2459306,54.2,54.22,54.15
01/09/2019,54.13,1113869,54.13,54.19,54.1231
01/08/2019,54.1,1034269,54.1,54.13,54.07
01/07/2019,54.14,1570316,54.25,54.25,54.14
01/04/2019,54.27,2086398,54.3,54.32,54.23
01/03/2019,54.32,1754703,54.32,54.4,54.31
01/02/2019,54.32,3252582,54.35,54.38,54.3
12/31/2018,54.25,2654299,54.17,54.27,54.16
12/28/2018,54.16,2456899,54.17,54.21,54.13
12/27/2018,54.12,2262783,54.06,54.19,54.06
12/26/2018,54.09,2293746,54.17,54.18,54.07
12/24/2018,54.14,1388745,54.15,54.16,54.06
12/21/2018,55.09,1866925,55.23,55.24,55.09
12/20/2018,55.31,1259491,55.33,55.34,55.25
12/19/2018,55.28,1262735,55.24,55.28,55.2
12/18/2018,55.19,1719866,55.17,55.19,55.13
12/17/2018,55.09,1510057,55.06,55.09,55.03
12/14/2018,55.04,1262254,55.05,55.09,55.03
12/13/2018,54.96,726043,55.03,55.03,54.96
12/12/2018,54.97,1006800,55.04,55.0465,54.95
12/11/2018,55.06,910043,55.03,55.07,55.01
12/10/2018,55.03,977866,55.0,55.04,54.96
12/07/2018,54.98,1369824,54.96,55.0,54.94
12/06/2018,54.95,2244628,54.99,55.035,54.94
12/04/2018,54.93,1592180,54.86,54.94,54.84
12/03/2018,54.82,2373179,54.77,54.83,54.73
11/30/2018,54.76,1340193,54.81,54.81,54.75
11/29/2018,54.73,733154,54.76,54.775,54.73
11/28/2018,54.69,1334382,54.67,54.72,54.65
11/27/2018,54.72,1385669,54.7,54.7401,54.7
11/26/2018,54.67,910381,54.68,54.68,54.65
11/23/2018,54.65,488825,54.69,54.69,54.65
11/21/2018,54.59,1134814,54.58,54.61,54.57
11/20/2018,54.58,855738,54.57,54.58,54.54
11/19/2018,54.54,672929,54.56,54.56,54.53
11/16/2018,54.53,860054,54.59,54.59,54.53
11/15/2018,54.55,997253,54.58,54.61,54.55
11/14/2018,54.54,794882,54.52,54.5665,54.47
11/13/2018,54.51,696316,54.53,54.55,54.51
11/12/2018,54.51,612026,54.51,54.56,54.51
11/09/2018,54.51,872465,54.46,54.51,54.455
11/08/2018,54.4,780033,54.45,54.45,54.4
11/07/2018,54.47,1328175,54.48,54.49,54.45
11/06/2018,54.49,875248,54.5,54.5,54.47
11/05/2018,54.48,825595,54.48,54.51,54.47
11/02/2018,54.47,2596037,54.5,54.51,54.43
11/01/2018,54.52,2842688,54.47,54.56,54.47
10/31/2018,54.53,985079,54.59,54.59,54.53
10/30/2018,54.62,1353903,54.63,54.64,54.59
10/29/2018,54.69,1231577,54.65,54.69,54.61
10/26/2018,54.69,945063,54.68,54.72,54.65
10/25/2018,54.58,986498,54.56,54.59,54.54
10/24/2018,54.52,1167545,54.5,54.55,54.49
10/23/2018,54.44,803001,54.5,54.5,54.44
10/22/2018,54.41,1451001,54.44,54.44,54.38
10/19/2018,54.4,683880,54.36,54.41,54.34
10/18/2018,54.39,781890,54.32,54.41,54.32
10/17/2018,54.37,782022,54.38,54.4,54.37
10/16/2018,54.33,824464,54.32,54.34,54.3
10/15/2018,54.26,768364,54.29,54.29,54.25
10/12/2018,54.24,1318783,54.25,54.28,54.21
10/11/2018,54.21,1183347,54.22,54.26,54.17
10/10/2018,54.14,1286787,54.14,54.16,54.1
10/09/2018,54.16,968404,54.16,54.17,54.13
10/08/2018,54.17,1013773,54.2,54.2,54.14
10/05/2018,54.13,1085883,54.18,54.21,54.1
10/04/2018,54.22,1490212,54.31,54.31,54.2
10/03/2018,54.31,2240355,54.44,54.46,54.31
10/02/2018,54.46,1039212,54.42,54.47,54.41
10/01/2018,54.39,1327336,54.43,54.44,54.39
09/28/2018,54.54,951477,54.545,54.549,54.51
09/27/2018,54.57,1338948,54.55,54.58,54.52
09/26/2018,54.56,793903,54.53,54.58,54.48
09/25/2018,54.46,891532,54.46,54.47,54.42
09/24/2018,54.5,695250,54.51,54.53,54.46
09/21/2018,54.6,905672,54.58,54.61,54.57
09/20/2018,54.59,789894,54.56,54.59,54.53
09/19/2018,54.58,1245825,54.61,54.62,54.55
09/18/2018,54.63,1068458,54.67,54.67,54.6114
09/17/2018,54.64,923942,54.62,54.66,54.61
09/14/2018,54.62,805958,54.63,54.64,54.605
09/13/2018,54.64,748416,54.7,54.7,54.64
09/12/2018,54.69,1326130,54.68,54.7,54.66
09/11/2018,54.67,984425,54.69,54.69,54.65
09/10/2018,54.71,876092,54.69,54.71,54.68
09/07/2018,54.7,846695,54.7,54.7,54.67
09/06/2018,54.72,1146787,54.68,54.74,54.67
09/05/2018,54.67,1182776,54.67,54.69,54.64
09/04/2018,54.685,1486739,54.65,54.69,54.65
08/31/2018,54.72,1275994,54.72,54.74,54.69
08/30/2018,54.695,810837,54.68,54.7268,54.6705
08/29/2018,54.66,824099,54.66,54.67,54.62
08/28/2018,54.69,975283,54.66,54.705,54.655
08/27/2018,54.69,813107,54.72,54.74,54.68
08/24/2018,54.74,835872,54.76,54.78,54.73
08/23/2018,54.82,897496,54.77,54.82,54.77
08/22/2018,54.79,844712,54.81,54.81,54.76
08/21/2018,54.8,1119932,54.82,54.83,54.76
08/20/2018,54.78,805167,54.76,54.79,54.76
08/17/2018,54.75,717232,54.75,54.77,54.73
08/16/2018,54.75,835806,54.78,54.78,54.71
08/15/2018,54.72,964947,54.73,54.76,54.71
08/14/2018,54.74,824988,54.74,54.76,54.71
08/13/2018,54.73,785101,54.71,54.75,54.69
08/10/2018,54.73,889225,54.74,54.79,54.72
08/09/2018,54.68,587682,54.66,54.69,54.65
08/08/2018,54.62,979094,54.61,54.62,54.59
08/07/2018,54.63,878736,54.64,54.645,54.61
08/06/2018,54.61,813771,54.62,54.63,54.57
08/03/2018,54.57,735092,54.53,54.6,54.52
08/02/2018,54.48,1025223,54.51,54.52,54.47
08/01/2018,54.55,1455837,54.54,54.58,54.53
07/31/2018,54.74,738540,54.71,54.74,54.6748
07/30/2018,54.67,2676434,54.62,54.68,54.6
07/27/2018,54.71,712514,54.76,54.77,54.7
07/26/2018,54.67,1237027,54.77,54.77,54.66
07/25/2018,54.75,946387,54.81,54.82,54.73
07/24/2018,54.75,687272,54.72,54.77,54.72
07/23/2018,54.725,909131,54.78,54.79,54.71
07/20/2018,54.89,586127,54.94,54.96,54.87
07/19/2018,54.99,564951,54.95,55.0,54.94
07/18/2018,54.92,1151670,54.93,54.97,54.91
07/17/2018,54.93,1073198,54.94,54.96,54.91
07/16/2018,54.89,1141156,54.87,54.9,54.82
07/13/2018,54.91,932264,54.92,54.93,54.88
07/12/2018,54.89,738142,54.87,54.89,54.825
07/11/2018,54.85,1192335,54.83,54.86,54.81
07/10/2018,54.81,1032655,54.81,54.83,54.79
07/09/2018,54.84,717373,54.8,54.85,54.77
07/06/2018,54.8,620784,54.83,54.84,54.8
07/05/2018,54.8,846543,54.75,54.82,54.73
07/03/2018,54.73,619862,54.72,54.78,54.71
07/02/2018,54.72,1706126,54.78,54.79,54.7
06/29/2018,54.71,1091008,54.69,54.77,54.67
06/28/2018,54.64,1378445,54.71,54.75,54.63
06/27/2018,54.76,603213,54.74,54.77,54.66
06/26/2018,54.65,926638,54.65,54.67,54.61
06/25/2018,54.65,940449,54.69,54.72,54.64
06/22/2018,54.74,672340,54.74,54.76,54.72
06/21/2018,54.73,773108,54.71,54.75,54.69
06/20/2018,54.71,575704,54.68,54.74,54.67
06/19/2018,54.7,1026400,54.6,54.7,54.565
06/18/2018,54.5,792692,54.51,54.55,54.49
06/15/2018,54.51,562765,54.47,54.53,54.43
06/14/2018,54.39,785115,54.29,54.44,54.29
06/13/2018,54.22,1863558,54.28,54.29,54.14
06/12/2018,54.16,861958,54.14,54.19,54.14
06/11/2018,54.1,1522183,54.1,54.15,54.06
06/08/2018,54.11,763632,54.17,54.1875,54.09
06/07/2018,54.12,1020556,54.11,54.19,54.11
06/06/2018,54.11,1733316,54.22,54.24,54.075
06/05/2018,54.37,1059382,54.42,54.43,54.37
06/04/2018,54.39,3029173,54.39,54.44,54.37
06/01/2018,54.37,958162,54.41,54.48,54.36
05/31/2018,54.43,7158219,54.46,54.49,54.38
05/30/2018,54.44,976076,54.41,54.46,54.335
05/29/2018,54.35,8623227,54.38,54.4,54.22
05/25/2018,54.47,1561836,54.53,54.53,54.4649
05/24/2018,54.43,903957,54.45,54.49,54.42
05/23/2018,54.43,967552,54.38,54.44,54.35
05/22/2018,54.32,751585,54.34,54.36,54.32
05/21/2018,54.36,1320760,54.35,54.37,54.31
05/18/2018,54.34,667811,54.26,54.36,54.25
05/17/2018,54.31,652905,54.34,54.35,54.29
05/16/2018,54.36,896511,54.38,54.4,54.34
05/15/2018,54.36,1305793,54.405,54.41,54.33
05/14/2018,54.47,1281318,54.51,54.51,54.44
05/11/2018,54.55,806053,54.55,54.59,54.53
05/10/2018,54.55,942724,54.57,54.58,54.52
05/09/2018,54.56,1077794,54.53,54.56,54.51
05/08/2018,54.54,958051,54.57,54.58,54.51
05/07/2018,54.65,769347,54.65,54.66,54.63
05/04/2018,54.61,579067,54.62,54.63,54.59
05/03/2018,54.64,711376,54.58,54.65,54.56
05/02/2018,54.54,940199,54.54,54.565,54.51
05/01/2018,54.58,780871,54.56,54.59,54.55
04/30/2018,54.6,2757081,54.57,54.63,54.55
04/27/2018,54.6,582584,54.57,54.61,54.55
04/26/2018,54.54,1089264,54.47,54.55,54.44
04/25/2018,54.43,1238344,54.42,54.45,54.4
04/24/2018,54.48,650361,54.46,54.49,54.42
04/23/2018,54.46,611227,54.46,54.46,54.423
04/20/2018,54.52,617275,54.5,54.525,54.4614
04/19/2018,54.54,745693,54.57,54.57,54.47
04/18/2018,54.69,851778,54.69,54.73,54.68
04/17/2018,54.71,1178631,54.67,54.72,54.66
04/16/2018,54.64,1754422,54.61,54.65,54.59
04/13/2018,54.65,680228,54.57,54.66,54.57
04/12/2018,54.61,826569,54.65,54.65,54.59
04/11/2018,54.65,808130,54.7,54.7,54.63
04/10/2018,54.64,906709,54.66,54.68,54.63
04/09/2018,54.69,1115190,54.66,54.71,54.65
04/06/2018,54.68,946531,54.62,54.7,54.6
04/05/2018,54.56,983713,54.6,54.63,54.55
04/04/2018,54.7,1100083,54.68,54.7,54.66
04/03/2018,54.7,1018487,54.68,54.71,54.67
04/02/2018,54.7,1875445,54.68,54.71,54.61
03/29/2018,54.73,1097376,54.67,54.74,54.66
03/28/2018,54.67,918286,54.7,54.75,54.65
03/27/2018,54.67,1057316,54.6,54.67,54.55
03/26/2018,54.57,1357281,54.54,54.59,54.5
03/23/2018,54.56,791460,54.49,54.59,54.49
03/22/2018,54.58,1171545,54.54,54.62,54.49
03/21/2018,54.41,1044870,54.37,54.43,54.36
03/20/2018,54.46,1053804,54.42,54.47,54.42
03/19/2018,54.43,761301,54.37,54.46,54.33
03/16/2018,54.43,737611,54.4,54.44,54.39
03/15/2018,54.4,1166499,54.36,54.42,54.36
03/14/2018,54.39,1106228,54.3,54.39,54.2962
03/13/2018,54.27,1174312,54.29,54.3,54.25
03/12/2018,54.24,924353,54.23,54.25,54.21
03/09/2018,54.2,761790,54.19,54.22,54.17
03/08/2018,54.23,898226,54.17,54.25,54.14
03/07/2018,54.2,1063894,54.19,54.22,54.14
03/06/2018,54.11,1396314,54.08,54.12,54.05
03/05/2018,54.17,919938,54.21,54.22,54.15
03/02/2018,54.13,1036738,54.22,54.22,54.11
03/01/2018,54.2,2523707,54.19,54.23,54.15
02/28/2018,54.15,965062,54.15,54.18,54.14
02/27/2018,54.1,1256418,54.16,54.21,54.04
02/26/2018,54.11,1256190,54.1,54.2,54.09
02/23/2018,54.1,1141717,54.09,54.13,54.04
02/22/2018,54.01,685917,53.99,54.02,53.98
02/21/2018,53.96,1058204,54.02,54.04,53.95
02/20/2018,53.95,1089438,53.98,54.0,53.91
02/16/2018,54.03,923652,53.98,54.05,53.93
02/15/2018,53.88,819805,53.88,53.89,53.85
02/14/2018,53.9,964956,53.91,53.95,53.8901
02/13/2018,53.96,1441670,53.99,53.99,53.91
02/12/2018,53.94,1311492,53.97,54.0,53.9
02/09/2018,53.99,982979,53.96,54.03,53.93
02/08/2018,53.94,1432819,53.95,53.99,53.86
02/07/2018,53.97,1475300,54.08,54.1,53.91
02/06/2018,54.04,1529713,54.04,54.12,54.02
02/05/2018,54.06,1472660,53.99,54.08,53.9
02/02/2018,53.89,1080112,53.91,53.92,53.84
02/01/2018,53.98,2927694,54.04,54.06,53.96
01/31/2018,54.06,1415241,54.14,54.16,54.05
01/30/2018,54.08,1210701,54.09,54.11,54.08
01/29/2018,54.09,1665582,54.11,54.13,54.06
01/26/2018,54.19,833841,54.22,54.23,54.17
01/25/2018,54.2,1053687,54.16,54.22,54.11
01/24/2018,54.21,972138,54.23,54.26,54.2
01/23/2018,54.28,1035424,54.29,54.31,54.27
01/22/2018,54.24,1482474,54.24,54.27,54.2
01/19/2018,54.2,2684992,54.22,54.24,54.18
01/18/2018,54.18,2863492,54.2,54.23,54.16
01/17/2018,54.2,3369292,54.21,54.28,54.2
01/16/2018,54.24,5943675,54.27,54.3,54.2
01/12/2018,54.19,2128171,54.16,54.2,54.12
01/11/2018,54.22,3392637,54.21,54.26,54.16
01/10/2018,54.22,3970310,54.2,54.26,54.16
01/09/2018,54.28,2306361,54.32,54.34,54.23
01/08/2018,54.31,1172472,54.34,54.37,54.31
01/05/2018,54.3,781341,54.32,54.33,54.27
01/04/2018,54.3,1469575,54.29,54.32,54.26
01/03/2018,54.29,879852,54.3,54.31,54.26
01/02/2018,54.25,3335706,54.29,54.3,54.15
12/29/2017,54.37,829332,54.31,54.37,54.28
12/28/2017,54.33,702855,54.38,54.39,54.32
12/27/2017,54.41,626535,54.23,54.42,54.23
12/26/2017,54.31,703918,54.29,54.33,54.26
12/22/2017,54.99,484542,54.97,55.01,54.96
12/21/2017,54.98,641224,54.96,55.0,54.94
12/20/2017,55.03,788558,54.98,55.03,54.96
12/19/2017,55.05,919430,55.12,55.12,55.05
12/18/2017,55.24,751681,55.25,55.261,55.2
12/15/2017,55.26,777451,55.23,55.28,55.21
12/14/2017,55.21,3212854,55.12,55.23,55.11
12/13/2017,55.2,5976166,55.18,55.2,55.148999999999994
12/12/2017,55.14,806212,55.1,55.2,55.1
12/11/2017,55.2,600019,55.22,55.23,55.17
12/08/2017,55.18,435604,55.18,55.18,55.14
12/07/2017,55.16,542861,55.21,55.21,55.15
12/06/2017,55.2,544824,55.2,55.24,55.1838
12/05/2017,55.15,767314,55.11,55.17,55.0842
12/04/2017,55.11,1126857,55.05,55.13,55.03
12/01/2017,55.08,716212,54.96,55.12,54.96
11/30/2017,54.96,535533,54.92,54.99,54.92
11/29/2017,54.92,1595056,54.99,55.0197,54.885
11/28/2017,55.0,1509333,55.12,55.12,54.97
11/27/2017,55.13,1451407,55.12,55.13,55.07
11/24/2017,55.08,297159,55.08,55.1,55.05
11/22/2017,55.13,2223070,55.09,55.13,55.07
11/21/2017,55.05,712079,55.07,55.0807,55.02
11/20/2017,55.0,641698,54.91,55.01,54.91
11/17/2017,54.97,662353,54.98,54.99,54.93
11/16/2017,54.96,568784,54.94,54.96,54.94
11/15/2017,54.97,732003,54.95,54.98,54.9
11/14/2017,54.89,3997165,54.86,54.9,54.8372
11/13/2017,54.82,493633,54.88,54.9,54.82
11/10/2017,54.81,531624,54.93,54.9399,54.81
11/09/2017,54.91,651727,54.97,54.9739,54.89
11/08/2017,55.09,679688,55.14,55.18,55.07
11/07/2017,55.13,495826,55.08,55.13,55.06
11/06/2017,55.03,678256,55.03,55.04,54.9801
11/03/2017,54.95,544811,54.99,54.99,54.911
11/02/2017,54.93,785886,54.9,54.93,54.88
11/01/2017,54.88,797105,54.87,54.91,54.85
10/31/2017,54.88,566851,54.89,54.93,54.86
10/30/2017,54.89,555806,54.85,54.9,54.8
10/27/2017,54.77,573589,54.73,54.84,54.7
10/26/2017,54.73,587606,54.71,54.75,54.6635
10/25/2017,54.64,524282,54.65,54.66,54.6
10/24/2017,54.64,526886,54.64,54.66,54.6
10/23/2017,54.7,449856,54.73,54.73,54.69
10/20/2017,54.66,630277,54.66,54.67,54.6
10/19/2017,54.76,472408,54.75,54.79,54.75
10/18/2017,54.75,748031,54.73,54.76,54.715
10/17/2017,54.79,829169,54.77,54.8,54.74
10/16/2017,54.78,461064,54.7,54.78,54.7
10/13/2017,54.69,515236,54.7,54.708999999999996,54.641000000000005
10/12/2017,54.6,668189,54.58,54.6065,54.56
10/11/2017,54.52,988638,54.52,54.55,54.49
10/10/2017,54.53,495791,54.55,54.56,54.51
10/09/2017,54.56,387867,54.57,54.59,54.5
10/06/2017,54.515,623606,54.44,54.54,54.39
10/05/2017,54.53,546443,54.53,54.55,54.457
10/04/2017,54.48,644901,54.54,54.55,54.47
10/03/2017,54.47,766299,54.45,54.5,54.43
10/02/2017,54.48,820625,54.51,54.55,54.455
09/29/2017,54.59,571969,54.58,54.63,54.535
09/28/2017,54.54,618812,54.52,54.55,54.49
09/27/2017,54.56,732374,54.55,54.57,54.4612
09/26/2017,54.68,490380,54.63,54.68,54.63
09/25/2017,54.69,564030,54.63,54.69,54.62
09/22/2017,54.6,447426,54.62,54.62,54.57
09/21/2017,54.55,576140,54.48,54.55,54.46
09/20/2017,54.55,589521,54.61,54.63,54.51
09/19/2017,54.61,450886,54.64,54.65,54.55
09/18/2017,54.55,595845,54.59,54.59,54.54
09/15/2017,54.6,381654,54.64,54.6462,54.56
09/14/2017,54.6,862473,54.63,54.65,54.58
09/13/2017,54.72,477932,54.73,54.73,54.68
09/12/2017,54.75,538716,54.78,54.8,54.71
09/11/2017,54.87,524861,54.9,54.91,54.8443
09/08/2017,54.95,520366,54.95,54.95,54.87
09/07/2017,54.95,720935,54.88,54.98,54.85
09/06/2017,54.89,588469,54.88,54.92,54.85
09/05/2017,54.92,578616,54.88,54.92,54.82
09/01/2017,54.78,801264,54.73,54.8125,54.73
08/31/2017,54.86,927329,54.84,54.9,54.83
08/30/2017,54.83,534252,54.81,54.8422,54.78
08/29/2017,54.85,851724,54.94,54.945,54.77
08/28/2017,54.83,668852,54.79,54.83,54.78
08/25/2017,54.8,420275,54.79,54.81,54.74
08/24/2017,54.8,548193,54.79,54.84,54.76
08/23/2017,54.8,569605,54.81,54.81,54.71
08/22/2017,54.75,498811,54.77,54.785,54.7
08/21/2017,54.77,534353,54.79,54.792,54.7235
08/18/2017,54.74,904325,54.76,54.7973,54.66
08/17/2017,54.75,666289,54.69,54.75,54.64
08/16/2017,54.64,707254,54.62,54.6864,54.59
08/15/2017,54.69,769057,54.65,54.69,54.63
08/14/2017,54.71,586470,54.7,54.73,54.67
08/11/2017,54.79,1121151,54.72,54.79,54.72
08/10/2017,54.71,559351,54.62,54.7172,54.57
08/09/2017,54.64,560818,54.67,54.72,54.64
08/08/2017,54.55,480379,54.58,54.58,54.54
08/07/2017,54.6,510726,54.65,54.65,54.55
08/04/2017,54.63,412830,54.57,54.63,54.51
08/03/2017,54.63,481750,54.57,54.64,54.5385
08/02/2017,54.49,545427,54.5,54.57,54.461999999999996
08/01/2017,54.57,924787,54.36,54.57,54.36
07/31/2017,54.4,961910,54.29,54.41,54.26
07/28/2017,54.41,530912,54.36,54.41,54.36
07/27/2017,54.39,897518,54.41,54.46,54.36
07/26/2017,54.39,420492,54.31,54.42,54.31
07/25/2017,54.33,540341,54.36,54.41,54.31
07/24/2017,54.44,647370,54.48,54.49,54.41
07/21/2017,54.49,517345,54.42,54.5,54.42
07/20/2017,54.37,546154,54.36,54.39,54.34
07/19/2017,54.36,512110,54.37,54.39,54.33
07/18/2017,54.31,526938,54.27,54.32,54.26
07/17/2017,54.21,634592,54.24,54.25,54.2
07/14/2017,54.17,500801,54.2,54.24,54.1
07/13/2017,54.19,408237,54.2,54.22,54.14
07/12/2017,54.22,465191,54.23,54.25,54.17
07/11/2017,54.05,1074015,54.1,54.12,54.02
07/10/2017,54.09,498867,54.11,54.17,54.07
07/07/2017,54.03,1326154,54.01,54.09,53.96
07/06/2017,54.12,725674,54.1,54.13,54.05
07/05/2017,54.22,937820,54.2,54.26,54.18
07/03/2017,54.21,619362,54.33,54.34,54.2
06/30/2017,54.36,810686,54.38,54.41,54.31
06/29/2017,54.31,828503,54.45,54.48,54.31
06/28/2017,54.63,507897,54.65,54.68,54.55
06/27/2017,54.66,553331,54.81,54.83,54.6
06/26/2017,54.9,870204,54.93,54.96,54.86
06/23/2017,54.87,627490,54.88,54.8986,54.85
06/22/2017,54.91,464747,54.91,54.94,54.89
06/21/2017,54.87,875431,54.86,54.88,54.81
06/20/2017,54.86,558117,54.82,54.87,54.78
06/19/2017,54.75,531973,54.74,54.77,54.72
06/16/2017,54.73,532533,54.73,54.75,54.7
06/15/2017,54.75,649985,54.74,54.75,54.68
06/14/2017,54.83,706666,54.82,54.86,54.785
06/13/2017,54.73,621101,54.71,54.73,54.68
06/12/2017,54.77,1319711,54.77,54.79,54.72
06/09/2017,54.73,803850,54.73,54.74,54.69
06/08/2017,54.71,714109,54.66,54.72,54.61
06/07/2017,54.66,466725,54.66,54.71,54.63
06/06/2017,54.69,531882,54.68,54.7,54.66
06/05/2017,54.58,837752,54.57,54.61,54.5501
06/02/2017,54.59,674666,54.59,54.648999999999994,54.56
06/01/2017,54.58,793808,54.55,54.59,54.52
05/31/2017,54.7,632696,54.69,54.71,54.63
05/30/2017,54.67,860153,54.65,54.69,54.63
05/26/2017,54.66,462920,54.64,54.678999999999995,54.58
05/25/2017,54.54,406667,54.53,54.55,54.49
05/24/2017,54.46,526593,54.48,54.48,54.39
05/23/2017,54.43,520454,54.49,54.5,54.4135
05/22/2017,54.43,624179,54.47,54.47,54.41
05/19/2017,54.47,382159,54.48,54.5195,54.45
05/18/2017,54.52,629248,54.52,54.5545,54.48
05/17/2017,54.48,606378,54.4,54.48,54.3524
05/16/2017,54.27,945008,54.26,54.31,54.24
05/15/2017,54.27,1101983,54.31,54.32,54.25
05/12/2017,54.35,497248,54.3,54.35,54.19
05/11/2017,54.19,449254,54.19,54.23,54.15
05/10/2017,54.27,648789,54.32,54.33,54.233999999999995
05/09/2017,54.23,936685,54.25,54.25,54.19
05/08/2017,54.26,502043,54.31,54.32,54.26
05/05/2017,54.34,672926,54.36,54.38,54.3
05/04/2017,54.32,498575,54.35,54.38,54.28
05/03/2017,54.43,651293,54.41,54.47,54.36
05/02/2017,54.4,889457,54.36,54.4,54.33
05/01/2017,54.31,670543,54.35,54.42,54.3
04/28/2017,54.35,648768,54.42,54.42,54.34
04/27/2017,54.4,654736,54.34,54.42,54.33
04/26/2017,54.32,493338,54.29,54.33,54.26
04/25/2017,54.3,716177,54.36,54.4,54.3
04/24/2017,54.43,619505,54.4,54.45,54.37
04/21/2017,54.46,642065,54.47,54.49,54.45
04/20/2017,54.46,806412,54.4,54.47,54.4
04/19/2017,54.52,570671,54.53,54.54,54.46
04/18/2017,54.58,581958,54.51,54.58,54.45
04/17/2017,54.48,576911,54.5,54.5594,54.45
04/13/2017,54.48,707538,54.43,54.48,54.4
04/12/2017,54.41,586102,54.35,54.42,54.29
04/11/2017,54.33,788727,54.35,54.38,54.269
04/10/2017,54.3,520127,54.31,54.343999999999994,54.26
04/07/2017,54.31,572758,54.36,54.4,54.29
04/06/2017,54.3,794848,54.28,54.31,54.21
04/05/2017,54.28,543717,54.2,54.28,54.16
04/04/2017,54.23,828463,54.28,54.31,54.22
04/03/2017,54.25,1299378,54.12,54.25,54.07
03/31/2017,54.13,632162,54.15,54.1999,54.1
03/30/2017,54.15,628988,54.16,54.19,54.12
03/29/2017,54.19,821425,54.12,54.19,54.08
03/28/2017,54.05,1175295,54.1,54.12,54.0
03/27/2017,54.05,586345,54.09,54.1,54.01
03/24/2017,54.02,545869,53.98,54.03,53.95
03/23/2017,53.97,479017,54.02,54.0486,53.92
03/22/2017,54.0,800866,54.0,54.01,53.92
03/21/2017,53.87,819237,53.82,53.88,53.81
03/20/2017,53.79,1115757,53.73,53.82,53.72
03/17/2017,53.73,769714,53.78,53.78,53.715
03/16/2017,53.78,1312393,53.84,53.88,53.75
03/15/2017,53.93,1060974,53.79,53.96,53.77
03/14/2017,53.72,1130091,53.67,53.73,53.63
03/13/2017,53.61,1468929,53.69,53.7,53.59
03/10/2017,53.66,1107382,53.79,53.79,53.63
03/09/2017,53.77,906835,53.8,53.842,53.71
03/08/2017,53.88,1225403,53.87,53.89,53.82
03/07/2017,54.03,730380,54.04,54.05,53.98
03/06/2017,54.05,1244738,54.06,54.07,54.01
03/03/2017,54.03,764599,54.02,54.06,53.96
03/02/2017,54.02,1127419,54.04,54.0795,53.98
03/01/2017,54.08,1596849,54.05,54.09,54.01
02/28/2017,54.19,1095089,54.24,54.26,54.17
02/27/2017,54.22,910655,54.27,54.28,54.17
02/24/2017,54.23,1239886,54.17,54.25,54.135
02/23/2017,54.07,746548,54.04,54.09,54.01
02/22/2017,53.98,965572,53.9,53.98,53.87
02/21/2017,53.82,1111971,53.93,53.93,53.79
02/17/2017,53.92,987737,53.93,53.96,53.86
02/16/2017,53.85,1043841,53.81,53.88,53.78
02/15/2017,53.78,889407,53.76,53.795,53.71
02/14/2017,53.78,1320208,53.84,53.8741,53.68
02/13/2017,53.81,812936,53.81,53.85,53.76
02/10/2017,53.81,804915,53.75,53.83,53.75
02/09/2017,53.88,841165,53.89,53.94,53.84
02/08/2017,53.87,617316,53.78,53.92,53.78
02/07/2017,53.76,858817,53.71,53.76,53.65
02/06/2017,53.63,843067,53.7,53.74,53.59
02/03/2017,53.68,1206676,53.77,53.77,53.61
02/02/2017,53.66,1626502,53.71,53.76,53.63
02/01/2017,53.66,1381603,53.61,53.67,53.56
01/31/2017,53.76,4451496,53.66,53.77,53.6395
01/30/2017,53.66,2053778,53.73,53.75,53.61
01/27/2017,53.75,928783,53.74,53.75,53.68
01/26/2017,53.67,1885785,53.7,53.724,53.57
01/25/2017,53.73,921999,53.78,53.85,53.68
01/24/2017,53.92,1663114,53.98,53.9922,53.85
01/23/2017,54.02,1237606,53.9,54.0399,53.86
01/20/2017,53.85,1225450,53.82,53.9383,53.7604
01/19/2017,53.92,1451354,53.96,53.9921,53.8301
01/18/2017,54.03,2632807,54.09,54.12,54.02
01/17/2017,54.08,1454128,54.25,54.26,54.05
01/13/2017,54.03,1181929,54.06,54.11,54.0
01/12/2017,54.09,1673879,54.15,54.2,54.06
01/11/2017,54.13,1309525,54.16,54.18,54.05
01/10/2017,54.03,937504,54.07,54.12,53.9803
01/09/2017,54.09,683057,54.1,54.15,53.99
01/06/2017,53.95,1511208,54.01,54.066,53.925
01/05/2017,54.09,1477200,54.11,54.17,54.01
01/04/2017,54.13,897045,54.17,54.23,54.04
01/03/2017,54.1,1066929,54.25,54.29,54.01
12/30/2016,54.29,600888,54.33,54.33,54.14
12/29/2016,54.34,884028,54.35,54.38,54.25
12/28/2016,54.24,613235,54.14,54.25,54.12
12/27/2016,54.16,849367,54.18,54.18,54.06
12/23/2016,54.17,620347,54.18,54.19,54.04
12/22/2016,54.06,668363,54.08,54.15,54.04
12/21/2016,54.5,715507,54.5,54.54,54.41
12/20/2016,54.47,837031,54.42,54.51,54.38
12/19/2016,54.5,600469,54.39,54.5,54.32
12/16/2016,54.32,643091,54.39,54.4066,54.22
12/15/2016,54.21,1096234,54.24,54.2995,54.05
12/14/2016,54.22,770168,54.39,54.45,54.16
12/13/2016,54.21,806568,54.31,54.31,53.97
12/12/2016,54.05,1064230,54.0,54.0969,53.94
12/09/2016,54.18,754054,54.22,54.2932,54.16
12/08/2016,54.24,582555,54.32,54.32,54.16
12/07/2016,54.32,547058,54.38,54.44,54.2345
12/06/2016,54.16,824139,54.35,54.35,54.0
12/05/2016,54.33,600340,54.14,54.35,54.0701
12/02/2016,54.38,958608,54.12,54.4,54.09
12/01/2016,54.14,1166859,54.39,54.39,54.09
11/30/2016,54.53,679311,54.57,54.61,54.47
11/29/2016,54.66,624522,54.45,54.67,54.45
11/28/2016,54.53,1002819,54.51,54.5714,54.47
11/25/2016,54.44,452122,54.5,54.52,54.36
11/23/2016,54.42,2030762,54.45,54.45,54.23
11/22/2016,54.54,1404751,54.54,54.56,54.38
11/21/2016,54.33,1022690,54.41,54.4663,54.29
11/18/2016,54.38,607161,54.49,54.4955,54.2884
11/17/2016,54.45,408436,54.57,54.57,54.38
11/16/2016,54.47,598771,54.61,54.61,54.4
11/15/2016,54.53,2458176,54.5,54.6,54.37
11/14/2016,54.36,767800,54.37,54.51,54.24
11/11/2016,54.5,513432,54.54,54.6164,54.42
11/10/2016,54.58,901463,54.61,54.7482,54.43
11/09/2016,54.8,1188926,54.96,55.14,54.8
11/08/2016,55.14,481787,55.25,55.25,55.1
11/07/2016,55.21,564085,55.16,55.27,55.12
11/04/2016,55.21,503744,55.19,55.32,55.18
11/03/2016,55.16,805934,55.27,55.27,55.11
11/02/2016,55.25,1162176,55.21,55.35,55.1404
11/01/2016,55.11,649102,55.11,55.19,55.06
10/31/2016,55.28,1109860,55.28,55.2908,55.2
10/28/2016,55.23,757585,55.23,55.28,55.17
10/27/2016,55.21,714195,55.32,55.33,55.21
10/26/2016,55.44,465243,55.55,55.55,55.41
10/25/2016,55.55,517553,55.57,55.61,55.5301
10/24/2016,55.54,529947,55.71,55.71,55.5186
10/21/2016,55.55,749445,55.58,55.61,55.54
10/20/2016,55.57,540900,55.57,55.6,55.4
10/19/2016,55.54,507956,55.57,55.57,55.49
10/18/2016,55.51,814207,55.51,55.53,55.42
10/17/2016,55.44,444368,55.44,55.47,55.38
10/14/2016,55.4,406723,55.53,55.53,55.4
10/13/2016,55.56,513315,55.56,55.58,55.49
10/12/2016,55.45,507410,55.52,55.52,55.36
10/11/2016,55.51,549330,55.54,55.55,55.45
10/10/2016,55.47,399708,55.52,55.59,55.442
10/07/2016,55.58,396625,55.58,55.6125,55.52
10/06/2016,55.62,556103,55.61,55.7,55.57
10/05/2016,55.63,760147,55.65,55.73,55.53
10/04/2016,55.75,950724,55.83,55.94,55.7
10/03/2016,55.78,1126401,55.98,55.98,55.77
09/30/2016,56.04,912116,56.19,56.19,55.98
09/29/2016,56.11,658849,56.09,56.11,56.0139
09/28/2016,56.1,528261,56.17,56.17,56.0
09/27/2016,56.1,575994,56.11,56.11,56.03
09/26/2016,56.03,519046,56.06,56.06,55.97
09/23/2016,55.92,472884,55.91,55.955,55.87
09/22/2016,55.95,654047,55.87,55.97,55.87
09/21/2016,55.76,584098,55.68,55.76,55.6031
09/20/2016,55.64,489051,55.65,55.69,55.6
09/19/2016,55.55,970588,55.56,55.6,55.5001
09/16/2016,55.56,2058510,55.59,55.6,55.43
09/15/2016,55.5,453466,55.48,55.55,55.38
09/14/2016,55.56,482318,55.54,55.6399,55.42
09/13/2016,55.49,875243,55.64,55.65,55.33
09/12/2016,55.61,536262,55.57,55.62,55.52
09/09/2016,55.7,915676,55.8,55.8,55.63
09/08/2016,55.91,653025,56.06,56.06,55.85
09/07/2016,56.11,757838,56.05,56.12,56.0
09/06/2016,55.97,668882,55.93,56.03,55.9
09/02/2016,55.88,813885,55.91,55.94,55.8385
09/01/2016,55.98,1044573,55.99,56.03,55.9201
08/31/2016,56.09,822652,56.13,56.1501,56.0548
08/30/2016,56.18,869313,56.13,56.196000000000005,56.0517
08/29/2016,56.13,407949,56.04,56.13,55.9801
08/26/2016,56.04,524018,56.13,56.1614,55.94
08/25/2016,56.09,599315,56.13,56.15,56.07
08/24/2016,56.09,534682,56.22,56.22,56.0501
08/23/2016,56.16,472596,56.15,56.1899,56.05
08/22/2016,56.08,445086,56.06,56.12,56.01
08/19/2016,56.0,398870,56.08,56.0952,55.9
08/18/2016,56.1,376303,56.09,56.12,56.0
08/17/2016,56.04,366572,55.97,56.05,55.86
08/16/2016,55.99,840087,56.12,56.12,55.85
08/15/2016,56.01,495378,55.83,56.1175,55.83
08/12/2016,56.1,288015,56.18,56.1875,56.04
08/11/2016,56.11,746435,56.24,56.26,56.03
08/10/2016,56.16,2041864,56.1,56.19,56.04
08/09/2016,56.02,707355,55.98,56.02,55.9007
08/08/2016,55.87,397303,55.85,55.9,55.73
08/05/2016,55.79,596144,55.83,55.898999999999994,55.74
08/04/2016,55.81,909325,55.82,55.9199,55.72
08/03/2016,55.69,704438,55.71,55.73,55.59
08/02/2016,55.61,2348942,55.69,55.8,55.6
08/01/2016,55.82,2950864,56.13,56.13,55.82
07/29/2016,56.1,580860,56.13,56.14,56.01
07/28/2016,56.11,473993,56.09,56.11,56.0182
07/27/2016,56.15,481022,55.97,56.15,55.89
07/26/2016,55.88,472869,55.89,55.9,55.81
07/25/2016,55.8,526876,55.93,55.93,55.79
07/22/2016,55.86,428305,55.82,55.89,55.725
07/21/2016,55.82,585053,55.79,55.84,55.67
07/20/2016,55.84,477343,55.84,55.888999999999996,55.766000000000005
07/19/2016,55.84,552135,55.96,55.96,55.7605
07/18/2016,55.71,502753,55.79,55.8,55.661
07/15/2016,55.76,2282900,55.83,55.83,55.66
07/14/2016,55.91,713128,55.93,55.9599,55.8101
07/13/2016,55.98,442371,55.89,56.02,55.87
07/12/2016,55.82,521866,55.84,55.9595,55.8101
07/11/2016,56.04,1123592,56.04,56.0999,55.9401
07/08/2016,56.1,695555,56.04,56.11,55.94
07/07/2016,55.94,949226,55.96,56.0,55.8
07/06/2016,56.04,583936,55.94,56.04,55.94
07/05/2016,55.99,516980,56.04,56.04,55.8
07/01/2016,55.78,1380826,55.57,55.78,55.53
06/30/2016,55.7,794151,55.68,55.77,55.6
06/29/2016,55.74,697225,55.67,55.75899999999999,55.6001
06/28/2016,55.65,1623086,55.64,55.65,55.456
06/27/2016,55.47,700472,55.45,55.4999,55.24
06/24/2016,55.04,562247,54.99,55.21,54.99
06/23/2016,54.82,552318,55.04,55.04,54.82
06/22/2016,54.96,361428,54.94,54.99,54.84
06/21/2016,54.96,977883,55.0,55.0787,54.9
06/20/2016,55.04,478762,55.04,55.0894,54.92
06/17/2016,55.07,428245,55.11,55.206,55.02
06/16/2016,55.18,1023493,55.3,55.3,55.1037
06/15/2016,55.25,513421,55.09,55.5402,55.04
06/14/2016,55.05,557750,55.16,55.18,55.0
06/13/2016,55.11,582687,55.11,55.13,55.0
06/10/2016,55.03,570539,55.08,55.11,54.99
06/09/2016,54.98,759546,55.11,55.11,54.96
06/08/2016,54.9,2334935,55.02,55.02,54.8103
06/07/2016,54.93,642131,54.99,54.99,54.91
06/06/2016,54.89,526138,54.9,54.93,54.82899999999999
06/03/2016,54.99,457949,54.79,54.99,54.79
06/02/2016,54.79,471917,56.31,56.31,54.6604
06/01/2016,54.73,925822,54.74,54.75,54.63
05/31/2016,54.69,700629,54.61,54.755,54.6
05/27/2016,54.75,617663,54.78,54.78,54.65
05/26/2016,54.71,489491,54.64,54.73,54.623000000000005
05/25/2016,54.64,386684,54.62,54.6599,54.55
05/24/2016,54.56,622142,54.6,54.636,54.52
05/23/2016,54.59,360618,54.54,54.59,54.5
05/20/2016,54.57,1930720,54.58,54.61,54.5001
05/19/2016,54.5,452867,54.49,54.53,54.42
05/18/2016,54.44,448256,54.6,54.602,54.37
05/17/2016,54.63,621622,54.63,54.67,54.59
05/16/2016,54.61,373457,54.61,54.65,54.58
05/13/2016,54.61,491455,54.65,54.7,54.585
05/12/2016,54.63,395499,54.59,54.6714,54.57
05/11/2016,54.64,478847,54.63,54.675,54.59
05/10/2016,54.58,470754,54.53,54.67,54.53
05/09/2016,54.6,501068,54.68,54.68,54.52
05/06/2016,54.6,595413,54.64,54.65,54.513000000000005
05/05/2016,54.55,738667,54.5,54.565,54.415
05/04/2016,54.46,839838,54.49,54.5,54.413000000000004
05/03/2016,54.47,631339,54.5,54.53,54.41
05/02/2016,54.35,586880,54.31,54.38,54.2501
04/29/2016,54.34,963237,54.27,54.36,54.18
04/28/2016,54.26,2271059,54.36,54.43,54.255
04/27/2016,54.27,509910,54.21,54.32,54.15
04/26/2016,54.21,787798,54.31,54.31,54.2
04/25/2016,54.275,472571,54.27,54.29,54.21
04/22/2016,54.33,1763802,54.44,54.44,54.31
04/21/2016,54.39,463374,54.39,54.425,54.36
04/20/2016,54.57,581784,54.59,54.63,54.54
04/19/2016,54.53,580198,54.54,54.54,54.48
04/18/2016,54.5,504003,54.5,54.56,54.48
04/15/2016,54.58,586516,54.53,54.58,54.52
04/14/2016,54.52,612110,54.5,54.55,54.46
04/13/2016,54.51,432292,54.47,54.53,54.43
04/12/2016,54.45,462926,54.52,54.52,54.42
04/11/2016,54.53,402543,54.57,54.57,54.49
04/08/2016,54.56,724963,54.58,54.613,54.55
04/07/2016,54.55,1376637,54.52,54.57,54.483999999999995
04/06/2016,54.53,997017,54.51,54.575,54.46
04/05/2016,54.57,881336,54.59,54.61,54.52
04/04/2016,54.45,838879,54.51,54.5896,53.92
04/01/2016,54.46,2183366,54.56,54.593,54.41
03/31/2016,54.54,781635,54.52,54.61,54.48
03/30/2016,54.58,615592,54.56,54.59,54.51
03/29/2016,54.57,533915,54.52,54.58,54.45
03/28/2016,54.37,560197,54.38,54.461999999999996,54.35
03/24/2016,54.46,519205,54.48,54.52,54.39
03/23/2016,54.4,453565,54.39,54.44,54.32
03/22/2016,54.41,738954,54.4,54.44,54.35
03/21/2016,54.35,553280,54.4,54.47,54.3341
03/18/2016,54.35,405850,54.31,54.42,54.3072
03/17/2016,54.24,633019,54.24,54.29,54.22
03/16/2016,54.13,613141,54.07,54.21,54.025
03/15/2016,54.0,628635,54.05,54.09,53.9515
03/14/2016,54.0,974480,54.02,54.07,53.95
03/11/2016,54.02,927078,53.95,54.04,53.92
03/10/2016,53.84,908040,54.08,54.1199,53.79
03/09/2016,54.03,664986,54.15,54.15,54.01
03/08/2016,54.17,581157,54.11,54.21,54.1
03/07/2016,54.03,458552,54.04,54.0443,53.97
03/04/2016,54.01,1397531,54.02,54.05,53.92
03/03/2016,53.99,416885,53.95,54.0495,53.9
03/02/2016,53.96,579007,54.01,54.04,53.9163
03/01/2016,54.12,978976,54.17,54.1749,54.03
02/29/2016,54.19,423611,54.1,54.19,54.09
02/26/2016,54.07,540080,54.06,54.09,54.01
02/25/2016,54.07,471924,54.0,54.07,53.965
02/24/2016,53.98,690809,53.95,54.06,53.95
02/23/2016,53.91,592432,53.84,53.92,53.8203
02/22/2016,53.9,551224,53.89,53.95,53.8
02/19/2016,53.85,435521,53.81,53.87,53.8
02/18/2016,53.8,727572,53.54,53.82,53.54
02/17/2016,53.68,448562,53.62,53.68,53.581
02/16/2016,53.64,779715,53.59,53.7,53.56
02/12/2016,53.61,558342,53.8,53.8,53.535
02/11/2016,53.84,716381,53.91,53.92,53.7
02/10/2016,53.76,650393,53.66,53.76,53.62
02/09/2016,53.82,1136782,53.81,53.88,53.74
02/08/2016,53.79,746655,53.7,53.8,53.665
02/05/2016,53.69,495540,53.65,53.7,53.61
02/04/2016,53.68,1372307,53.7,53.7,53.61600000000001
02/03/2016,53.68,718364,53.65,53.7,53.59
02/02/2016,53.6,1616752,53.51,53.64,53.47
02/01/2016,53.51,1783052,53.62,53.65,53.43600000000001
01/29/2016,53.57,992882,53.41,53.68,53.41
01/28/2016,53.4,571303,53.29,53.4,53.27
01/27/2016,53.29,433675,53.2,53.31,53.16
01/26/2016,53.13,642951,53.13,53.26,53.11
01/25/2016,53.17,587984,53.16,53.18,53.07
01/22/2016,53.04,682795,53.11,53.15,53.0133
01/21/2016,53.15,788089,53.11,53.24,53.09
01/20/2016,53.1,650043,53.03,53.15,53.0
01/19/2016,52.94,1153968,53.05,53.11,52.94
01/15/2016,53.1,784071,53.13,53.17,53.03
01/14/2016,53.03,1203571,53.05,53.17,53.0
01/13/2016,53.2,547811,53.07,53.2299,53.07
01/12/2016,53.08,401603,52.99,53.1,52.96
01/11/2016,53.01,687583,53.11,53.11,52.97
01/08/2016,53.07,1294374,53.07,53.16,53.07
01/07/2016,53.08,1310655,53.1,53.13,53.01
01/06/2016,53.16,584013,53.14,53.16,53.04
01/05/2016,52.96,1116467,53.01,53.07,52.94
01/04/2016,52.99,1245802,52.94,52.99,52.85
12/31/2015,52.88,1152118,52.76,52.95,52.76
12/30/2015,52.79,715292,52.83,52.86,52.77
12/29/2015,52.77,695145,52.82,52.89,52.724
12/28/2015,53.02,780789,52.91,53.02,52.85
12/24/2015,52.84,404176,52.83,52.84,52.75
12/23/2015,52.84,892366,53.01,53.01,52.79
12/22/2015,53.06,638289,53.1,53.1,52.96
12/21/2015,53.11,589729,53.03,53.11,53.03
12/18/2015,53.06,484010,53.02,53.11,53.01
12/17/2015,52.92,1237438,52.85,53.02,52.85
12/16/2015,52.84,614441,52.86,52.88,52.77
12/15/2015,52.87,1248191,52.86,52.95,52.7601
12/14/2015,52.98,2012792,53.08,53.08,52.85
12/11/2015,53.07,786133,52.95,53.18,52.95
12/10/2015,52.99,661284,53.0,53.06,52.99
12/09/2015,53.03,759042,53.07,53.08,52.96
12/08/2015,53.03,785489,53.04,53.1,52.95
12/07/2015,53.0,624713,52.88,53.02,52.72
12/04/2015,52.7,739518,52.75,52.79,52.656000000000006
12/03/2015,52.7,1378093,53.0,53.22,52.69
12/02/2015,53.21,383749,53.25,53.2525,53.18
12/01/2015,53.24,3921530,53.1,53.26,53.0333
11/30/2015,53.2,1686281,53.25,53.3,53.12
11/27/2015,53.25,380054,53.25,53.33,53.2
11/25/2015,53.22,624704,53.2,53.23,53.15
11/24/2015,53.18,382483,53.1,53.18,53.08
11/23/2015,53.11,1218712,53.16,53.185,53.04
11/20/2015,53.12,417245,53.19,53.2,53.12
11/19/2015,53.15,502254,53.2,53.2,53.09
11/18/2015,53.12,559106,53.02,53.12,52.98
11/17/2015,53.04,385564,53.02,53.05,52.9559
11/16/2015,53.01,1035201,53.0,53.04,52.96
11/13/2015,52.94,771220,52.89,53.0,52.88
11/12/2015,52.84,469690,52.86,52.91,52.76
11/11/2015,52.82,355256,52.85,52.85,52.744
11/10/2015,52.76,737274,52.75,52.84,52.65
11/09/2015,52.64,704736,52.61,52.72,52.54
11/06/2015,52.66,486128,52.76,52.8299,52.5402
11/05/2015,52.86,794322,52.87,52.9026,52.77
11/04/2015,52.81,661174,52.92,52.9999,52.77
11/03/2015,52.93,609576,52.95,53.0,52.89
11/02/2015,52.97,1769736,53.09,53.09,52.92
10/30/2015,53.18,577396,53.2,53.21,53.0724
10/29/2015,53.12,797896,53.22,53.2899,53.09
10/28/2015,53.29,446742,53.39,53.4,53.24
10/27/2015,53.3,641504,53.3,53.32,53.2201
10/26/2015,53.17,650736,53.19,53.23,53.15
10/23/2015,53.19,431073,53.23,53.32,53.1
10/22/2015,53.19,610325,53.1,53.26,53.0313
10/21/2015,53.01,384941,52.96,53.25,52.922
10/20/2015,52.93,548701,52.95,52.99,52.9
10/19/2015,53.03,716791,53.0,53.25,52.97
10/16/2015,53.02,376347,53.05,53.0996,53.01
10/15/2015,53.04,436952,53.05,53.12,53.01
10/14/2015,53.11,312958,53.0,53.11,53.0
10/13/2015,52.98,982334,52.94,52.9999,52.88
10/12/2015,52.92,981681,52.92,52.96,52.8
10/09/2015,52.81,4803873,52.86,52.94,52.8
10/08/2015,52.91,433248,52.97,53.0,52.8761
10/07/2015,52.92,645108,52.89,52.93,52.84
10/06/2015,52.94,1714600,52.88,52.94,52.8603
10/05/2015,53.0,910274,53.04,53.04,52.91
10/02/2015,53.09,532598,53.05,53.16,53.0
10/01/2015,52.9,1146895,53.2,53.2,52.9
09/30/2015,52.93,571900,52.93,52.97,52.84
09/29/2015,52.98,1567076,52.99,52.9932,52.8865
09/28/2015,52.9,411483,52.87,52.95,52.84
09/25/2015,52.88,422395,52.85,52.9299,52.8
09/24/2015,52.95,524155,53.02,53.04,52.9
09/23/2015,52.89,424018,52.87,52.96,52.87
09/22/2015,52.99,462300,52.88,53.02,52.88
09/21/2015,52.82,517761,52.9,52.92,52.78
09/18/2015,52.96,674088,52.83,53.0,52.7617
09/17/2015,52.65,1589660,52.6,52.7596,52.54
09/16/2015,52.6,396366,52.6,52.6799,52.6
09/15/2015,52.75,563037,52.75,52.82,52.6601
09/14/2015,52.82,275656,52.85,52.854,52.79
09/11/2015,52.85,434972,52.83,52.89,52.8
09/10/2015,52.81,723389,52.84,52.845,52.77
09/09/2015,52.84,692723,52.78,52.85,52.76
09/08/2015,53.01,908617,52.86,53.01,52.79
09/04/2015,52.9,435395,52.8,52.92,52.79
09/03/2015,52.74,1286111,52.7,52.77,52.6201
09/02/2015,52.62,2503177,52.62,52.74,52.5
09/01/2015,52.64,1272329,52.66,52.67,52.55
08/31/2015,52.56,904678,52.75,52.83,52.56
08/28/2015,52.69,1692132,52.73,52.87,52.67
08/27/2015,52.67,911155,52.7,52.76,52.63
08/26/2015,52.7,761951,52.75,52.83,52.69
08/25/2015,52.65,2320311,52.78,52.81,52.65
08/24/2015,52.95,1662552,53.04,53.29,52.82
08/21/2015,53.07,1226119,53.04,53.13,53.02
08/20/2015,53.1,414010,53.07,53.12,53.05
08/19/2015,53.04,739924,52.85,53.05,52.85
08/18/2015,52.95,571485,52.9,52.98,52.8622
08/17/2015,53.01,675605,52.99,53.04,52.97
08/14/2015,52.915,1013280,52.99,52.99,52.91
08/13/2015,52.99,278118,52.96,53.018,52.94
08/12/2015,53.02,444238,53.0,53.08,52.9601
08/11/2015,53.01,520257,52.81,53.04,52.8
08/10/2015,52.81,318248,52.89,52.9,52.79
08/07/2015,52.9,778715,52.89,52.9499,52.77
08/06/2015,52.97,270523,52.69,52.97,52.69
08/05/2015,52.725,367882,52.83,52.84,52.65
08/04/2015,52.93,525196,52.97,52.97,52.84
08/03/2015,52.96,857973,52.84,52.97,52.84
07/31/2015,52.98,506124,53.04,53.05,52.95
07/30/2015,52.95,411823,52.91,52.95,52.8601
07/29/2015,52.83,276545,52.83,52.86,52.8
07/28/2015,52.85,562177,52.8,52.9,52.8
07/27/2015,52.9,469632,52.94,52.94,52.8223
07/24/2015,52.88,459712,52.87,52.91,52.83
07/23/2015,52.78,267256,52.73,52.79,52.68
07/22/2015,52.67,561307,52.64,52.71,52.62
07/21/2015,52.62,375977,52.61,52.65,52.59
07/20/2015,52.65,355531,52.62,52.67,52.6
07/17/2015,52.55,635370,52.51,52.6146,52.51
07/16/2015,52.51,440165,52.45,52.55,52.37
07/15/2015,52.49,482213,52.34,52.5,52.32
07/14/2015,52.27,692433,52.3,52.32,52.2
07/13/2015,52.28,1189592,52.15,52.295,52.11
07/10/2015,52.3,560952,52.26,52.3,52.12
07/09/2015,52.39,743960,52.45,52.4899,52.38
07/08/2015,52.41,923626,52.43,52.49,52.3899
07/07/2015,52.45,800496,52.39,52.56,52.38
07/06/2015,52.13,5259600,52.14,52.29,52.05
07/02/2015,52.05,657085,52.14,52.16,52.0
07/01/2015,52.22,3400402,52.25,52.3299,52.15
06/30/2015,52.37,388783,52.28,52.4,52.2
06/29/2015,52.2,503298,52.07,52.26,52.07
06/26/2015,52.1,326402,52.07,52.21,52.05
06/25/2015,52.27,578611,52.19,52.28,52.13
06/24/2015,52.25,307021,52.19,52.25,52.13
06/23/2015,52.25,439216,52.1,52.25,52.1
06/22/2015,52.18,327181,52.25,52.25,52.11
06/19/2015,52.39,987042,52.24,52.39,52.2147
06/18/2015,52.2,989837,52.21,52.302,52.14
06/17/2015,52.32,331970,52.28,52.35,52.21
06/16/2015,52.2,827496,52.28,52.32,52.09
06/15/2015,52.35,420600,52.31,52.35,52.18899999999999
06/12/2015,52.33,388997,52.17,52.34,52.1201
06/11/2015,52.18,606503,52.18,52.25,51.97
06/10/2015,52.01,393304,52.03,52.0748,51.971000000000004
06/09/2015,52.16,371895,52.25,52.25,52.09
06/08/2015,52.26,454084,52.22,52.29,52.2
06/05/2015,52.34,345893,52.31,52.37,52.24
06/04/2015,52.39,584765,52.35,52.44,52.32
06/03/2015,52.4,362981,52.57,52.57,52.364
06/02/2015,52.75,383476,52.81,52.82,52.7
06/01/2015,52.98,763236,53.1,53.135,52.95
05/29/2015,53.14,474511,53.17,53.199,53.0901
05/28/2015,53.03,459446,52.97,53.07,52.95
05/27/2015,53.0,461031,52.98,53.0,52.9
05/26/2015,52.98,355655,52.89,52.99,52.87
05/22/2015,52.83,854816,52.86,52.89,52.8
05/21/2015,52.81,411603,52.79,52.89,52.75
05/20/2015,52.82,529669,52.88,52.88,52.77
05/19/2015,52.88,379547,52.75,52.89,52.75
05/18/2015,52.77,413219,52.83,52.9,52.75
05/15/2015,52.86,357257,52.74,52.86,52.69
05/14/2015,52.56,521925,52.56,52.617,52.47
05/13/2015,52.56,338662,52.78,52.78,52.52
05/12/2015,52.64,622991,52.68,52.69,52.59
05/11/2015,52.88,732081,52.98,52.98,52.79
05/08/2015,53.03,826307,52.99,53.04,52.95
05/07/2015,52.92,484070,52.78,52.92,52.75
05/06/2015,52.78,647968,52.93,52.97,52.74
05/05/2015,53.07,700293,53.15,53.2501,52.94
05/04/2015,53.26,1084751,53.43,53.43,53.22
05/01/2015,53.42,733881,53.47,53.51,53.34
04/30/2015,53.48,671709,53.5,53.6,53.35
04/29/2015,53.55,1495965,53.82,53.82,53.42
04/28/2015,53.97,487190,53.98,54.01,53.91
04/27/2015,54.02,378334,54.01,54.02,53.95
04/24/2015,54.06,371885,53.89,54.06,53.8703
04/23/2015,53.87,383825,53.89,53.9,53.84
04/22/2015,53.9,384232,53.97,53.97,53.87
04/21/2015,54.0,1825743,54.02,54.1299,53.95
04/20/2015,54.09,493447,54.19,54.19,54.02
04/17/2015,54.16,1783092,54.1,54.1766,54.0
04/16/2015,54.14,1622897,54.2,54.22,54.13
04/15/2015,54.23,349472,54.21,54.25,54.17
04/14/2015,54.19,911260,54.15,54.19,54.15
04/13/2015,54.14,399077,54.14,54.14,54.065
04/10/2015,54.12,322401,54.06,54.14,54.04
04/09/2015,54.07,460150,54.14,54.14,54.04
04/08/2015,54.09,1291189,54.1,54.15,54.04
04/07/2015,54.02,396723,54.01,54.0502,53.94
04/06/2015,54.06,387099,54.05,54.0902,54.0
04/02/2015,53.95,1229948,54.1,54.1,53.88
04/01/2015,54.05,2931117,54.1,54.14,54.01
03/31/2015,54.09,848420,53.98,54.11,53.95
03/30/2015,53.97,524174,54.01,54.01,53.91
03/27/2015,53.94,528617,53.95,54.03,53.88
03/26/2015,53.97,526083,53.95,54.0048,53.9
03/25/2015,54.01,369988,54.05,54.05,53.96
03/24/2015,54.03,787019,54.06,54.07,53.97
03/23/2015,54.05,1416216,54.11,54.19,54.02
03/20/2015,54.07,525400,54.04,54.12,54.02
03/19/2015,54.02,1105915,54.0,54.06,53.9301
03/18/2015,53.9,734885,53.72,53.9,53.69
03/17/2015,53.65,781314,53.78,53.78,53.6
03/16/2015,53.72,9946617,53.99,54.0,53.6
03/13/2015,53.9,346814,53.92,53.97,53.9
03/12/2015,53.91,531653,53.93,53.99,53.86
03/11/2015,53.91,522812,53.85,53.92,53.78
03/10/2015,53.83,425325,53.69,53.845,53.69
03/09/2015,53.64,524352,53.58,53.64,53.555
03/06/2015,53.54,758012,53.66,53.66,53.45
03/05/2015,53.66,674244,53.62,53.66,53.565
03/04/2015,53.59,590525,53.54,53.62,53.53
03/03/2015,53.59,1064624,53.67,53.67,53.531000000000006
03/02/2015,53.7,1036503,53.95,53.95,53.62
02/27/2015,53.89,916725,53.89,53.97,53.77
02/26/2015,53.86,581237,53.87,53.9,53.81
02/25/2015,53.85,2125838,53.83,53.85,53.76
02/24/2015,53.73,462051,53.7,53.74,53.64
02/23/2015,53.65,406837,53.63,53.66,53.585
02/20/2015,53.57,1136167,53.58,53.6168,53.52
02/19/2015,53.54,460864,53.54,53.602,53.5
02/18/2015,53.52,517871,53.58,53.58,53.46
02/17/2015,53.59,543772,53.61,53.6599,53.5301
02/13/2015,53.6,420317,53.7,53.72,53.6
02/12/2015,53.71,513047,53.65,53.75,53.5501
02/11/2015,53.63,529010,53.63,53.6793,53.36
02/10/2015,53.48,681444,53.53,53.6487,53.38
02/09/2015,53.61,562859,53.76,53.8399,53.57
02/06/2015,53.64,456732,53.78,53.8,53.64
02/05/2015,53.8,627231,53.92,53.94,53.76
02/04/2015,53.9,1260081,53.92,53.94,53.8
02/03/2015,53.95,2686424,54.03,54.0497,53.92
02/02/2015,54.07,1147288,54.06,54.08,54.015
01/30/2015,54.06,863836,54.05,54.12,53.9901
01/29/2015,53.98,608157,54.0,54.058,53.95
01/28/2015,54.03,601145,53.99,54.04,53.9
01/27/2015,53.9096,480824,53.97,54.1199,53.89
01/26/2015,53.96,603726,53.99,54.0,53.9
01/23/2015,54.03,816344,54.0,54.13,53.83
01/22/2015,53.71,567554,53.84,53.85,53.7
01/21/2015,53.78,572530,53.78,53.81,53.7
01/20/2015,53.7,935613,53.71,53.79,53.69
01/16/2015,53.72,433130,53.61,53.769,53.6
01/15/2015,53.41,1302730,53.64,53.71,53.41
01/14/2015,53.66,348502,53.67,53.6899,53.55
01/13/2015,53.53,695236,53.56,53.5799,53.5
01/12/2015,53.48,429360,53.45,53.5199,53.4
01/09/2015,53.36,328343,53.33,53.4,53.31
01/08/2015,53.39,2174730,53.42,53.42,53.3
01/07/2015,53.405,391846,53.47,53.47,53.27
01/06/2015,53.45,522999,53.32,53.4799,53.32
01/05/2015,53.33,650365,53.33,53.34,53.26
01/02/2015,53.35,448187,53.13,53.35,53.13
12/31/2014,53.11,644081,53.18,53.22,53.0
12/30/2014,53.14,468153,53.15,53.21,53.1001
12/29/2014,53.08,552685,53.15,53.159,53.05
12/26/2014,53.02,241244,53.0,53.05,52.94
12/24/2014,52.96,283020,52.94,52.97,52.91
12/23/2014,52.99,1281020,52.97,53.03,52.95
12/22/2014,53.12,481590,53.1,53.13,53.0303
12/19/2014,53.05,523601,53.0,53.0599,52.96
12/18/2014,52.98,861244,53.01,53.04,52.9275
12/17/2014,53.04,338966,53.05,53.11,53.0001
12/16/2014,53.04,320459,53.03,53.06,52.9006
12/15/2014,52.93,1221400,52.9,52.97,52.788999999999994
12/12/2014,52.86,241864,52.79,52.925,52.77
12/11/2014,52.79,300496,52.82,52.827,52.71
12/10/2014,52.81,344423,52.7,52.81,52.67
12/09/2014,52.66,329149,52.79,52.81,52.58
12/08/2014,52.56,506250,52.51,52.75,52.51
12/05/2014,52.48,942328,52.8,52.8,52.4
12/04/2014,52.65,666709,52.69,52.72,52.59
12/03/2014,52.68,266123,52.67,52.73,52.64
12/02/2014,52.67,376266,52.75,52.75,52.6
12/01/2014,52.78,740010,52.84,52.85,52.77
11/28/2014,52.77,188733,52.87,52.87,52.74
11/26/2014,52.75,362780,52.76,52.76,52.62
11/25/2014,52.7,328780,52.58,52.72,52.57
11/24/2014,52.535,460570,52.55,52.59,52.51
11/21/2014,52.56,319602,52.57,52.5799,52.5
11/20/2014,52.5,377282,52.47,52.5,52.39
11/19/2014,52.39,250853,52.38,52.43,52.36
11/18/2014,52.44,407095,52.47,52.5,52.4
11/17/2014,52.47,2032199,52.49,52.49,52.42
11/14/2014,52.44,290389,52.41,52.44,52.351000000000006
11/13/2014,52.4,507136,52.42,52.4399,52.37
11/12/2014,52.39,204603,52.41,52.4399,52.36
11/11/2014,52.37,417504,52.36,52.38,52.3
11/10/2014,52.38,576682,52.43,52.45,52.36
11/07/2014,52.36,1289905,52.31,52.38,52.3
11/06/2014,52.33,4332627,52.34,52.3524,52.31
11/05/2014,52.31,627120,52.27,52.3299,52.25
11/04/2014,52.32,443071,52.39,52.39,52.32
11/03/2014,52.3,362922,52.37,52.37,52.26
10/31/2014,52.37,497240,52.29,52.4,52.29
10/30/2014,52.3,416662,52.29,52.33,52.28
10/29/2014,52.24,153635,52.24,52.2699,52.21
10/28/2014,52.22,159745,52.23,52.26,52.2
10/27/2014,52.22,204393,52.28,52.28,52.2
10/24/2014,52.22,248162,52.24,52.26,52.196000000000005
10/23/2014,52.24,182807,52.22,52.24,52.15
10/22/2014,52.23,260723,52.24,52.28,52.19
10/21/2014,52.24,671223,52.25,52.27,52.17
10/20/2014,52.24,235148,52.29,52.3,52.17
10/17/2014,52.17,333882,52.27,52.27,52.16
10/16/2014,52.33,314917,52.56,52.56,52.26
10/15/2014,52.61,752690,52.57,52.67,52.4501
10/14/2014,52.38,176662,52.38,52.43,52.31
10/13/2014,52.35,197672,52.36,52.41,52.3002
10/10/2014,52.28,364366,52.27,52.31,52.24
10/09/2014,52.31,2435074,52.31,52.33,52.2699
10/08/2014,52.28,688134,52.28,52.33,52.22
10/07/2014,52.26,287245,52.2,52.26,52.11
10/06/2014,52.17,242001,52.19,52.2,52.11
10/03/2014,52.19,528388,52.14,52.2,52.0604
10/02/2014,52.16,266387,52.21,52.21,52.1
10/01/2014,52.2,282635,52.15,52.22,52.11
09/30/2014,52.11,185989,52.16,52.16,52.08
09/29/2014,52.11,1022980,52.04,52.1499,52.021
09/26/2014,52.08,532119,52.08,52.14,51.98
09/25/2014,52.13,265695,52.08,52.13,52.06
09/24/2014,52.0,262314,52.06,52.06,51.93
09/23/2014,52.03,2306277,52.04,52.0499,51.99
09/22/2014,52.02,462464,52.0,52.04,51.95
09/19/2014,51.95,162289,51.93,51.9799,51.88
09/18/2014,51.835,300123,51.83,51.86,51.7999
09/17/2014,51.86,169975,51.87,51.949,51.81
09/16/2014,51.85,570285,51.87,51.88,51.81
09/15/2014,51.77,343470,51.85,51.8699,51.75
09/12/2014,51.8,327508,51.81,51.839,51.74
09/11/2014,51.88,216331,51.93,51.94,51.85
09/10/2014,51.93,138865,51.93,51.961999999999996,51.856
09/09/2014,51.95,184749,51.96,51.97,51.9201
09/08/2014,52.06,246742,52.13,52.14,52.03
09/05/2014,52.12,436101,52.14,52.14,52.0149
09/04/2014,52.0,312491,52.04,52.0646,51.85
09/03/2014,52.01,216117,52.02,52.07,51.95
09/02/2014,52.02,2744763,52.09,52.14,52.01
08/29/2014,52.24,1331812,52.21,52.2665,52.161
08/28/2014,52.25,197697,52.27,52.293,52.23
08/27/2014,52.23,139248,52.2,52.24,52.12
08/26/2014,52.11,336684,52.12,52.12,52.06
08/25/2014,52.07,131419,52.04,52.09,52.01
08/22/2014,51.98,126699,51.97,51.98,51.88
08/21/2014,51.92,167220,51.92,51.9394,51.8701
08/20/2014,51.9,315432,51.92,51.93,51.86
08/19/2014,51.89,629290,51.91,51.94,51.87
08/18/2014,51.85,162893,51.88,51.88,51.81
08/15/2014,51.85,383628,51.93,51.9399,51.78
08/14/2014,51.86,157963,51.85,51.88,51.81
08/13/2014,51.79,159817,51.76,51.816,51.7201
08/12/2014,51.71,173149,51.72,51.74,51.7
08/11/2014,51.71,196093,51.72,51.72,51.656000000000006
08/08/2014,51.73,166033,51.74,51.7595,51.68
08/07/2014,51.66,133233,51.64,51.67,51.58
08/06/2014,51.6,247150,51.61,51.6599,51.5305
08/05/2014,51.59,230665,51.61,51.61,51.53
08/04/2014,51.63,288582,51.68,51.68,51.59
08/01/2014,51.6,109659,51.59,51.6799,51.55
07/31/2014,51.61,136980,51.64,51.65,51.57
07/30/2014,51.63,158228,51.71,51.71,51.6109
07/29/2014,51.73,209329,51.74,51.7499,51.66
07/28/2014,51.65,204394,51.7,51.71,51.63
07/25/2014,51.675,307099,51.64,51.7,51.61
07/24/2014,51.59,147868,51.61,51.61,51.58
07/23/2014,51.65,342277,51.66,51.6793,51.61
07/22/2014,51.61,358421,51.63,51.63,51.58
07/21/2014,51.6,142837,51.65,51.65,51.58
07/18/2014,51.58,127998,51.59,51.6099,51.5001
07/17/2014,51.59,243304,51.54,51.61,51.5093
07/16/2014,51.49,148418,51.47,51.4999,51.424
07/15/2014,51.45,141408,51.45,51.4699,51.41
07/14/2014,51.43,148118,51.42,51.45,51.3905
07/11/2014,51.46,131094,51.46,51.4899,51.372
07/10/2014,51.42,66489,51.47,51.47,51.4
07/09/2014,51.37,99671,51.35,51.43,51.35
07/08/2014,51.38,113770,51.39,51.39,51.3301
07/07/2014,51.32,177623,51.32,51.34,51.2801
07/03/2014,51.24,97827,51.23,51.2599,51.2
07/02/2014,51.27,179050,51.28,51.3299,51.24
07/01/2014,51.32,91953,51.28,51.4199,51.28
06/30/2014,51.41,290201,51.35,51.4399,51.35
06/27/2014,51.39,139764,51.46,51.46,51.35
06/26/2014,51.419,141041,51.41,51.43,51.35
06/25/2014,51.38,157639,51.39,51.409,51.31
06/24/2014,51.29,122968,51.27,51.3,51.1901
06/23/2014,51.26,172620,51.28,51.28,51.21
06/20/2014,51.18,160204,51.19,51.224,51.15
06/19/2014,51.28,189947,51.28,51.2999,51.1501
06/18/2014,51.19,802079,51.21,51.21,51.12
06/17/2014,51.14,137932,51.19,51.19,51.1235
06/16/2014,51.18,134930,51.21,51.21,51.12
06/13/2014,51.2,103115,51.14,51.2,51.0751
06/12/2014,51.18,139807,51.14,51.19,51.07
06/11/2014,51.11,291465,51.16,51.1699,51.07
06/10/2014,51.16,168247,51.18,51.2,51.13
06/09/2014,51.19,149439,51.2,51.24,51.16
06/06/2014,51.2,126895,51.19,51.23,51.1
06/05/2014,51.09,113024,50.96,51.096000000000004,50.9404
06/04/2014,50.93,186820,50.98,51.01,50.9
06/03/2014,51.03,162775,51.06,51.06,50.97
06/02/2014,51.09,132443,51.2,51.2,51.05
05/30/2014,51.16,306355,51.17,51.21,51.1301
05/29/2014,51.19,116910,51.33,51.33,51.16
05/28/2014,51.38,147076,51.14,51.38,51.14
05/27/2014,51.08,134624,51.1,51.12,50.98
05/23/2014,50.98,78342,51.03,51.0399,50.9203
05/22/2014,50.96,96416,50.97,51.0,50.9101
05/21/2014,50.98,100611,50.98,51.0,50.94
05/20/2014,51.0,172572,50.99,51.01,50.9405
05/19/2014,51.05,116616,51.09,51.09,51.03
05/16/2014,51.04,247636,51.08,51.09,51.03
05/15/2014,51.13,139851,51.12,51.16,51.0101
05/14/2014,51.04,128751,51.0,51.089,50.9601
05/13/2014,51.0,332341,50.88,51.0,50.86
05/12/2014,50.86,102848,50.83,50.88,50.8201
05/09/2014,50.88,158822,50.9,50.9,50.85
05/08/2014,50.91,221807,50.87,50.92,50.82
05/07/2014,50.84,145311,50.83,50.849,50.8
05/06/2014,50.835,158392,50.84,50.8599,50.8
05/05/2014,50.81,4175105,50.83,50.89,50.78
05/02/2014,50.83,100378,50.79,50.87,50.75
05/01/2014,50.82,118787,50.8,50.83,50.76
04/30/2014,50.85,235212,50.81,50.87,50.75
04/29/2014,50.77,199298,50.74,50.77,50.72
04/28/2014,50.75,247829,50.78,50.7899,50.72
04/25/2014,50.8,192695,50.74,50.8,50.7305
04/24/2014,50.74,389340,50.73,50.77,50.7
04/23/2014,50.74,178893,50.74,50.7899,50.7
04/22/2014,50.73,102180,50.71,50.74,50.69
04/21/2014,50.73,164227,50.78,50.78,50.7001
04/17/2014,50.69,126404,50.74,50.82,50.66
04/16/2014,50.77,90362,50.77,50.79,50.7
04/15/2014,50.82,83936,50.74,50.849,50.67
04/14/2014,50.69,112758,50.76,50.76,50.64
04/11/2014,50.77,102873,50.76,50.8,50.64
04/10/2014,50.7,120539,50.74,50.74,50.61
04/09/2014,50.6,1055545,50.6,50.66,50.5101
04/08/2014,50.61,100934,50.62,50.63,50.57
04/07/2014,50.65,128235,50.67,50.67,50.6
04/04/2014,50.6,224293,50.53,50.64,50.5101
04/03/2014,50.52,99975,50.47,50.53,50.46
04/02/2014,50.45,154979,50.49,50.49,50.3704
04/01/2014,50.51,484677,50.52,50.55,50.46
03/31/2014,50.61,128267,50.54,50.6196,50.5
03/28/2014,50.6,96482,50.64,50.65,50.521
03/27/2014,50.65,92980,50.64,50.65,50.6
03/26/2014,50.6,164145,50.59,50.61,50.4901
03/25/2014,50.55,87223,50.59,50.59,50.46
03/24/2014,50.54,90573,50.46,50.5499,50.45
03/21/2014,50.5,98519,50.46,50.5099,50.38
03/20/2014,50.42,70750,50.4,50.443999999999996,50.33
03/19/2014,50.44,139073,50.57,50.57,50.3701
03/18/2014,50.57,114156,50.54,50.57,50.5001
03/17/2014,50.55,133998,50.56,50.57,50.51
03/14/2014,50.55,67830,50.65,50.65,50.51
03/13/2014,50.53,145616,50.48,50.57,50.44
03/12/2014,50.51,76720,50.48,50.54,50.44
03/11/2014,50.44,232364,50.4,50.4693,50.35
03/10/2014,50.42,77281,50.41,50.44,50.35
03/07/2014,50.39,97994,50.35,50.4391,50.3101
03/06/2014,50.44,111672,50.47,50.47,50.35
03/05/2014,50.5,85742,50.51,50.54,50.46
03/04/2014,50.49,99417,50.56,50.56,50.46
03/03/2014,50.59,106781,50.53,50.6,50.43
02/28/2014,50.51,133946,50.55,50.55,50.43
02/27/2014,50.57,103530,50.56,50.585,50.46
02/26/2014,50.46,103381,50.44,50.46,50.37
02/25/2014,50.39,80881,50.35,50.4,50.3
02/24/2014,50.28,104267,50.35,50.35,50.21
02/21/2014,50.27,83036,50.17,50.2899,50.17
02/20/2014,50.1,343417,50.29,50.29,50.07
02/19/2014,50.32,134476,50.41,50.4108,50.31
02/18/2014,50.32,119549,50.24,50.33,50.23
02/14/2014,50.26,92666,50.26,50.27,50.16
02/13/2014,50.32,131420,50.27,50.34,50.163999999999994
02/12/2014,50.18,153686,50.24,50.2599,50.12
02/11/2014,50.26,108142,50.2,50.29,50.2
02/10/2014,50.23,127280,50.33,50.33,50.21
02/07/2014,50.3,128842,50.26,50.3399,50.21
02/06/2014,50.22,99646,50.3,50.3,50.176
02/05/2014,50.29,67682,50.32,50.343999999999994,50.25
02/04/2014,50.29,152921,50.32,50.32,50.2499
02/03/2014,50.34,139941,50.38,50.38,50.2109
01/31/2014,50.33,85614,50.33,50.369,50.27
01/30/2014,50.26,86073,50.27,50.3,50.19
01/29/2014,50.22,131959,50.21,50.2679,50.15
01/28/2014,50.17,90025,50.13,50.18,50.06
01/27/2014,50.13,146391,50.15,50.15,50.03
01/24/2014,50.21,194062,50.11,50.25,50.11
01/23/2014,50.11,112272,50.1,50.12,50.04
01/22/2014,49.99,220830,50.07,50.07,49.99
01/21/2014,50.07,112472,50.08,50.1,50.02
01/17/2014,50.06,106535,50.05,50.06,49.94
01/16/2014,50.02,108324,49.98,50.05,49.95
01/15/2014,49.89,109242,49.93,49.9699,49.8529
01/14/2014,49.91,135397,49.98,49.98,49.9
01/13/2014,49.93,103732,49.95,49.98,49.85
01/10/2014,49.89,73148,49.87,49.89,49.771
01/09/2014,49.76,154587,49.77,49.8099,49.681000000000004
01/08/2014,49.72,139768,49.82,49.86,49.6801
01/07/2014,49.84,148365,49.83,49.84,49.76
01/06/2014,49.72,134259,49.69,49.76,49.6401
01/03/2014,49.6,82374,49.7,49.71,49.5516
01/02/2014,49.64,123627,49.67,49.68,49.58
12/31/2013,49.62,93256,49.64,49.64,49.53
12/30/2013,49.599,122612,49.69,49.69,49.525
12/27/2013,49.57,111323,49.63,49.6498,49.53
12/26/2013,49.71,103355,49.66,49.71,49.62
12/24/2013,49.71,55295,49.72,49.72,49.62
12/23/2013,49.775,238952,49.8,49.8399,49.67
12/20/2013,49.74,86388,49.72,49.82,49.72
12/19/2013,49.74,222049,49.78,49.8099,49.7201
12/18/2013,49.84,626351,49.86,49.888999999999996,49.7401
12/17/2013,49.8386,96927,49.87,49.9099,49.8101
12/16/2013,49.85,189246,49.88,49.9,49.83
12/13/2013,49.86,69340,49.84,49.87,49.82
12/12/2013,49.82,234913,49.83,49.85,49.75
12/11/2013,49.85,99757,49.87,49.888999999999996,49.8001
12/10/2013,49.83,80210,49.82,49.87,49.78
12/09/2013,49.79,184800,49.83,49.833,49.77
12/06/2013,49.76,77357,49.76,49.7799,49.701
12/05/2013,49.71,70975,49.69,49.76,49.68
12/04/2013,49.79,717942,49.85,49.8599,49.74
12/03/2013,49.94,105284,49.95,49.96,49.89
12/02/2013,49.88,295202,49.98,49.98,49.8228
11/29/2013,50.02,56860,50.05,50.05,49.97
11/27/2013,49.99,70737,50.04,50.04,49.94
11/26/2013,50.04,78030,50.0,50.0499,49.965
11/25/2013,49.97,102902,49.95,50.0096,49.92
11/22/2013,49.9,86510,49.92,49.95,49.85
11/21/2013,49.89,88808,49.84,49.95,49.81100000000001
11/20/2013,49.91,73224,49.94,50.03,49.88
11/19/2013,49.95,130789,50.0,50.0,49.9
11/18/2013,50.0,133367,50.0,50.02,49.91
11/15/2013,49.98,163672,49.99,50.0,49.9
11/14/2013,49.97,72825,49.98,49.9999,49.85
11/13/2013,49.97,112699,49.89,49.9799,49.88
11/12/2013,49.93,88518,49.93,49.9399,49.84
11/11/2013,49.93,79155,49.86,50.0099,49.86
11/08/2013,49.9,79714,50.03,50.03,49.81100000000001
11/07/2013,49.96,85381,49.99,50.06,49.9
11/06/2013,49.9,68099,49.92,49.99,49.8001
11/05/2013,49.9499,120330,49.93,49.98,49.881
11/04/2013,50.05,71121,50.02,50.08,50.0001
11/01/2013,50.08,99868,50.08,50.09,50.0
10/31/2013,50.09,454261,50.17,50.17,49.9
10/30/2013,50.08,69311,50.11,50.168,49.96
10/29/2013,50.04,89796,50.02,50.04,49.91
10/28/2013,49.97,49170,50.04,50.04,49.9
10/25/2013,49.99,43379,50.0,50.0,49.9101
10/24/2013,49.97,107623,49.91,50.0,49.85
10/23/2013,49.93,68465,49.93,49.9699,49.76
10/22/2013,49.91,54476,49.89,49.925,49.69
10/21/2013,49.73,64184,49.82,49.82,49.6001
10/18/2013,49.77,93264,49.78,49.78,49.6
10/17/2013,49.7,53873,49.85,49.85,49.551
10/16/2013,49.71,90349,49.73,49.73,49.3602
10/15/2013,49.5,64405,49.72,49.72,49.5
10/14/2013,49.575,54225,49.76,49.76,49.5
10/11/2013,49.47,52566,49.61,49.68,49.43
10/10/2013,49.66,40594,49.7,49.7,49.55
10/09/2013,49.66,100500,49.76,49.76,49.35
10/08/2013,49.66,53516,49.31,49.68,49.3
10/07/2013,49.74,82148,49.83,49.84,49.56
10/04/2013,49.65,228003,49.72,49.72,49.54
10/03/2013,49.67,112881,49.59,49.72,49.5807
10/02/2013,49.75,208472,49.72,49.809,49.61
10/01/2013,49.65,91211,49.63,49.66,49.5
09/30/2013,49.65,86736,49.67,49.67,49.57
09/27/2013,49.72,66719,49.74,49.76,49.5129
09/26/2013,49.65,256659,49.7,49.7,49.57
09/25/2013,49.7,40623,49.6,49.7,49.5654
09/24/2013,49.67,115470,49.67,49.72,49.5
09/23/2013,49.63,76716,49.55,49.63,49.46
09/20/2013,49.43,101130,49.26,49.46,49.03
09/19/2013,49.55,75486,49.69,49.69,49.47
09/18/2013,49.6099,116894,49.28,49.69,48.95
09/17/2013,49.23,77505,49.29,49.29,49.14
09/16/2013,49.21,43105,49.35,49.35,49.0601
09/13/2013,49.15,87306,48.91,49.1799,48.8804
09/12/2013,49.16,137400,48.93,49.25899999999999,48.93
09/11/2013,49.09,85014,49.08,49.1,48.9
09/10/2013,48.95,540351,49.33,49.33,48.511
09/09/2013,49.07,51808,49.18,49.18,48.871
09/06/2013,49.12,66037,49.0,49.18,48.98
09/05/2013,48.85,35465,49.12,49.12,48.8301
09/04/2013,49.26,84257,49.34,49.34,49.2
09/03/2013,49.02,152666,49.3,49.3,48.98
08/30/2013,49.33,79656,49.39,49.4055,49.16
08/29/2013,49.2501,75309,49.11,49.4,49.11
08/28/2013,49.1,52387,49.17,49.339,49.09
08/27/2013,49.13,38359,49.05,49.3899,49.05
08/26/2013,49.06,58910,49.15,49.15,48.96
08/23/2013,49.07,118275,49.15,49.15,48.9201
08/22/2013,49.09,131196,49.22,49.32899999999999,48.92
08/21/2013,49.1804,63187,49.31,49.32,49.08
08/20/2013,49.31,71762,49.14,49.4,49.06
08/19/2013,49.15,94079,49.41,49.41,49.06100000000001
08/16/2013,49.34,57371,49.31,49.39,49.11
08/15/2013,49.36,54828,49.3698,49.3799,49.151
08/14/2013,49.45,64226,49.49,49.519,49.19
08/13/2013,49.49,56556,49.53,49.599,49.36
08/12/2013,49.64,47482,49.67,49.67,49.53
08/09/2013,49.63,43078,49.37,49.64,49.37
08/08/2013,49.57,45777,49.61,49.61,49.5
08/07/2013,49.55,65485,49.62,49.64,49.45
08/06/2013,49.54,86077,49.6,49.6,49.47
08/05/2013,49.56,71444,49.64,49.64,49.5001
08/02/2013,49.64,57054,49.59,49.64,49.45
08/01/2013,49.45,65555,49.69,49.69,49.4
07/31/2013,49.49,76501,49.64,49.648999999999994,49.3
07/30/2013,49.6,80148,49.6,49.6329,49.45
07/29/2013,49.62,635104,49.69,49.69,49.5
07/26/2013,49.7,52982,49.501000000000005,49.7,49.341
07/25/2013,49.56,108876,49.6366,49.6366,49.3001
07/24/2013,49.62,97988,49.69,49.69,49.5
07/23/2013,49.74,88100,49.76,49.78,49.51
07/22/2013,49.6481,53958,49.72,49.7399,49.55
07/19/2013,49.5026,91063,49.71,49.7196,49.471000000000004
07/18/2013,49.68,161470,49.72,49.739,49.5
07/17/2013,49.6999,229973,49.71,49.72,49.64
07/16/2013,49.655,586121,49.7,49.7602,49.53
07/15/2013,49.55,1037882,49.68,49.788999999999994,49.5
07/12/2013,49.57,423253,49.65,49.7,49.54
07/11/2013,49.62,88904,49.7,49.7499,49.52
07/10/2013,49.55,57002,49.8,49.8,49.481
07/09/2013,49.5299,62365,49.63,49.63,49.45
07/08/2013,49.49,202790,49.59,49.59,49.45
07/05/2013,49.34,139319,49.42,49.42,49.0671
07/03/2013,49.5799,37162,49.62,49.6299,49.4
07/02/2013,49.42,89912,49.31,49.51,49.31
07/01/2013,49.46,2230945,49.53,49.53,49.45
06/28/2013,49.41,2443104,49.45,49.45,49.3
06/27/2013,49.47,2004412,49.63,49.63,49.3
06/26/2013,49.345,1222932,49.46,49.519,49.335
06/25/2013,49.37,262830,49.59,49.59,49.34
06/24/2013,49.528999999999996,312891,49.49,49.55,49.12
06/21/2013,49.55,217883,50.0,50.0,49.41
06/20/2013,49.65,125215,49.7,49.7,49.445
06/19/2013,49.81,86066,50.11,50.11,49.7
06/18/2013,49.93,138333,50.05,50.05,49.84
06/17/2013,50.01,99386,50.1,50.1,49.9
06/14/2013,49.97,99832,50.13,50.13,49.97
06/13/2013,49.85,105318,50.01,50.04,49.85
06/12/2013,50.02,196153,50.0,50.2,49.885
06/11/2013,49.82,50782,50.1,50.1,49.8
06/10/2013,49.826,128791,50.26,50.26,49.7999
06/07/2013,50.185,70801,50.33,50.33,50.185
06/06/2013,50.29,106771,50.34,50.35,50.27
06/05/2013,50.36,62433,50.4,50.4,50.3
06/04/2013,50.3,44301,50.6,50.6,50.24
