Date, Close/Last, Volume, Open, High, Low
01/06/2020,72.03,100917,71.64,72.03,71.6
01/03/2020,71.87,89682,71.89,72.22,71.78
01/02/2020,72.68,196674,72.54,72.74,72.31
12/31/2019,72.06,98279,71.95,72.08,71.6857
12/30/2019,71.8602,186961,72.45,72.45,71.83
12/27/2019,72.34,98877,72.47,72.47,72.315
12/26/2019,71.9989,56245,71.83,72.029,71.83
12/24/2019,71.75,57585,71.85,71.85,71.7174
12/23/2019,71.88,165954,71.89,71.92,71.81
12/20/2019,71.77,147415,71.88,71.88,71.71
12/19/2019,71.505,163862,71.41,71.57,71.337
12/18/2019,71.45,260810,71.55,71.6,71.37
12/17/2019,72.01,98871,72.02,72.08,71.93
12/16/2019,72.0951,153885,72.07,72.1996,72.01
12/13/2019,71.49,175268,71.4,71.71,71.25
12/12/2019,71.125,92030,70.54,71.15,70.5367
12/11/2019,70.61,160732,70.19,70.61,70.18
12/10/2019,70.06,82306,69.98,70.1936,69.85
12/09/2019,69.9759,111362,70.18,70.234,69.97
12/06/2019,70.34,106831,70.28,70.34,70.182
12/05/2019,69.81,67981,69.92,70.04,69.7101
12/04/2019,69.96,86532,69.7,69.96,69.64399999999999
12/03/2019,69.23,127012,69.0,69.27,68.8762
12/02/2019,69.72,99930,69.87,69.87,69.36
11/29/2019,69.92,54327,70.01,70.1,69.9
11/27/2019,70.48,89211,70.4,70.54,70.29
11/26/2019,70.3524,78495,70.26,70.375,70.2026
11/25/2019,70.315,100734,69.99,70.33,69.99
11/22/2019,69.58,171131,69.8,69.8,69.523
11/21/2019,69.6021,154261,69.65,69.66,69.4253
11/20/2019,69.8054,68495,69.96,70.0496,69.626
11/19/2019,70.07,91028,70.33,70.33,69.9553
11/18/2019,70.0198,76806,69.94,70.1,69.7858
11/15/2019,69.96,90276,69.77,69.96,69.74
11/14/2019,69.51,66607,69.34,69.5404,69.3
11/13/2019,69.5,172956,69.37,69.6567,69.3
11/12/2019,69.51,64513,69.67,69.75,69.49
11/11/2019,69.725,68780,69.53,69.7873,69.5
11/08/2019,69.82,123557,69.76,69.82,69.615
11/07/2019,70.1,144630,70.19,70.283,70.1
11/06/2019,69.92,188487,69.94,70.01,69.815
11/05/2019,69.86,83536,69.92,69.98,69.7296
11/04/2019,69.84,114149,69.93,70.0,69.8
11/01/2019,69.55,111816,69.42,69.56,69.38
10/31/2019,68.88,116711,68.98,68.98,68.66
10/30/2019,68.93,72335,68.63,68.99,68.4
10/29/2019,68.4,80293,68.25,68.48,68.17
10/28/2019,68.35,172311,68.29,68.45,68.25
10/25/2019,68.05,71678,67.76,68.06,67.71
10/24/2019,67.86,88106,67.87,67.87,67.7006
10/23/2019,67.64,46089,67.4,67.6765,67.4
10/22/2019,67.63,60533,67.71,67.9,67.6
10/21/2019,67.72,67177,67.72,67.79899999999999,67.62
10/18/2019,67.6,118282,67.6,67.6756,67.38
10/17/2019,67.59,122572,67.83,67.84,67.555
10/16/2019,67.435,57781,67.4,67.47,67.2
10/15/2019,67.28,185608,67.0,67.469,66.9075
10/14/2019,66.87,34885,66.66,66.885,66.66
10/11/2019,66.75,96639,66.91,67.29,66.75
10/10/2019,66.17,79373,65.8,66.22,65.67
10/09/2019,65.75,79162,65.64,65.83,65.51
10/08/2019,65.18,70269,65.37,65.4799,65.135
10/07/2019,65.52,50311,65.77,65.939,65.52
10/04/2019,66.06,75828,65.53,66.06,65.4398
10/03/2019,65.34,271981,65.02,65.38,64.8123
10/02/2019,64.9,94332,65.13,65.13,64.5548
10/01/2019,65.88,76392,66.35,66.35,65.7589
09/30/2019,66.57,75114,66.47,66.695,66.4554
09/27/2019,66.36,40467,66.77,66.77,66.2
09/26/2019,66.77,69504,66.68,66.7961,66.52
09/25/2019,66.4025,44132,66.25,66.4025,66.0
09/24/2019,66.74,68948,67.07,67.21,66.69
09/23/2019,66.98,69406,66.66,67.08,66.66
09/20/2019,66.75,49272,67.11,67.17399999999999,66.75
09/19/2019,66.74,39211,66.83,66.95,66.735
09/18/2019,66.639,50507,66.68,66.74600000000001,66.27
09/17/2019,66.98,78637,66.33,66.98,66.29
09/16/2019,66.3,73613,66.51,66.52,66.29
09/13/2019,67.18,69128,67.24,67.3522,67.12
09/12/2019,67.15,79178,67.06,67.28,66.8201
09/11/2019,66.75,74062,66.66,66.83,66.49
09/10/2019,66.5,82232,66.25,66.5,66.0465
09/09/2019,66.72,57118,66.87,66.8709,66.6472
09/06/2019,66.83,62334,66.89,66.99,66.81
09/05/2019,66.65,61772,66.77,66.8499,66.58
09/04/2019,66.29,77959,66.0,66.38,66.0
09/03/2019,65.33,69750,65.13,65.3539,65.05
08/30/2019,65.61,49037,65.84,65.84,65.38
08/29/2019,65.36,75547,65.39,65.53,65.25
08/28/2019,64.94,83130,64.82,65.04,64.625
08/27/2019,65.23,129883,65.29,65.29,65.02
08/26/2019,64.8,154839,64.95,64.96,64.65
08/23/2019,64.45,75560,65.12,65.52,64.445
08/22/2019,65.05,51186,65.34,65.34,64.88
08/21/2019,65.6,52160,65.84,65.84,65.6
08/20/2019,65.11,44519,65.25,65.25,64.97
08/19/2019,65.13,68223,65.29,65.37,65.0942
08/16/2019,64.71,50424,64.3,64.8044,64.3
08/15/2019,64.03,60259,64.05,64.1294,63.76
08/14/2019,63.81,55438,64.31,64.4073,63.81
08/13/2019,65.32,54016,64.72,65.61,64.52
08/12/2019,64.91,59164,65.12,65.2813,64.85
08/09/2019,65.6,69102,65.68,65.68,65.22
08/08/2019,65.79,106911,65.42,65.9,65.3
08/07/2019,65.11,77416,64.32,65.11,64.17
08/06/2019,64.49,80827,64.63,64.7386,64.15
08/05/2019,64.02,80798,64.81,64.81,63.81
08/02/2019,65.97,100703,66.27,66.31,65.6885
08/01/2019,66.47,119809,66.98,67.43,66.34
07/31/2019,66.74,81974,67.25,67.2952,66.34
07/30/2019,67.27,79462,67.4,67.4,67.1
07/29/2019,67.86,77533,67.91,67.9199,67.76
07/26/2019,67.84,33736,67.86,67.9277,67.7907
07/25/2019,67.61,60882,68.0,68.0,67.3669
07/24/2019,68.12,67393,67.99,68.17,67.92
07/23/2019,68.0201,60689,68.26,68.26,67.8801
07/22/2019,67.83,68980,67.97,68.005,67.76
07/19/2019,67.91,67411,68.32,68.35,67.91
07/18/2019,68.38,74679,68.06,68.3876,67.91
07/17/2019,68.11,78045,68.22,68.36,68.09
07/16/2019,68.05,58000,68.21,68.26,68.01
07/15/2019,68.22,155006,68.02,68.27,68.02
07/12/2019,68.02,91422,68.06,68.06,67.84
07/11/2019,67.93,100781,68.23,68.23,67.83
07/10/2019,67.98,91980,68.11,68.16,67.83
07/09/2019,67.68,65130,67.55,67.71,67.41
07/08/2019,67.85,77657,67.88,67.9,67.7653
07/05/2019,68.29,60730,68.35,68.35,67.915
07/03/2019,68.88,33348,68.69,68.88,68.68
07/02/2019,68.6,51555,68.45,68.6,68.41
07/01/2019,68.28,72698,68.49,68.583,68.124
06/28/2019,68.0427,97512,67.98,68.047,67.851
06/27/2019,67.695,51073,67.6,67.72,67.5755
06/26/2019,67.48,56696,67.73,67.73,67.475
06/25/2019,67.41,80174,67.91,67.99,67.3794
06/24/2019,67.66,99013,67.76,67.85,67.62
06/21/2019,67.6,71108,67.57,67.809,67.4969
06/20/2019,68.0,105038,68.21,68.21,67.7115
06/19/2019,67.12,83542,66.81,67.27,66.81
06/18/2019,66.9,63208,66.54,66.9089,66.4736
06/17/2019,65.76,40891,65.81,65.95,65.7365
06/14/2019,66.33,32785,66.22,66.33,66.09
06/13/2019,66.54,44299,66.56,66.69,66.42
06/12/2019,66.55,54642,66.78,66.81,66.5401
06/11/2019,66.92,109210,67.09,67.27,66.881
06/10/2019,66.6,58517,66.73,66.8404,66.55
06/07/2019,66.5,41369,66.3,66.76,66.13
06/06/2019,65.78,62777,65.79,65.9048,65.64
06/05/2019,65.57,35542,65.82,65.82,65.454
06/04/2019,65.46,67924,65.27,65.4985,64.97
06/03/2019,65.37,52441,64.93,65.37,64.88
05/31/2019,64.4,41516,64.24,64.53,64.07
05/30/2019,64.9,46250,64.6,64.9,64.54
05/29/2019,64.3796,57293,64.4,64.415,64.11
05/28/2019,64.6,72527,65.26,65.26,64.6
05/24/2019,65.02,57666,64.92,65.15,64.89
05/23/2019,64.42,42345,64.55,64.59,64.28
05/22/2019,65.07,44290,64.98,65.16,64.9375
05/21/2019,64.97,36332,65.06,65.0698,64.8602
05/20/2019,64.82,30438,64.75,64.8359,64.5016
05/17/2019,64.96,37987,64.66,65.15,64.66
05/16/2019,65.0,48146,64.81,65.45,64.81
05/15/2019,64.76,55976,64.15,64.778,64.15
05/14/2019,64.48,63647,64.37,64.69,64.23
05/13/2019,63.85,85673,63.97,64.04,63.5936
05/10/2019,65.06,61735,64.75,65.19,64.28
05/09/2019,64.75,53866,64.51,64.895,64.15
05/08/2019,65.21,115925,65.0,65.4085,65.0
05/07/2019,65.06,86371,65.59,65.59,64.72
05/06/2019,66.065,51043,65.53,66.1,65.3679
05/03/2019,66.92,60583,66.58,66.92,66.4229
05/02/2019,66.15,40446,66.35,66.35,66.0
05/01/2019,66.26,107674,66.72,66.969,66.2301
04/30/2019,66.69,65040,66.48,66.72,66.3138
04/29/2019,66.48,91271,66.33,66.5088,66.25
04/26/2019,66.25,41823,66.09,66.25,65.9432
04/25/2019,65.79,64278,65.72,65.8415,65.5301
04/24/2019,65.88,82657,66.1,66.14,65.815
04/23/2019,65.97,60027,65.83,66.0326,65.7
04/22/2019,65.84,41863,65.82,65.87,65.7
04/18/2019,66.2,56110,66.0,66.2,65.955
04/17/2019,66.03,43160,66.36,66.36,66.015
04/16/2019,66.142,56790,66.08,66.2,66.0
04/15/2019,65.86,29944,65.87,65.88,65.7601
04/12/2019,65.76,36343,65.98,65.98,65.76
04/11/2019,65.77,43919,65.83,65.83,65.543
04/10/2019,65.77,51059,65.5,65.875,65.5
04/09/2019,65.54,51146,65.67,65.67,65.431
04/08/2019,65.7315,62281,65.77,65.77,65.5101
04/05/2019,65.8,63076,65.59,65.8799,65.59
04/04/2019,65.57,83250,65.47,65.59,65.43
04/03/2019,65.68,42422,65.6,65.9389,65.6
04/02/2019,65.3841,62497,65.28,65.3841,65.055
04/01/2019,65.28,75675,65.06,65.36,65.05
03/29/2019,64.6,60746,64.57,64.7299,64.415
03/28/2019,64.28,62316,64.2,64.29,63.9928
03/27/2019,64.21,64031,64.18,64.34,63.73
03/26/2019,64.13,31878,64.25,64.415,64.13
03/25/2019,63.85,49448,63.71,63.8658,63.5901
03/22/2019,63.8,57862,64.33,64.4075,63.72
03/21/2019,65.0,53555,64.62,65.01,64.62
03/20/2019,64.96,43463,64.78,65.2751,64.44
03/19/2019,64.67,61854,64.83,64.955,64.62
03/18/2019,64.75,81721,64.66,64.75,64.4866
03/15/2019,64.47,60362,64.12,64.5192,64.1
03/14/2019,63.68,75600,63.71,63.75,63.5555
03/13/2019,63.7048,47195,63.56,63.7599,63.5328
03/12/2019,63.4,55801,63.19,63.4,63.1261
03/11/2019,63.14,49636,62.59,63.1994,62.59
03/08/2019,62.5,104242,62.37,62.5,62.2
03/07/2019,62.65,46557,63.11,63.11,62.5001
03/06/2019,63.25,34346,63.5,63.5,63.17
03/05/2019,63.41,74635,63.23,63.4999,63.211000000000006
03/04/2019,62.99,40506,63.34,63.34,62.7302
03/01/2019,63.22,42812,63.19,63.22,62.96
02/28/2019,62.81,44068,62.85,63.02,62.73
02/27/2019,62.78,40681,63.04,63.05,62.78
02/26/2019,63.32,37736,63.14,63.47,63.13
02/25/2019,63.12,93112,63.26,63.2999,63.0701
02/22/2019,62.85,73792,62.87,62.986999999999995,62.7312
02/21/2019,62.67,62099,62.87,62.87,62.5
02/20/2019,62.68,53551,62.48,62.9,62.48
02/19/2019,62.28,52393,61.94,62.4,61.84
02/15/2019,62.135,92081,61.99,62.16,61.86
02/14/2019,61.6399,75849,61.69,61.8098,61.43
02/13/2019,61.65,600247,62.01,62.01,61.63
02/12/2019,61.82,73565,61.77,61.9366,61.67
02/11/2019,61.24,63887,61.5,61.5,61.18
02/08/2019,61.5,119309,61.23,61.5,61.09
02/07/2019,61.48,121653,61.46,61.8007,61.28
02/06/2019,62.0,58713,62.28,62.34,61.9414
02/05/2019,62.3224,59735,62.02,62.402,62.02
02/04/2019,61.66,61145,61.5,61.72,61.3482
02/01/2019,61.57,73711,61.51,61.68,61.405
01/31/2019,61.54,71752,61.28,61.589,61.19
01/30/2019,61.3,111757,60.92,61.46,60.65
01/29/2019,60.63,189951,60.75,60.82,60.513000000000005
01/28/2019,60.44,72198,60.2,60.44,60.06
01/25/2019,60.56,53178,60.78,60.8503,60.56
01/24/2019,60.25,138486,59.99,60.35,59.99
01/23/2019,59.9,229909,59.98,60.23,59.7
01/22/2019,59.75,84613,60.05,60.05,59.5546
01/18/2019,60.33,70371,60.36,60.49,60.19
01/17/2019,59.96,112888,59.33,60.06,59.1255
01/16/2019,59.55,103490,59.4,59.7299,59.4
01/15/2019,59.56,83521,59.39,59.56,59.2
01/14/2019,59.0,39665,59.01,59.32,58.89
01/11/2019,59.58,105889,59.53,59.645,59.3432
01/10/2019,59.86,79100,59.5,59.9,59.4061
01/09/2019,59.7,96888,59.53,59.8278,59.4848
01/08/2019,58.93,72246,58.94,59.05,58.74
01/07/2019,58.5,154476,58.29,58.718999999999994,58.22
01/04/2019,58.45,85784,57.56,58.56,57.34
01/03/2019,56.62,48693,56.99,57.3169,56.6
01/02/2019,57.44,104605,57.0,57.58,56.95
12/31/2018,57.6,253633,57.55,57.9999,57.41
12/28/2018,57.57,398467,57.59,57.74,57.22
12/27/2018,57.24,686348,56.26,57.24,56.04
12/26/2018,56.55,361047,55.91,57.06,55.61
12/24/2018,55.63,257298,56.09,56.56,55.63
12/21/2018,56.515,216404,57.19,57.3741,56.38
12/20/2018,57.44,278632,57.95,57.97,57.1323
12/19/2018,57.32,167796,58.26,58.63,57.0613
12/18/2018,57.89,271039,58.14,58.34,57.77
12/17/2018,57.5,192763,58.0,58.1467,57.39
12/14/2018,58.19,122079,58.53,58.5678,58.11
12/13/2018,59.0,330907,59.04,59.45,58.9
12/12/2018,59.12,143898,59.16,59.66,58.93
12/11/2018,58.34,132812,58.73,58.8757,57.96
12/10/2018,57.99,174008,58.1,58.31,57.2901
12/07/2018,58.645,174560,59.28,59.5904,58.47
12/06/2018,59.34,181032,58.94,59.41,58.255
12/04/2018,59.81,88540,61.0,61.0799,59.66
12/03/2018,61.03,110472,61.13,61.215,60.7328
11/30/2018,60.35,70155,60.36,60.36,60.01
11/29/2018,60.57,86728,60.51,60.8453,60.28
11/28/2018,60.79,82255,59.83,60.81,59.6001
11/27/2018,59.62,85929,59.36,59.62,59.2685
11/26/2018,59.65,64058,59.6,59.74,59.3
11/23/2018,59.07,30410,58.8,59.1049,58.6872
11/21/2018,59.13,103741,58.88,59.35,58.7999
11/20/2018,58.4,99358,58.6,58.83,58.2584
11/19/2018,59.45,100624,59.77,59.93,59.2451
11/16/2018,59.915,85406,59.46,59.98,59.24
11/15/2018,59.59,120063,59.21,59.8999,58.9299
11/14/2018,59.27,110633,59.37,59.64,58.9742
11/13/2018,58.92,93168,58.69,59.38,58.66
11/12/2018,58.46,195298,58.97,59.2499,58.39
11/09/2018,59.58,118552,59.7,59.72,59.1617
11/08/2018,59.9779,62879,60.56,60.58,59.85
11/07/2018,60.88,116483,60.68,60.96,60.45
11/06/2018,59.91,76379,59.72,59.92,59.6709
11/05/2018,59.63,104473,59.56,59.8899,59.5326
11/02/2018,59.86,67655,59.99,60.4254,59.35
11/01/2018,59.55,122567,59.14,59.55,58.85
10/31/2018,58.66,175780,58.58,58.92,58.5458
10/30/2018,57.9,567394,57.3,58.0999,57.3
10/29/2018,57.3,84808,58.05,58.2457,56.76
10/26/2018,57.81,104296,57.52,58.2224,57.1235
10/25/2018,58.41,53691,57.89,58.57,57.778
10/24/2018,57.35,65996,58.71,58.9296,57.332
10/23/2018,58.92,102478,58.33,59.1099,58.083
10/22/2018,59.41,37718,59.9,59.9,59.269
10/19/2018,59.55,51940,59.66,59.8545,59.41
10/18/2018,59.13,59003,59.84,59.94,58.83
10/17/2018,60.3,50236,60.5,60.64,60.05
10/16/2018,61.075,67648,60.6,61.145,60.5537
10/15/2018,59.78,109643,59.81,60.12,59.64
10/12/2018,60.1,77625,60.04,60.2384,59.4275
10/11/2018,59.46,301580,59.71,60.2016,59.02
10/10/2018,59.73,178580,61.07,61.1,59.7
10/09/2018,61.555,164953,61.22,61.73,61.03
10/08/2018,61.77,100626,61.41,61.8,61.39
10/05/2018,62.0,59864,62.18,62.42,61.65
10/04/2018,62.49,62159,63.07,63.07,62.1872
10/03/2018,63.69,61143,63.95,63.99,63.58
10/02/2018,64.02,53863,64.01,64.11,63.94
10/01/2018,64.6,41122,64.72,64.74,64.52
09/28/2018,64.43,49452,64.39,64.6,64.21
09/27/2018,64.78399999999999,37781,64.72,65.1649,64.6101
09/26/2018,64.79,34909,64.59,65.1999,64.59
09/25/2018,64.94,35067,64.91,64.96,64.6783
09/24/2018,64.56,35402,64.58,65.0,64.56
09/21/2018,65.05,23609,65.04,65.199,64.9775
09/20/2018,65.17,35315,64.89,65.279,64.87
09/19/2018,64.4,62980,64.22,64.48,64.195
09/18/2018,64.37,35158,64.2,64.4999,64.11
09/17/2018,63.96,58548,64.0,64.1547,63.92
09/14/2018,64.09,70220,64.41,64.535,64.08
09/13/2018,64.26,42161,64.06,64.4735,64.06
09/12/2018,63.7,56973,63.23,63.87,63.23
09/11/2018,63.23,93827,63.0,63.309,62.7732
09/10/2018,63.29,55507,63.4,63.57899999999999,63.22
09/07/2018,63.22,36374,63.23,63.5243,63.06
09/06/2018,63.5814,45417,63.71,63.87,63.29
09/05/2018,63.93,52755,64.09,64.26,63.63
09/04/2018,64.56,49733,64.63,64.66,64.405
08/31/2018,65.4901,39105,65.38,65.79,65.26
08/30/2018,65.93,72922,66.39,66.39,65.8
08/29/2018,66.65,38003,66.38,66.68,66.38
08/28/2018,66.3366,92929,66.68,66.68,66.32
08/27/2018,66.53,88080,65.89,66.65,65.89
08/24/2018,65.751,40631,65.22,65.9099,65.22
08/23/2018,65.02,40913,65.37,65.4777,65.0
08/22/2018,65.5,45546,65.39,65.5,65.28
08/21/2018,65.21,77743,64.97,65.375,64.8055
08/20/2018,64.63,43803,64.48,64.7912,64.48
08/17/2018,64.38,173270,63.55,64.4406,63.55
08/16/2018,63.73,45509,63.69,63.9299,63.52
08/15/2018,63.44,43640,63.65,63.73,63.04
08/14/2018,64.5,35443,64.48,64.7475,64.45
08/13/2018,64.44,44874,64.68,64.68,64.211
08/10/2018,64.8245,63051,65.02,65.1099,64.75
08/09/2018,66.0,40070,66.27,66.27,66.0
08/08/2018,66.29,32832,66.1,66.35,65.9
08/07/2018,66.23,34126,66.16,66.36,65.9387
08/06/2018,65.74,42543,65.59,65.9577,65.59
08/03/2018,65.97,37898,65.78,66.03,65.78
08/02/2018,65.77,28415,65.41,65.79,65.29
08/01/2018,66.27,37181,66.35,66.5672,66.0401
07/31/2018,66.405,35773,66.49,66.6,66.3801
07/30/2018,66.3,28513,66.79,66.9599,66.3
07/27/2018,66.49,35834,66.74,66.75,66.32
07/26/2018,66.54,56705,66.57,66.7341,66.43
07/25/2018,66.64,42775,66.15,66.93,66.11
07/24/2018,66.12,43840,66.17,66.44,66.11
07/23/2018,65.85,24788,65.97,66.25,65.82
07/20/2018,66.25,82239,65.91,66.25,65.91
07/19/2018,65.68,32791,65.33,65.8156,65.33
07/18/2018,66.02,42551,65.9,66.14,65.82
07/17/2018,65.98,37562,65.8,66.0,65.72
07/16/2018,65.88,32255,65.8,65.9079,65.75
07/13/2018,65.8,31549,65.66,65.9,65.66
07/12/2018,65.72,109062,65.55,65.86,65.518
07/11/2018,64.94,27521,65.17,65.4796,64.885
07/10/2018,65.75,42405,65.61,65.7607,65.531
07/09/2018,65.72,37234,65.75,65.75,65.42
07/06/2018,65.2,44883,64.75,65.26,64.73
07/05/2018,64.7263,41894,64.95,64.97,64.4517
07/03/2018,64.32,37324,64.73,64.75,64.32
07/02/2018,64.09,94700,63.95,64.2,63.6982
06/29/2018,64.76,44634,64.55,64.98,64.55
06/28/2018,63.94,42571,63.76,63.99,63.5439
06/27/2018,64.26,46972,65.03,65.2403,64.26
06/26/2018,64.96,49306,65.08,65.14,64.8001
06/25/2018,64.91,63907,65.44,65.44,64.8016
06/22/2018,65.87,31560,66.07,66.07,65.7252
06/21/2018,65.16,46721,65.31,65.399,65.14
06/20/2018,65.4,69726,65.54,65.8,65.38
06/19/2018,65.17,106773,64.85,65.3834,64.75
06/18/2018,65.94,48392,65.88,66.02,65.5253
06/15/2018,66.55,51774,66.72,66.75,66.3
06/14/2018,66.8,35807,66.97,67.1199,66.7
06/13/2018,67.12,45013,67.49,67.49,66.93
06/12/2018,66.92,33030,67.16,67.17,66.79
06/11/2018,67.02,29526,66.8,67.1595,66.75
06/08/2018,66.83,29412,66.55,66.9,66.441
06/07/2018,66.56,52918,67.07,67.0849,66.52
06/06/2018,67.35,65569,67.02,67.35,66.87
06/05/2018,66.72,47137,66.87,66.99,66.5995
06/04/2018,66.64,35897,66.66,66.87,66.63
06/01/2018,66.41,42346,66.4,66.55,66.186
05/31/2018,66.05,26197,66.07,66.1521,65.7
05/30/2018,66.11,33446,65.54,66.27,65.54
05/29/2018,65.29,73962,65.8,65.8,65.0101
05/25/2018,66.34,37817,66.29,66.399,66.17
05/24/2018,66.26,66578,66.27,66.44,65.9808
05/23/2018,66.2,46040,65.94,66.3,65.71
05/22/2018,66.65,73262,66.93,66.9865,66.562
05/21/2018,66.75,35420,66.54,66.79,66.54
05/18/2018,66.3736,37637,66.38,66.5,66.2794
05/17/2018,66.52,93822,66.54,66.75,66.39
05/16/2018,66.73,87763,66.29,66.7735,66.29
05/15/2018,66.15,154983,66.3,66.3,65.89
05/14/2018,66.83,34888,66.87,67.005,66.7985
05/11/2018,66.7,32314,66.81,66.9,66.49
05/10/2018,66.55,36112,66.41,66.61,66.19800000000001
05/09/2018,66.05,115752,65.84,66.1,65.755
05/08/2018,65.6223,47241,65.41,65.69,65.4
05/07/2018,65.39,77104,65.53,65.7,65.39
05/04/2018,65.47,51310,64.9,65.59,64.81
05/03/2018,65.03,65802,65.17,65.21,64.5
05/02/2018,65.12,34017,65.31,65.6199,65.0235
05/01/2018,65.22,33001,65.37,65.37,64.77
04/30/2018,65.44,45120,65.75,65.757,65.3801
04/27/2018,65.51,29045,65.57,65.65,65.33
04/26/2018,65.32,29871,65.06,65.34,65.0363
04/25/2018,64.6797,67943,64.69,64.78399999999999,64.4
04/24/2018,64.82,44579,65.39,65.44,64.62
04/23/2018,64.92,53738,65.48,65.48,64.85
04/20/2018,65.44,35217,65.58,65.58,65.281
04/19/2018,65.72,51208,66.12,66.2056,65.59100000000001
04/18/2018,66.26,88508,66.17,66.34,66.0662
04/17/2018,66.0,33612,65.89,66.2587,65.72399999999999
04/16/2018,65.64,35444,65.6,65.7299,65.49
04/13/2018,65.48,35968,65.66,65.85,65.31
04/12/2018,65.76,38326,65.57,65.839,65.494
04/11/2018,65.4,55915,65.46,65.66199999999999,65.315
04/10/2018,65.58,42578,65.63,65.79,65.38
04/09/2018,65.04,39527,65.18,65.47,64.83
04/06/2018,64.59,53663,64.79,65.22,64.35
04/05/2018,65.04,36950,64.85,65.1426,64.8312
04/04/2018,64.41,53695,63.26,64.5,63.26
04/03/2018,64.18,35397,64.07,64.18,63.69
04/02/2018,63.39,60924,64.12,64.399,63.17
03/29/2018,64.41,54592,64.13,64.71,64.031
03/28/2018,63.98,61654,63.85,64.3476,63.6608
03/27/2018,63.63,51922,64.21,64.6799,63.56
03/26/2018,64.22,47393,63.76,64.339,63.401
03/23/2018,63.11,90603,63.93,64.19,63.11
03/22/2018,63.85,79085,64.55,64.63,63.85
03/21/2018,65.28,43406,65.02,65.459,65.02
03/20/2018,65.11,38698,64.77,65.3053,64.77
03/19/2018,64.95,87678,65.27,65.27,64.71
03/16/2018,65.41,40511,65.85,65.85,65.39
03/15/2018,65.73,99010,65.93,66.1071,65.5766
03/14/2018,65.875,92195,66.14,66.2676,65.6701
03/13/2018,65.78,73004,66.44,66.48,65.65
03/12/2018,66.29,77936,66.11,66.335,66.01
03/09/2018,66.11,42657,65.8,66.16,65.6316
03/08/2018,65.51,43777,65.3,65.535,65.23
03/07/2018,65.27,63680,65.02,65.35,64.7919
03/06/2018,65.22,66071,65.55,65.55,65.1104
03/05/2018,65.13,51848,64.2,65.13,64.2
03/02/2018,64.43,48235,63.85,64.63,63.77
03/01/2018,64.11,116882,64.54,64.8879,63.8
02/28/2018,64.66,149684,65.55,65.565,64.66
02/27/2018,65.5,54305,66.23,66.2498,65.5
02/26/2018,66.75,69514,66.31,66.8314,66.28
02/23/2018,66.37,54438,65.93,66.37,65.8767
02/22/2018,65.66,52890,65.67,66.0237,65.5248
02/21/2018,65.28,63261,65.79,66.335,65.28
02/20/2018,65.44,79951,65.71,65.79899999999999,65.29
02/16/2018,66.45,63551,66.2,66.75,66.1305
02/15/2018,66.21,50794,66.05,66.33,65.75
02/14/2018,65.64,74037,64.37,65.64,64.2
02/13/2018,64.46,82385,64.28,64.5999,64.15100000000001
02/12/2018,64.59,146010,64.15,64.76,63.92
02/09/2018,63.65,167750,63.69,63.8899,62.15
02/08/2018,63.06,228783,64.77,64.77,63.0
02/07/2018,64.75,196924,65.03,65.48,64.73
02/06/2018,65.73,218730,63.99,65.91,63.75
02/05/2018,64.75,312248,66.5,66.65100000000001,64.58
02/02/2018,67.23,154081,67.98,68.0,67.13
02/01/2018,68.61,100894,68.58,68.79899999999999,68.45100000000001
01/31/2018,68.89,171800,69.28,69.3905,68.642
01/30/2018,69.0,104402,69.33,69.3499,68.94
01/29/2018,69.65,179290,69.92,69.92,69.561
01/26/2018,70.39,111253,70.09,70.39,70.0092
01/25/2018,69.55,154344,70.05,70.059,69.44
01/24/2018,69.8,136022,69.95,70.08,69.51
01/23/2018,69.51,115809,69.32,69.53,69.15100000000001
01/22/2018,69.0934,139027,68.87,69.1033,68.79
01/19/2018,68.75,92407,68.75,68.785,68.545
01/18/2018,68.29,183248,68.25,68.4,68.1
01/17/2018,68.46,107313,68.37,68.719,68.2114
01/16/2018,68.01,155383,68.27,68.3599,67.9398
01/12/2018,68.04,165672,67.51,68.04,67.51
01/11/2018,67.51,154970,67.26,67.51,67.25
01/10/2018,67.45,130814,67.75,67.75,67.3351
01/09/2018,67.9303,126615,67.99,68.0,67.75
01/08/2018,67.99,142955,67.93,67.99,67.8
01/05/2018,68.1,264743,67.98,68.1095,67.8019
01/04/2018,67.62,196578,67.56,67.72,67.4
01/03/2018,67.27,214801,67.11,67.335,67.03
01/02/2018,66.95,131958,66.74,66.9599,66.5848
12/29/2017,66.3,149098,66.66,66.71,66.3
12/28/2017,66.29,91793,66.43,66.43,66.24
12/27/2017,66.09,85088,66.05,66.19,66.0
12/26/2017,66.0,91462,65.82,66.09,65.792
12/22/2017,65.95,86000,65.81,65.95,65.68
12/21/2017,65.76,122256,65.53,65.96600000000001,65.42
12/20/2017,65.25,64473,65.59,65.59,65.25
12/19/2017,65.39,81023,65.53,65.8199,65.3
12/18/2017,66.01,77412,65.95,66.2727,65.79
12/15/2017,65.4,92807,66.05,66.05,65.3
12/14/2017,65.76,90789,65.75,66.0,65.5
12/13/2017,66.04,84116,65.82,66.1973,65.72
12/12/2017,65.72,92415,65.6,65.7672,65.44
12/11/2017,65.94,86578,65.88,65.95,65.75
12/08/2017,65.7,116777,65.48,65.88,65.398
12/07/2017,65.3,222837,65.08,65.45,65.08
12/06/2017,65.08,81225,65.09,65.1927,64.9
12/05/2017,65.42,118303,65.35,65.6137,65.1
12/04/2017,65.34,96293,66.39,66.39,65.31
12/01/2017,65.61,72155,65.64,65.81,65.3001
11/30/2017,65.83,82027,66.45,66.45,65.717
11/29/2017,65.71,76454,66.27,66.31,65.71
11/28/2017,66.49,58968,66.45,66.5,66.21
11/27/2017,66.05,71643,66.41,66.41,65.9752
11/24/2017,66.45,21297,66.39,66.45,66.3
11/22/2017,66.15,95372,66.15,66.2682,65.8324
11/21/2017,66.15,69594,66.06,66.155,65.96
11/20/2017,65.59,90369,65.54,65.66,65.5
11/17/2017,65.15,35026,64.94,65.19,64.91
11/16/2017,64.97,58848,64.64,64.98,64.5975
11/15/2017,64.29,84564,64.29,64.41,64.0824
11/14/2017,64.42,40381,64.29,64.44,64.1701
11/13/2017,64.35,159264,64.24,64.5276,64.1122
11/10/2017,64.58,91467,64.67,64.67,64.43
11/09/2017,64.86,136351,64.6,64.86,64.41
11/08/2017,65.09,58422,64.96,65.1,64.9399
11/07/2017,64.85,59212,65.0,65.097,64.7
11/06/2017,65.1,47428,64.89,65.1434,64.7307
11/03/2017,64.63,60798,64.59,64.706,64.4
11/02/2017,64.59,74911,64.7,64.7,64.4
11/01/2017,64.54,56190,64.76,64.809,64.47
10/31/2017,64.39,91631,64.31,64.56,64.16
10/30/2017,64.1,56853,64.05,64.2164,64.0
10/27/2017,64.18,66619,63.84,64.18,63.69
10/26/2017,63.69,66091,63.99,63.99,63.66
10/25/2017,63.72,79888,64.13,64.21,63.51
10/24/2017,64.23,153061,64.31,64.3985,64.1524
10/23/2017,64.22,93117,65.14,65.14,64.2
10/20/2017,64.57,65833,64.7,64.85,64.49
10/19/2017,64.88,71497,64.8,64.96,64.7042
10/18/2017,65.09,70833,65.07,65.1336,64.9066
10/17/2017,65.01,55632,64.84,65.0599,64.7851
10/16/2017,65.04,54578,65.21,65.5,65.04
10/13/2017,65.17,63650,65.0,65.346,65.0
10/12/2017,64.69,57247,64.7,64.79,64.601
10/11/2017,64.71,86921,64.64,64.73,64.524
10/10/2017,64.49,52052,64.55,64.55,64.3014
10/09/2017,64.07,54978,64.16,64.249,64.0001
10/06/2017,64.04,67432,64.0,64.1117,63.8
10/05/2017,64.24,91880,64.21,64.345,64.18
10/04/2017,64.3,57914,64.24,64.4,64.194
10/03/2017,64.2,45134,64.09,64.2451,63.92
10/02/2017,63.89,70026,64.03,64.057,63.83
09/29/2017,63.9,74020,63.61,63.9499,63.5
09/28/2017,63.52,81764,63.3,63.58,63.27
09/27/2017,63.38,65340,63.38,63.489,63.2101
09/26/2017,63.71,127358,63.72,63.9527,63.4301
09/25/2017,63.84,56263,64.0,64.15,63.7
09/22/2017,64.13,57728,64.23,64.5799,64.02
09/21/2017,64.31,91941,64.65,64.65,64.11
09/20/2017,64.49,77409,64.62,64.8299,64.01
09/19/2017,64.55,75028,64.53,64.645,64.35
09/18/2017,64.46,82434,64.59,64.8399,64.3036
09/15/2017,64.31,41464,64.29,64.32,64.18
09/14/2017,64.26,58142,64.1,64.3044,64.0
09/13/2017,64.18,60749,64.36,64.609,64.09
09/12/2017,64.54,87021,64.86,64.86,64.415
09/11/2017,64.5,53026,64.44,64.579,64.3503
09/08/2017,63.99,46647,64.15,64.4299,63.9592
09/07/2017,64.11,57727,63.94,64.19,63.8
09/06/2017,63.7,44203,63.34,63.74,63.34
09/05/2017,63.18,75879,63.61,63.61,62.93
09/01/2017,63.73,104807,63.87,64.0324,63.641999999999996
08/31/2017,63.66,88206,63.34,63.7099,63.2842
08/30/2017,63.11,50440,63.02,63.24,62.91
08/29/2017,63.26,84322,63.0,63.269,63.0
08/28/2017,63.34,68377,63.45,63.45,63.25
08/25/2017,63.48,95068,63.29,63.5099,63.16
08/24/2017,63.16,79586,63.24,63.3402,63.071999999999996
08/23/2017,63.25,40732,62.89,63.339,62.89
08/22/2017,63.01,57970,62.84,63.1499,62.84
08/21/2017,62.66,99691,62.58,62.7539,62.47
08/18/2017,62.58,84348,62.5,62.6764,62.3799
08/17/2017,62.55,96293,63.01,63.1399,62.41
08/16/2017,63.17,203508,62.82,63.2299,62.73
08/15/2017,62.57,147788,63.24,63.24,62.3
08/14/2017,62.69,59234,62.65,62.8948,62.6408
08/11/2017,62.2,149761,62.19,62.46,62.04
08/10/2017,62.34,98363,62.86,63.0491,62.2
08/09/2017,63.06,100413,62.94,63.16,62.85
08/08/2017,63.1,113653,63.25,63.5,63.03
08/07/2017,63.3,74139,63.28,63.39,63.16
08/04/2017,63.22,81338,63.27,63.44,63.03
08/03/2017,63.3,107534,63.22,63.6359,63.14
08/02/2017,63.47,120716,63.56,63.74,63.3
08/01/2017,63.5,208169,63.59,63.8171,63.4
07/31/2017,63.23,88703,63.29,63.5,63.1
07/28/2017,63.09,81471,62.86,63.1299,62.8301
07/27/2017,63.1,81001,63.39,63.558,62.75
07/26/2017,63.31,167851,63.0,63.4399,62.85
07/25/2017,63.04,75517,63.23,63.3574,62.95
07/24/2017,62.99,87608,63.19,63.19,62.7768
07/21/2017,63.06,127586,63.09,63.28,62.85
07/20/2017,63.18,55809,63.07,63.258,62.98
07/19/2017,63.0,105821,62.75,63.12,62.75
07/18/2017,62.51,72248,62.5,62.6204,62.31
07/17/2017,62.54,77771,63.27,63.27,62.41
07/14/2017,62.65,85027,62.8,62.8,62.4
07/13/2017,62.13,82732,62.0,62.22,61.97
07/12/2017,62.05,77386,61.86,62.1,61.77
07/11/2017,61.21,68095,60.98,61.27,60.86
07/10/2017,61.12,49206,61.12,61.17,60.99
07/07/2017,60.93,111830,60.7,60.99,60.59
07/06/2017,60.89,109841,61.19,61.19,60.68
07/05/2017,61.31,169933,62.03,62.03,60.8
07/03/2017,61.68,107557,62.0,62.0,61.29
06/30/2017,61.69,70368,61.63,61.82,61.37
06/29/2017,61.52,117056,62.01,62.49,61.23
06/28/2017,62.42,200004,62.2,62.5199,62.05
06/27/2017,62.62,94305,62.88,62.88,62.55
06/26/2017,62.83,68192,63.01,63.1256,62.75
06/23/2017,62.61,92043,62.32,62.7,62.21
06/22/2017,62.5,73712,62.16,62.5299,62.16
06/21/2017,62.12,97612,62.01,62.1484,61.92
06/20/2017,62.09,51584,62.5,62.5,62.0
06/19/2017,62.54,78577,62.82,62.82,62.4
06/16/2017,62.19,67205,61.97,62.24,61.83
06/15/2017,61.68,67627,61.95,61.95,61.2617
06/14/2017,62.17,112173,62.3,62.665,61.95
06/13/2017,62.13,58647,61.88,62.14,61.88
06/12/2017,61.63,90694,61.65,61.8,61.33
06/09/2017,61.7,42856,61.78,62.099,61.586999999999996
06/08/2017,62.11,202622,62.19,62.247,61.81
06/07/2017,62.44,51293,62.52,62.59,62.1063
06/06/2017,62.63,187659,62.63,62.75,62.38
06/05/2017,62.71,160529,63.02,63.02,62.55
06/02/2017,62.93,61934,62.73,62.93,62.5872
06/01/2017,62.64,82895,62.35,62.64,62.254
05/31/2017,62.11,57513,62.37,62.37,61.93
05/30/2017,61.93,72497,61.9,62.114,61.87
05/26/2017,62.09,106151,61.93,62.09,61.85
05/25/2017,62.13,67854,62.2,62.2899,61.9898
05/24/2017,61.9,131686,62.01,62.01,61.6
05/23/2017,61.79,111983,62.2,62.2,61.7172
05/22/2017,61.96,110683,62.08,62.08,61.75
05/19/2017,61.69,63082,61.31,61.69,61.31
05/18/2017,61.03,123068,60.6,61.0676,60.46
05/17/2017,60.98,94963,61.31,61.5,60.85
05/16/2017,61.59,124811,61.72,61.72,61.466
05/15/2017,61.18,162921,61.25,61.25,61.0285
05/12/2017,60.84,93332,60.66,60.9003,60.5588
05/11/2017,60.47,66017,60.26,60.488,60.1347
05/10/2017,60.52,78555,60.35,60.5299,60.27
05/09/2017,60.35,70000,60.4,60.408,60.1492
05/08/2017,60.3,137948,60.43,60.43,60.03
05/05/2017,60.62,65207,60.03,60.62,59.82
05/04/2017,59.95,78715,59.81,60.1,59.6305
05/03/2017,59.89,62101,59.78,60.0,59.675
05/02/2017,59.98,87768,59.54,60.0099,59.54
05/01/2017,59.49,111184,60.33,60.33,59.28
04/28/2017,59.31,122970,59.26,59.4559,59.188
04/27/2017,59.45,63490,59.26,59.479,59.15
04/26/2017,59.17,109293,59.29,59.3598,59.06
04/25/2017,59.36,82811,59.43,59.4999,59.1912
04/24/2017,59.11,73346,59.51,59.51,58.8701
04/21/2017,58.08,68227,58.11,58.1437,57.83
04/20/2017,58.21,74897,58.05,58.36,58.013999999999996
04/19/2017,57.7,42841,58.15,58.15,57.6001
04/18/2017,58.1,55612,58.0,58.1,57.77
04/17/2017,58.41,59190,58.19,58.41,58.19
04/13/2017,57.96,45237,58.59,58.59,57.9
04/12/2017,58.34,44982,58.19,58.34,57.9546
04/11/2017,57.99,57805,58.53,58.53,57.6173
04/10/2017,57.76,83703,58.17,58.17,57.65
04/07/2017,57.67,109602,57.63,57.7987,57.55
04/06/2017,57.59,73324,57.79,57.79,57.53
04/05/2017,57.55,96880,58.0,58.0832,57.55
04/04/2017,57.91,176013,57.61,57.91,57.48
04/03/2017,57.48,71563,57.69,57.7399,57.2591
03/31/2017,57.46,91003,57.65,57.7,57.41
03/30/2017,57.55,40619,57.94,57.989,57.55
03/29/2017,57.91,85825,57.89,58.0493,57.6
03/28/2017,57.87,48790,57.86,58.038999999999994,57.75
03/27/2017,57.67,84836,57.62,57.7806,57.3645
03/24/2017,57.34,52850,57.51,57.61,57.34
03/23/2017,57.15,50285,57.24,57.55,57.091
03/22/2017,57.13,58915,56.85,57.3027,56.85
03/21/2017,57.24,65882,58.11,58.18,57.23
03/20/2017,57.76,72451,57.87,57.9006,57.6488
03/17/2017,57.62,57833,57.77,57.81,57.555
03/16/2017,57.51,153170,57.43,57.9138,57.43
03/15/2017,57.27,46503,56.63,57.379,56.3701
03/14/2017,56.35,65637,56.6,56.6,56.35
03/13/2017,56.66,71754,56.77,56.7899,56.57
03/10/2017,56.35,44022,56.36,56.3965,56.06399999999999
03/09/2017,55.83,39522,55.57,55.88,55.57
03/08/2017,55.65,48810,55.99,56.09,55.65
03/07/2017,56.02,54001,56.19,56.21,55.9225
03/06/2017,56.1858,46931,56.27,56.35,56.0016
03/03/2017,56.17,43079,56.2,56.291000000000004,55.93
03/02/2017,55.91,90771,56.11,56.11,55.9
03/01/2017,56.21,53544,56.1,56.3413,55.9274
02/28/2017,55.68,44569,55.95,55.9695,55.65
02/27/2017,55.96,68409,56.0,56.083999999999996,55.9
02/24/2017,56.02,64502,56.12,56.1599,55.98
02/23/2017,56.33,88899,56.57,56.5875,56.32
02/22/2017,56.26,30919,56.18,56.333,56.09
02/21/2017,56.16,70266,56.12,56.2529,56.01
02/17/2017,56.07,35449,56.13,56.2206,55.98
02/16/2017,55.98,32488,55.82,56.0699,55.82
02/15/2017,55.7591,38771,55.46,55.788999999999994,55.4
02/14/2017,55.35,60156,55.5,55.5,55.1
02/13/2017,55.55,67418,55.6,55.6,55.3969
02/10/2017,55.39,58462,55.28,55.458999999999996,55.15
02/09/2017,55.2,52602,55.19,55.3217,55.08
02/08/2017,54.88,47031,54.91,54.9477,54.66
02/07/2017,54.73,35797,54.84,54.84,54.6
02/06/2017,54.83,80330,54.93,54.9664,54.75
02/03/2017,55.14,60317,55.08,55.1859,54.906000000000006
02/02/2017,54.85,51786,54.98,55.0188,54.71
02/01/2017,54.87,89235,55.13,55.141999999999996,54.648
01/31/2017,54.77,50080,54.33,54.78,54.33
01/30/2017,54.46,57669,54.59,54.61,54.34
01/27/2017,54.71,56094,54.91,54.91,54.6563
01/26/2017,54.66,48006,54.64,54.81,54.64
01/25/2017,54.88,79621,54.84,55.012,54.6747
01/24/2017,54.46,83275,54.19,54.619,54.19
01/23/2017,54.29,33831,54.04,54.32,53.9671
01/20/2017,54.02,52764,54.12,54.14,53.9488
01/19/2017,54.01,27106,54.11,54.11,53.87
01/18/2017,54.06,36070,54.46,54.46,54.06
01/17/2017,54.41,83110,54.36,54.55,54.35
01/13/2017,54.35,68405,54.46,54.46,54.17
01/12/2017,54.23,70257,54.29,54.29,54.0
01/11/2017,54.27,70096,54.13,54.39,53.95
01/10/2017,54.2,80197,54.22,54.3599,54.08
01/09/2017,54.05,126565,54.04,54.09,53.86
01/06/2017,53.94,121321,54.17,54.17,53.79
01/05/2017,54.22,75895,53.97,54.2999,53.965
01/04/2017,53.54,57227,53.44,53.55,53.2
01/03/2017,53.02,69389,53.12,53.12,52.91
12/30/2016,52.79,48664,53.36,53.36,52.77
12/29/2016,52.86,62813,52.49,52.9051,52.49
12/28/2016,52.3086,47316,52.33,52.4527,52.26
12/27/2016,52.275,68729,52.21,52.4462,52.21
12/23/2016,52.21,34794,52.04,52.2499,52.04
12/22/2016,52.213,32653,52.15,52.3272,52.15
12/21/2016,52.31,33703,52.23,52.4332,52.23
12/20/2016,52.37,33842,52.2,52.41,52.2
12/19/2016,52.2896,84714,52.33,52.49,52.2
12/16/2016,52.32,40621,52.51,52.51,52.2
12/15/2016,52.43,23092,52.45,52.48,52.2701
12/14/2016,52.415,105079,53.51,53.51,52.415
12/13/2016,53.47,35490,53.35,53.53,53.18
12/12/2016,52.8,27407,52.8,52.92,52.72
12/09/2016,52.79,60344,52.46,52.8878,52.46
12/08/2016,52.46,52179,52.57,52.58,52.28
12/07/2016,52.6099,67132,52.37,52.64,52.25
12/06/2016,52.38,23432,52.29,52.41,52.1548
12/05/2016,52.44,54814,52.57,52.57,52.17
12/02/2016,52.0523,33720,51.99,52.1438,51.8806
12/01/2016,51.99,29119,52.32,52.32,51.97
11/30/2016,52.43,37484,52.68,52.69,52.2915
11/29/2016,52.37,26133,52.32,52.44,52.11
11/28/2016,52.111999999999995,18399,52.44,52.44,52.111999999999995
11/25/2016,52.27,7967,52.06,52.28,52.06
11/23/2016,51.84,38417,51.81,51.8916,51.5
11/22/2016,52.13,18558,52.25,52.25,51.93
11/21/2016,52.13,43973,52.09,52.18,51.9165
11/18/2016,51.85,24290,52.0,52.01,51.8101
11/17/2016,52.1418,46839,52.3,52.39,52.11
11/16/2016,52.02,52400,52.05,52.1,51.93
11/15/2016,52.23,24442,51.73,52.2301,51.73
11/14/2016,51.96,48590,52.37,52.37,51.85
11/11/2016,52.57,36943,53.25,53.25,52.31
11/10/2016,53.43,40026,54.17,54.17,53.35
11/09/2016,54.49,115893,54.69,54.69,54.07
11/08/2016,54.48,11806,54.49,54.68,54.26
11/07/2016,54.34,25527,54.33,54.402,54.1501
11/04/2016,53.6271,27932,53.97,53.97,53.59
11/03/2016,54.0,28004,54.26,54.285,53.9
11/02/2016,54.23,20923,54.5,54.61,54.19
11/01/2016,54.54,7902,54.84,54.84,54.28
10/31/2016,54.68,19198,54.71,54.75,54.47
10/28/2016,54.6701,27673,54.87,54.87,54.61
10/27/2016,54.9399,9458,55.24,55.24,54.913000000000004
10/26/2016,54.88,15902,55.08,55.08,54.75
10/25/2016,55.15,10238,55.11,55.41,55.11
10/24/2016,55.5296,31661,55.8,55.8,55.44
10/21/2016,55.6,12648,55.57,55.6,55.42
10/20/2016,55.85,16602,55.98,55.99,55.75
10/19/2016,55.9801,14998,56.05,56.0672,55.88
10/18/2016,55.82,10756,55.96,55.96,55.75
10/17/2016,55.19,10656,55.43,55.43,55.16
10/14/2016,55.3701,18788,55.55,55.858999999999995,55.37
10/13/2016,55.37,16415,55.21,55.505,54.85
10/12/2016,55.6799,14521,55.64,55.72,55.52
10/11/2016,55.6301,14481,56.26,56.26,55.6092
10/10/2016,56.43,8870,56.55,56.6391,56.4217
10/07/2016,56.19,32436,56.66,56.66,55.81
10/06/2016,56.5,17950,56.64,56.64,56.33
10/05/2016,56.87,20787,57.04,57.04,56.7487
10/04/2016,56.64,32995,57.27,57.27,56.5512
10/03/2016,57.08,25412,57.03,57.1281,56.88
09/30/2016,57.03,11550,57.06,57.208999999999996,56.79
09/29/2016,56.86,31518,57.47,57.47,56.75
09/28/2016,57.55,16011,57.385,57.6054,57.01
09/27/2016,57.13,15182,57.01,57.2399,56.8
09/26/2016,56.81,15127,57.26,57.26,56.78
09/23/2016,57.358000000000004,18422,57.67,57.67,57.3001
09/22/2016,57.68,14504,57.61,57.8604,57.61
09/21/2016,57.26,14717,56.91,57.29,56.57
09/20/2016,56.61,14296,56.8,56.864,56.56
09/19/2016,56.31,16055,56.71,56.71,56.3
09/16/2016,56.13,45765,56.62,56.62,55.99
09/15/2016,56.6199,22804,56.24,56.72,56.17
09/14/2016,56.03,13404,56.23,56.31,56.0
09/13/2016,56.03,19392,56.61,56.61,55.86
09/12/2016,57.15,23167,56.47,57.18,56.18
09/09/2016,56.53,57708,57.43,57.43,56.53
09/08/2016,58.04,20756,58.13,58.15,57.8998
09/07/2016,58.11,21443,58.36,58.36,58.0538
09/06/2016,58.298,32072,58.02,58.348,57.965
09/02/2016,57.41,22312,57.32,57.4499,57.21
09/01/2016,56.5571,8716,56.44,56.596000000000004,56.33
08/31/2016,56.36,21285,56.68,56.68,56.17
08/30/2016,56.8569,27381,57.14,57.14,56.769
08/29/2016,56.916000000000004,36478,56.65,56.97,56.63
08/26/2016,56.7,41355,57.32,57.645,56.52
08/25/2016,57.0905,33392,57.25,57.25,57.04
08/24/2016,57.25,30886,57.559,57.559,57.2273
08/23/2016,57.54,13753,57.94,57.94,57.5237
08/22/2016,57.51,21163,57.42,57.5399,57.2999
08/19/2016,57.53,69188,57.68,57.68,57.25
08/18/2016,58.07,20967,57.85,58.07,57.7407
08/17/2016,57.71,62104,57.77,57.77,57.34
08/16/2016,57.8,32416,57.98,57.98,57.8
08/15/2016,57.93,34778,57.98,57.98,57.8705
08/12/2016,57.59,52983,57.89,57.89,57.51
08/11/2016,57.74,18792,57.63,57.788000000000004,57.535
08/10/2016,57.16,12673,57.45,57.45,57.0836
08/09/2016,57.2501,19885,57.2784,57.42,57.2
08/08/2016,56.85,13574,57.0,57.0,56.8005
08/05/2016,57.0,20557,57.02,57.05,56.86
08/04/2016,56.98,17016,56.86,57.06,56.76
08/03/2016,56.8673,38010,56.87,56.966,56.7356
08/02/2016,57.065,13522,57.45,57.45,56.9101
08/01/2016,57.22,41348,57.6,57.6,57.19
07/29/2016,57.48,9732,57.26,57.5087,57.096000000000004
07/28/2016,57.12,19219,56.91,57.3,56.91
07/27/2016,57.13,32567,57.12,57.25,56.81
07/26/2016,57.12,34861,57.28,57.28,56.91
07/25/2016,56.8597,23123,57.14,57.14,56.72
07/22/2016,57.0,26623,57.01,57.02,56.83
07/21/2016,56.7925,24930,57.07,57.07,56.66
07/20/2016,57.06,15824,57.7,57.7,56.79
07/19/2016,56.57,33943,56.66,56.66,56.4708
07/18/2016,56.9883,18274,56.98,57.0199,56.6691
07/15/2016,56.7,14676,56.98,56.98,56.648999999999994
07/14/2016,57.157,29258,57.26,57.26,57.0634
07/13/2016,56.81,39008,57.1,57.1,56.7201
07/12/2016,56.85,30251,56.83,56.943000000000005,56.6
07/11/2016,56.4,36151,56.46,56.53,56.14
07/08/2016,56.1235,53355,55.87,56.148,55.75
07/07/2016,55.52,36588,55.95,55.95,55.35
07/06/2016,55.64,34248,55.16,55.665,54.9213
07/05/2016,55.6,42391,55.77,55.8099,55.45
07/01/2016,56.29,26351,56.28,56.34,55.98
06/30/2016,55.84,19450,55.25,55.9799,55.25
06/29/2016,55.27,30128,55.14,55.28,54.93
06/28/2016,54.2345,65738,53.74,54.25,53.74
06/27/2016,52.91,64024,53.4,53.4,52.4805
06/24/2016,53.37,166606,53.0,54.3236,53.0
06/23/2016,56.26,14612,55.9,56.26,55.7001
06/22/2016,55.1012,12529,55.3099,55.38,55.1012
06/21/2016,55.04,17247,54.99,55.2797,54.7486
06/20/2016,54.72,44809,55.23,55.23,54.72
06/17/2016,53.8101,130513,53.83,53.97,53.52
06/16/2016,53.73,99395,53.17,53.76,52.7
06/15/2016,53.7,68539,53.91,54.05,53.7
06/14/2016,53.3375,20147,53.65,53.72,53.17
06/13/2016,54.18,32897,54.17,54.65,54.1
06/10/2016,54.84,71310,55.45,55.45,54.72
06/09/2016,56.13,86582,56.37,56.37,56.01
06/08/2016,56.79,18187,56.97,56.99,56.758
06/07/2016,56.75,24717,56.75,56.83,56.695
06/06/2016,56.365,21515,56.23,56.4143,56.17
06/03/2016,55.91,47774,55.82,55.95,55.6
06/02/2016,55.38,26414,55.09,55.39,55.05
06/01/2016,55.26,36432,55.24,55.26,55.01
05/31/2016,55.1045,17656,55.42,55.4799,55.0
05/27/2016,55.1747,46234,55.27,55.3099,55.09
05/26/2016,55.05,19009,55.0,55.1499,54.86
05/25/2016,54.81,21753,54.63,54.8468,54.567
05/24/2016,54.09,9141,53.75,54.0999,53.75
05/23/2016,53.46,14757,53.62,53.6299,53.3582
05/20/2016,53.52,17049,53.59,53.62,53.445
05/19/2016,53.15,22859,53.51,53.51,52.8864
05/18/2016,53.6,12729,53.78,54.135,53.4974
05/17/2016,53.7656,9264,54.0,54.14,53.7656
05/16/2016,54.16,32700,53.84,54.2519,53.84
05/13/2016,53.51,20773,53.82,53.85,53.371
05/12/2016,53.96,19574,54.43,54.43,53.785
05/11/2016,54.12,30468,54.32,54.396,54.1
05/10/2016,54.37,19935,54.13,54.37,54.01
05/09/2016,53.575,15040,54.07,54.07,53.5
05/06/2016,53.4199,20716,53.27,53.42,53.14
05/05/2016,53.33,25251,55.08,55.08,53.19
05/04/2016,53.44,20236,53.99,53.99,53.32
05/03/2016,54.09,25092,54.65,54.65,54.04
05/02/2016,55.03,15430,55.11,55.11,54.84
04/29/2016,54.69,21273,54.65,54.9299,54.51
04/28/2016,54.875,86315,55.07,55.33,54.798
04/27/2016,55.27,13620,55.08,55.32,54.9688
04/26/2016,55.0735,27366,55.22,55.25899999999999,55.0
04/25/2016,55.0007,13492,55.09,55.09,54.96
04/22/2016,55.358000000000004,13492,55.1,55.55,55.1
04/21/2016,55.54,19103,55.8,55.8,55.44
04/20/2016,56.0,26457,56.1,56.22,55.79
04/19/2016,56.32,16391,56.34,56.37,56.13
04/18/2016,55.51,65555,55.17,55.57,54.9122
04/15/2016,55.019,21684,55.21,55.21,55.0
04/14/2016,55.11,23579,55.28,55.28,55.03
04/13/2016,54.98,14972,54.96,54.9838,54.7959
04/12/2016,54.52,25109,54.02,54.61,53.83
04/11/2016,54.0207,40476,54.33,54.41,54.0
04/08/2016,53.6,19417,53.97,53.97,53.59
04/07/2016,53.2672,16041,53.73,53.73,53.19
04/06/2016,53.702,19221,53.28,53.85,53.23
04/05/2016,52.9101,13715,53.12,53.12,52.8201
04/04/2016,53.6189,14144,54.0,54.0,53.582
04/01/2016,53.62,17431,53.0,53.67,52.903999999999996
03/31/2016,53.85,30954,54.07,54.15,53.85
03/30/2016,54.08,19874,53.89,54.37,53.89
03/29/2016,53.68,18784,52.9,53.71,52.7062
03/28/2016,53.03,9863,53.05,53.17,52.967
03/24/2016,52.91,13519,52.95,52.95,52.6585
03/23/2016,53.1441,27084,53.64,53.64,53.055
03/22/2016,53.52,23325,53.66,53.66,53.12
03/21/2016,53.52,12550,54.23,54.23,53.4768
03/18/2016,53.53,12951,53.54,53.6799,53.472
03/17/2016,53.408,24001,53.8,53.8,53.01
03/16/2016,53.13,11822,52.37,53.13,52.2
03/15/2016,52.41,18453,52.59,52.59,52.2
03/14/2016,52.85,12295,52.71,52.91,52.6769
03/11/2016,52.928999999999995,14241,52.67,52.98,52.5893
03/10/2016,51.98,20474,52.52,52.52,51.6759
03/09/2016,52.099,7485,52.22,52.27,51.86
03/08/2016,51.75,10574,52.13,52.13,51.75
03/07/2016,52.205,19463,52.34,52.3699,51.68
03/04/2016,52.2,20833,51.97,52.58,51.97
03/03/2016,51.945,27867,52.27,53.2014,51.46
03/02/2016,51.87,21383,51.59,51.88,51.57
