Date, Close/Last, Volume, Open, High, Low
01/06/2020,58.88,590411,58.84,58.93,58.71
01/03/2020,59.18,321318,58.99,59.282,58.9609
01/02/2020,59.45,424595,59.3,59.4634,59.275
12/31/2019,59.09,219935,58.95,59.09,58.85
12/30/2019,58.71,294134,59.0,59.02,58.71
12/27/2019,58.96,322343,58.78,58.96,58.77
12/26/2019,58.54,355091,58.28,58.54,58.25
12/24/2019,58.22,637517,58.12,58.23,58.08
12/23/2019,58.05,676185,58.11,58.14,57.9805
12/20/2019,58.04,588289,57.98,58.08,57.855
12/19/2019,57.81,227861,57.69,57.83,57.63
12/18/2019,57.62,870867,57.66,57.66,57.465
12/17/2019,61.27,329218,61.19,61.28,61.11
12/16/2019,61.4,240235,61.43,61.45,61.38
12/13/2019,60.9,427216,60.98,61.235,60.8094
12/12/2019,61.0,386670,60.82,61.101000000000006,60.72
12/11/2019,61.0,177778,60.78,61.06,60.77
12/10/2019,60.94,153536,60.94,60.9497,60.8463
12/09/2019,60.93,164538,60.9,60.99,60.88
12/06/2019,60.88,167855,60.8,60.9489,60.8
12/05/2019,60.4,203370,60.46,60.5,60.3501
12/04/2019,60.43,271676,60.37,60.48,60.3
12/03/2019,60.4,199113,60.09,60.4,59.97
12/02/2019,60.33,230448,60.58,60.61,60.27
11/29/2019,60.46,71505,60.5,60.5431,60.43
11/27/2019,60.79,187345,60.67,60.86,60.6401
11/26/2019,60.74,205718,60.53,60.74,60.53
11/25/2019,60.52,98990,60.4,60.5981,60.29
11/22/2019,60.06,149692,60.15,60.15,59.9596
11/21/2019,60.1,162479,60.26,60.42,60.1
11/20/2019,60.42,395498,60.5,60.59,60.26
11/19/2019,60.56,154329,60.63,60.68,60.51
11/18/2019,60.12,196457,60.03,60.28,59.93
11/15/2019,59.92,96919,59.7,59.92,59.7
11/14/2019,59.59,118660,59.39,59.59,59.326
11/13/2019,59.32,272923,59.24,59.38,59.2001
11/12/2019,59.67,348038,59.9,59.91,59.65
11/11/2019,60.23,224710,60.07,60.23,59.83
11/08/2019,60.7,800456,60.56,60.7,60.515
11/07/2019,61.1,181167,61.27,61.34,61.01
11/06/2019,61.25,683547,61.11,61.25,61.01
11/05/2019,61.15,326217,61.42,61.43,61.08
11/04/2019,61.5,187669,61.66,61.73,61.43
11/01/2019,61.33,315792,61.25,61.45,61.22
10/31/2019,60.9,182930,60.85,60.9,60.64
10/30/2019,60.75,161987,60.43,60.75,60.25
10/29/2019,60.6,173939,60.43,60.6,60.4134
10/28/2019,60.55,211429,60.47,60.66,60.47
10/25/2019,60.5,182349,60.42,60.61,60.35
10/24/2019,60.66,202610,60.78,60.78,60.508
10/23/2019,60.9,213722,60.69,60.92,60.6339
10/22/2019,60.82,171551,60.95,60.99,60.73
10/21/2019,61.0,153374,60.95,61.0,60.84
10/18/2019,60.58,241766,60.63,60.75,60.5097
10/17/2019,60.77,240451,60.76,60.87,60.6488
10/16/2019,60.6,176849,60.33,60.6,60.276
10/15/2019,60.09,183801,59.88,60.21,59.8
10/14/2019,59.71,154152,59.6,59.76,59.51
10/11/2019,59.72,261832,59.63,59.95,59.5568
10/10/2019,59.1,178738,58.84,59.1,58.5701
10/09/2019,59.01,211454,58.98,59.11,58.8492
10/08/2019,58.55,187583,58.61,58.78,58.5
10/07/2019,58.9,351202,58.93,59.0586,58.81
10/04/2019,58.98,202386,58.7,59.03,58.62
10/03/2019,58.6,208280,58.22,58.6,58.18
10/02/2019,58.12,270515,58.2,58.2214,57.92
10/01/2019,58.21,738202,58.38,58.38,58.14
09/30/2019,58.59,229712,58.46,58.71,58.4492
09/27/2019,58.34,273380,58.61,58.64,58.1537
09/26/2019,58.69,506655,58.73,58.73,58.5349
09/25/2019,58.37,510603,58.17,58.46,58.13
09/24/2019,58.19,282530,58.37,58.383,58.08
09/23/2019,58.69,205245,58.46,58.765,58.46
09/20/2019,58.86,282046,58.85,58.99,58.73
09/19/2019,58.83,229078,58.89,59.05,58.81
09/18/2019,58.72,191527,58.74,58.77,58.333999999999996
09/17/2019,58.64,337953,58.37,58.68,58.3314
09/16/2019,58.42,878055,58.5,58.53,58.28
09/13/2019,58.79,900620,58.92,59.0386,58.765
09/12/2019,58.45,202351,58.42,58.61,58.33
09/11/2019,58.38,228568,58.25,58.42,58.13
09/10/2019,58.35,332290,58.28,58.35,58.12
09/09/2019,58.48,216876,58.63,58.63,58.4547
09/06/2019,58.52,304196,58.55,58.7,58.52
09/05/2019,58.67,5039620,58.63,60.9995,58.52
09/04/2019,58.54,202237,58.34,58.54,58.29
09/03/2019,57.4,300401,57.28,57.49,57.2138
08/30/2019,57.9,330709,57.88,57.99,57.63
08/29/2019,57.85,303658,57.79,57.942,57.66
08/28/2019,57.75,146484,57.71,57.9438,57.68
08/27/2019,57.67,237476,57.79,57.87,57.64
08/26/2019,57.57,385748,57.68,57.76,57.51
08/23/2019,57.36,571700,57.72,57.94,57.3
08/22/2019,57.75,170896,57.76,57.8021,57.494
08/21/2019,58.0,203621,58.08,58.1,57.96
08/20/2019,57.66,228155,57.72,57.79,57.5794
08/19/2019,57.71,201501,57.78,57.78,57.6
08/16/2019,57.18,248702,56.99,57.24,56.946000000000005
08/15/2019,56.34,290832,56.34,56.56,56.2275
08/14/2019,55.74,467409,56.03,56.1,55.73
08/13/2019,56.67,558397,56.41,56.9329,56.4001
08/12/2019,56.62,364074,56.65,56.8199,56.46
08/09/2019,57.05,229126,57.31,57.46,56.961000000000006
08/08/2019,57.61,334473,57.2,57.61,57.13
08/07/2019,57.07,205563,56.59,57.07,56.4233
08/06/2019,56.66,388849,56.6,56.765,56.35
08/05/2019,56.24,471801,56.93,56.93,56.0766
08/02/2019,57.7,271356,57.9,58.015,57.64
08/01/2019,57.49,302182,57.75,58.205,57.35
07/31/2019,57.78,351534,58.51,58.51,57.5
07/30/2019,58.6,179532,58.64,58.64,58.475
07/29/2019,58.82,210788,58.92,58.92,58.72
07/26/2019,58.97,204081,59.14,59.14,58.93
07/25/2019,59.04,213064,59.36,59.36,59.01
07/24/2019,59.44,380327,59.38,59.5,59.37
07/23/2019,59.4,154790,59.39,59.4599,59.3
07/22/2019,59.5,236949,59.52,59.56,59.4
07/19/2019,59.67,408981,59.99,60.005,59.67
07/18/2019,60.0,3207640,59.64,60.07,59.55
07/17/2019,59.57,3245009,59.95,60.0,59.42
07/16/2019,59.81,166877,60.0,60.07,59.76
07/15/2019,60.09,199995,60.09,60.09,59.995
07/12/2019,60.09,219685,59.94,60.1,59.91
07/11/2019,59.86,205883,60.06,60.1,59.77
07/10/2019,59.82,201507,59.86,59.95,59.76
07/09/2019,59.56,260996,59.46,59.67,59.39
07/08/2019,59.8,160869,59.77,59.8159,59.71
07/05/2019,60.15,370944,60.08,60.15,59.88
07/03/2019,60.09,131201,60.0,60.16,59.9635
07/02/2019,59.5,317582,59.4,59.5,59.24
07/01/2019,59.26,552309,59.6,59.625,59.15
06/28/2019,59.0,212723,58.89,59.0,58.82
06/27/2019,58.77,132697,58.82,58.85,58.72
06/26/2019,58.96,190084,59.03,59.05,58.86
06/25/2019,59.0,172554,59.38,59.38,59.0
06/24/2019,59.25,171439,59.27,59.36,59.19
06/21/2019,59.19,422597,59.01,59.26,58.91
06/20/2019,59.29,286875,59.41,59.4569,59.175
06/19/2019,58.87,251955,58.63,58.92,58.4832
06/18/2019,58.67,345114,58.46,58.8099,58.37
06/17/2019,57.99,453916,58.12,58.16,57.98
06/14/2019,58.44,140258,58.47,58.54,58.35
06/13/2019,58.76,115641,58.7,58.81,58.5873
06/12/2019,58.36,122386,58.51,58.5421,58.3
06/11/2019,59.07,261927,59.0,59.17,58.91
06/10/2019,58.9,221734,58.77,58.95,58.74
06/07/2019,58.5,232591,58.48,58.7348,58.475
06/06/2019,58.2,266434,58.07,58.263999999999996,58.0109
06/05/2019,57.91,205140,58.13,58.22,57.91
06/04/2019,58.12,240476,57.87,58.12,57.7232
06/03/2019,57.72,863211,57.71,57.88,57.55
05/31/2019,57.46,546287,57.22,57.555,57.153999999999996
05/30/2019,57.56,374713,57.52,57.6,57.42
05/29/2019,57.69,392780,57.67,57.7551,57.54
05/28/2019,57.7,485157,58.16,58.22,57.7
05/24/2019,58.15,176933,58.04,58.15,58.0
05/23/2019,57.69,327469,57.63,57.71,57.45
05/22/2019,57.88,431449,57.96,58.0411,57.84
05/21/2019,58.09,237582,58.02,58.14,57.91
05/20/2019,57.82,359058,57.84,57.91,57.69
05/17/2019,57.67,220901,57.82,57.97,57.67
05/16/2019,58.32,241767,58.31,58.5,58.22
05/15/2019,57.97,209001,57.64,58.0,57.5979
05/14/2019,57.71,511330,57.58,57.79,57.56
05/13/2019,57.21,469287,57.32,57.34,57.04
05/10/2019,57.97,340844,57.77,58.12,57.48
05/09/2019,57.67,508295,57.32,57.74,57.16
05/08/2019,57.8,469739,57.87,57.95,57.6775
05/07/2019,57.83,294800,58.09,58.25,57.71
05/06/2019,58.25,255459,57.84,58.29,57.75
05/03/2019,58.74,251408,58.56,58.835,58.5479
05/02/2019,58.32,222644,58.37,58.5,58.1912
05/01/2019,58.13,253570,58.44,58.75,58.13
04/30/2019,58.5,257540,58.46,58.53,58.27
04/29/2019,58.54,229625,58.55,58.56,58.44
04/26/2019,58.67,324766,58.51,58.67,58.43
04/25/2019,58.49,224500,58.37,58.49,58.29
04/24/2019,58.42,1812499,58.48,58.58,58.32
04/23/2019,58.5,265392,58.37,58.5,58.24
04/22/2019,58.5,232726,58.51,58.55,58.409
04/18/2019,58.57,232527,58.62,58.67,58.5
04/17/2019,58.69,571412,58.87,58.87,58.53
04/16/2019,59.02,177754,59.15,59.16,59.02
04/15/2019,59.04,305358,59.19,59.19,59.01
04/12/2019,59.41,292476,59.47,59.4858,59.38
04/11/2019,59.18,180341,59.31,59.33,59.08
04/10/2019,59.68,160192,59.51,59.68,59.4116
04/09/2019,59.23,171835,59.4,59.41,59.1801
04/08/2019,59.52,215574,59.53,59.58,59.43
04/05/2019,59.57,229615,59.5,59.58,59.4274
04/04/2019,59.74,403674,59.72,59.8,59.59
04/03/2019,59.91,405673,59.91,60.08,59.84
04/02/2019,59.81,218295,59.76,59.85,59.6
04/01/2019,60.01,437651,59.86,60.08,59.8
03/29/2019,59.57,339509,59.63,59.6575,59.3934
03/28/2019,59.38,227847,59.23,59.38,59.09
03/27/2019,59.24,337025,59.29,59.341,58.9716
03/26/2019,59.24,749543,59.15,59.28,59.0278
03/25/2019,58.82,386106,58.61,58.8525,58.559
03/22/2019,58.5,1043279,58.89,58.89,58.5
03/21/2019,59.26,441297,58.85,59.26,58.75
03/20/2019,59.18,501346,58.84,59.43,58.67
03/19/2019,58.98,423211,59.0,59.07,58.8348
03/18/2019,58.74,344976,58.56,58.74,58.56
03/15/2019,58.3,181100,58.06,58.3,58.04
03/14/2019,57.75,206105,57.74,57.76,57.65
03/13/2019,57.82,221000,57.74,57.9,57.7219
03/12/2019,57.64,229980,57.5,57.65,57.5
03/11/2019,57.38,208817,57.03,57.38,57.03
03/08/2019,56.85,211204,56.64,56.85,56.64
03/07/2019,56.76,302282,57.08,57.155,56.7134
03/06/2019,57.02,244598,57.27,57.32,57.02
03/05/2019,57.27,184175,57.18,57.35,57.11
03/04/2019,57.06,221911,57.17,57.23,56.79
03/01/2019,57.04,280300,57.11,57.14,56.91
02/28/2019,56.94,523210,57.01,57.0499,56.87
02/27/2019,57.28,343599,57.28,57.35,57.1101
02/26/2019,57.51,282052,57.4,57.64,57.35
02/25/2019,57.45,319793,57.48,57.56,57.29
02/22/2019,57.33,209316,57.37,57.49,57.25
02/21/2019,57.1,312258,56.97,57.12,56.931999999999995
02/20/2019,57.13,215650,57.23,57.285,57.04
02/19/2019,57.12,548052,56.72,57.1784,56.7101
02/15/2019,56.8,235933,56.49,56.8,56.49
02/14/2019,56.4,305182,56.31,56.53,56.15
02/13/2019,56.33,605954,56.54,56.5698,56.27
02/12/2019,56.56,517929,56.62,56.706,56.46
02/11/2019,56.66,388244,56.83,56.83,56.56
02/08/2019,56.87,137944,56.77,56.87,56.5603
02/07/2019,56.78,200785,56.92,56.9796,56.5717
02/06/2019,57.16,386410,57.49,57.49,57.0592
02/05/2019,57.57,267976,57.34,57.57,57.29
02/04/2019,57.28,219649,57.11,57.31,56.98
02/01/2019,57.14,387858,57.16,57.23,57.0101
01/31/2019,57.37,2045477,57.31,57.4999,57.2201
01/30/2019,57.43,381465,56.79,57.58,56.7225
01/29/2019,56.62,288208,56.62,56.76,56.51
01/28/2019,56.15,548559,55.93,56.15,55.8046
01/25/2019,56.0,237030,55.83,56.1,55.7868
01/24/2019,55.33,277498,55.24,55.42,55.1806
01/23/2019,55.08,197514,55.1,55.15,54.8952
01/22/2019,54.7,554659,54.96,54.977,54.51
01/18/2019,55.28,629038,55.29,55.36,55.15
01/17/2019,54.89,232594,54.56,55.06,54.52
01/16/2019,54.95,246088,54.86,55.09,54.86
01/15/2019,54.59,264913,54.66,54.785,54.43
01/14/2019,54.57,218988,54.36,54.66,54.32
01/11/2019,54.66,421033,54.59,54.78,54.53
01/10/2019,54.66,289414,54.32,54.69,54.29
01/09/2019,54.35,465618,54.07,54.44,54.05
01/08/2019,53.99,365158,53.92,54.0828,53.75
01/07/2019,53.57,405306,53.42,53.74,53.36
01/04/2019,53.26,259456,52.66,53.37,52.64
01/03/2019,52.12,212737,52.07,52.3,51.96
01/02/2019,52.04,262012,51.71,52.07,51.62
12/31/2018,52.41,953570,52.61,52.61,52.17
12/28/2018,52.36,1018596,52.4,52.47,52.08
12/27/2018,52.05,1483917,51.3,52.09,51.16
12/26/2018,52.31,943766,51.57,52.34,51.37
12/24/2018,51.24,794497,51.86,51.92,51.23
12/21/2018,53.06,995252,53.42,53.7799,52.93
12/20/2018,54.13,891640,54.25,54.3793,52.9
12/19/2018,54.1,708763,54.6,54.98,53.84
12/18/2018,54.28,940734,54.46,54.64,54.17
12/17/2018,54.16,544598,54.71,54.77,54.06
12/14/2018,54.8,350147,54.75,55.0,54.6658
12/13/2018,55.07,468010,55.06,55.169,54.92
12/12/2018,54.98,853688,55.12,55.32,54.96
12/11/2018,54.42,726549,54.52,54.708,54.07
12/10/2018,54.23,871275,54.22,54.38,53.71
12/07/2018,54.59,367088,55.17,55.33,54.4868
12/06/2018,54.95,597869,54.22,55.08,54.05
12/04/2018,54.36,366935,55.24,55.3436,54.275
12/03/2018,55.35,506731,55.37,55.49,55.12
11/30/2018,55.06,351490,54.95,55.06,54.7601
11/29/2018,55.18,199569,55.17,55.41,55.06
11/28/2018,55.68,538339,54.89,55.74,54.7
11/27/2018,54.7,209875,54.62,54.76,54.49
11/26/2018,54.8,206250,54.74,54.9075,54.64
11/23/2018,54.35,96949,54.08,54.4,54.05
11/21/2018,54.38,231029,54.36,54.6995,54.34
11/20/2018,53.7,361435,54.0,54.0,53.5722
11/19/2018,54.46,256688,54.72,54.76,54.3
11/16/2018,54.67,270566,54.26,54.75,54.1
11/15/2018,54.33,632556,54.14,54.52,53.89
11/14/2018,54.29,334209,54.42,54.52,53.98
11/13/2018,54.02,296561,53.96,54.338,53.79
11/12/2018,53.54,526487,54.07,54.07,53.5
11/09/2018,54.11,238700,54.24,54.2553,53.88
11/08/2018,54.62,443150,54.94,54.9735,54.45
11/07/2018,55.2,416060,54.86,55.2,54.77
11/06/2018,54.19,206515,53.97,54.19,53.95
11/05/2018,53.88,436177,53.83,53.96,53.67
11/02/2018,53.82,431693,54.28,54.29,53.5225
11/01/2018,54.15,287801,53.65,54.1602,53.57
10/31/2018,52.93,913956,52.88,53.07,52.76
10/30/2018,52.99,312324,52.6,52.99,52.55
10/29/2018,52.72,589507,53.28,53.37,52.3283
10/26/2018,52.88,4962079,52.73,53.21,52.38
10/25/2018,52.96,410149,52.85,53.2,52.75
10/24/2018,52.34,456677,53.14,53.29,52.3
10/23/2018,53.28,389750,52.85,53.5,52.67
10/22/2018,53.63,2402583,54.05,54.15,53.54
10/19/2018,53.8,213361,53.95,54.13,53.71
10/18/2018,53.46,610068,53.85,53.98,53.3104
10/17/2018,53.86,218203,53.9,54.08,53.7
10/16/2018,53.84,643741,53.47,53.9,53.365
10/15/2018,52.8,412141,52.75,53.04,52.6673
10/12/2018,53.02,403234,53.06,53.11,52.59
10/11/2018,52.73,1904261,53.15,53.35,52.415
10/10/2018,53.2,429355,54.17,54.27,53.15
10/09/2018,54.37,320262,54.0,54.42,53.9795
10/08/2018,53.98,363653,53.69,54.06,53.5812
10/05/2018,54.08,499946,54.16,54.25,53.785
10/04/2018,54.12,449659,54.52,54.58,53.8906
10/03/2018,55.14,257990,55.43,55.5201,55.05
10/02/2018,55.28,771929,55.3,55.51,55.27
10/01/2018,56.0,969165,56.19,56.25,55.93
09/28/2018,56.17,417675,56.24,56.3,56.05
09/27/2018,56.72,444592,56.71,56.95,56.71
09/26/2018,56.84,516561,56.84,57.17,56.8104
09/25/2018,57.01,411382,57.23,57.25,56.99
09/24/2018,57.04,349049,57.25,57.37,57.01
09/21/2018,57.56,218022,57.55,57.67,57.52
09/20/2018,57.66,211316,57.49,57.7,57.38
09/19/2018,57.31,183934,57.27,57.4304,57.2
09/18/2018,57.2,411000,57.02,57.3399,56.9401
09/17/2018,56.7,187972,56.72,56.92,56.64
09/14/2018,56.63,363709,56.97,56.97,56.49
09/13/2018,56.82,256210,56.82,56.99,56.59
09/12/2018,56.36,231685,55.99,56.81,55.968
09/11/2018,55.97,387883,55.67,55.99,55.62
09/10/2018,55.95,385851,56.13,56.13,55.9
09/07/2018,55.98,782299,56.05,56.19,55.815
09/06/2018,56.4,240617,56.45,56.5832,56.1912
09/05/2018,56.42,394777,56.5,56.55,56.31
09/04/2018,56.91,423903,57.03,57.11,56.81
08/31/2018,57.8,522059,57.7,57.9515,57.48
08/30/2018,57.7,265602,58.37,58.372,57.62
08/29/2018,58.58,309721,58.17,58.6,58.17
08/28/2018,58.16,187468,58.37,58.37,58.16
08/27/2018,58.31,234006,58.07,58.37,58.06
08/24/2018,57.7,369626,57.46,57.76,57.36
08/23/2018,57.25,1033082,57.39,57.48,57.18
08/22/2018,57.73,203842,57.66,57.78,57.589
08/21/2018,57.53,304487,57.43,57.6673,57.4
08/20/2018,57.2,286312,57.04,57.22,57.0206
08/17/2018,56.88,294710,56.42,57.0,56.4
08/16/2018,56.51,267600,56.47,56.69,56.46
08/15/2018,56.08,721204,55.98,56.1664,55.74
08/14/2018,56.79,462022,56.76,56.89,56.69
08/13/2018,56.92,334979,57.12,57.18,56.8
08/10/2018,57.36,272263,57.44,57.45,57.21
08/09/2018,58.0,258195,58.2,58.26,58.0
08/08/2018,58.13,565528,58.28,58.31,58.05
08/07/2018,58.33,285965,58.46,58.5,58.24
08/06/2018,57.67,802765,57.62,57.75,57.53
08/03/2018,58.09,314647,57.79,58.09,57.72
08/02/2018,57.85,211744,57.67,57.93,57.5693
08/01/2018,58.26,317132,58.35,58.6,58.09
07/31/2018,59.0,371954,58.87,59.1,58.76
07/30/2018,58.73,170623,58.77,58.84,58.7072
07/27/2018,58.75,174680,58.93,59.04,58.71
07/26/2018,58.64,200570,58.85,58.87,58.64
07/25/2018,59.14,225214,58.74,59.23,58.64
07/24/2018,58.54,284690,58.55,58.7,58.41
07/23/2018,57.86,210017,58.0,58.05,57.83
07/20/2018,58.05,203171,57.78,58.08,57.7
07/19/2018,57.5,305013,57.47,57.73,57.32
07/18/2018,58.05,920578,57.88,58.1299,57.83
07/17/2018,58.08,342603,57.88,58.15,57.8
07/16/2018,58.11,705516,58.01,58.22,58.01
07/13/2018,58.31,234767,58.13,58.31,58.06
07/12/2018,58.18,156641,58.11,58.25,58.0299
07/11/2018,57.8,205526,58.08,58.2,57.7
07/10/2018,58.65,297636,58.57,58.65,58.4
07/09/2018,58.78,299528,58.75,58.81,58.62
07/06/2018,58.4,246315,58.19,58.4951,58.08
07/05/2018,58.06,499598,58.05,58.14,57.9
07/03/2018,57.76,389853,57.89,58.01,57.76
07/02/2018,57.57,527189,57.42,57.61,57.305
06/29/2018,58.08,345574,57.99,58.1299,57.96
06/28/2018,57.47,371694,57.34,57.56,57.25
06/27/2018,58.13,418329,58.63,58.75,58.08
06/26/2018,59.08,402449,59.25,59.31,59.06
06/25/2018,59.21,512230,59.3,59.33,58.99
06/22/2018,59.81,260019,59.92,59.99,59.72
06/21/2018,59.36,234555,59.55,59.575,59.34
06/20/2018,59.67,625270,59.62,59.82,59.4901
06/19/2018,59.47,1352376,59.56,59.56,59.28
06/18/2018,60.21,426329,60.31,60.31,60.0205
06/15/2018,60.64,4523720,60.4,60.66,60.36
06/14/2018,60.54,230950,60.74,60.81,60.52
06/13/2018,60.75,657787,61.2,61.26,60.55
06/12/2018,61.01,215973,61.21,61.21,60.92100000000001
06/11/2018,61.27,263831,61.42,61.42,61.24
06/08/2018,61.44,149901,61.26,61.44,61.115
06/07/2018,61.27,224243,61.61,61.61,61.12
06/06/2018,61.73,283007,61.57,61.74,61.44
06/05/2018,61.28,228662,61.34,61.3799,61.18
06/04/2018,61.22,248173,61.09,61.35,61.08
06/01/2018,60.58,419733,60.57,60.58,60.44
05/31/2018,60.39,308353,60.52,60.57,60.25
05/30/2018,60.63,501440,60.22,60.63,60.17
05/29/2018,60.09,1083970,60.31,60.3444,59.86
05/25/2018,60.69,202144,60.61,60.7603,60.5401
05/24/2018,60.73,285660,60.83,60.9512,60.47
05/23/2018,60.79,434766,60.51,60.8,60.41
05/22/2018,61.0,282462,61.1,61.25,60.92
05/21/2018,61.04,217487,60.97,61.1,60.8801
05/18/2018,60.81,399770,60.71,60.81,60.611000000000004
05/17/2018,60.76,199165,60.94,60.98,60.69
05/16/2018,61.13,185291,61.09,61.22,61.01
05/15/2018,61.07,296698,61.19,61.21,60.9466
05/14/2018,61.89,239680,62.1,62.19,61.84
05/11/2018,61.64,450757,61.65,61.85,61.55
05/10/2018,61.39,400689,61.15,61.5314,61.15
05/09/2018,60.98,564301,60.84,60.99,60.71
05/08/2018,60.91,204191,60.72,60.94,60.69
05/07/2018,60.78,174140,60.83,60.9499,60.73
05/04/2018,60.95,292465,60.55,61.07,60.455
05/03/2018,60.99,309541,60.86,61.05,60.39
05/02/2018,60.93,411892,61.25,61.36,60.891000000000005
05/01/2018,61.24,229034,61.18,61.301,60.7903
04/30/2018,61.24,413791,61.58,61.69,61.225
04/27/2018,61.28,193233,61.12,61.34,60.96
04/26/2018,60.98,334696,60.79,61.09,60.75
04/25/2018,60.45,316497,60.52,60.6139,60.33
04/24/2018,60.66,689072,60.92,61.0,60.49
04/23/2018,60.47,215211,60.58,60.6788,60.38
04/20/2018,60.93,443800,61.0,61.0,60.76
04/19/2018,61.16,359165,61.52,61.56,61.02
04/18/2018,61.6,171682,61.5,61.6899,61.45
04/17/2018,61.45,200507,61.2,61.53,61.1618
04/16/2018,61.33,286825,61.3,61.38,61.16
04/13/2018,61.56,292271,61.64,61.71,61.42
04/12/2018,61.6,312987,61.53,61.6999,61.46
04/11/2018,61.64,447914,61.52,61.8699,61.4353
04/10/2018,61.64,881706,61.57,61.73,61.41
04/09/2018,61.02,466109,61.09,61.4,60.96
04/06/2018,60.56,401892,60.89,61.07,60.385
04/05/2018,60.93,314128,61.03,61.08,60.77
04/04/2018,61.02,319095,60.11,61.04,60.01
04/03/2018,60.55,317149,60.45,60.6,60.1601
04/02/2018,60.22,289697,60.72,60.893,59.8566
03/29/2018,60.92,273827,60.64,61.12,60.42
03/28/2018,60.18,214882,60.06,60.49,59.94
03/27/2018,59.87,494689,60.47,60.6299,59.73
03/26/2018,60.31,612580,60.04,60.41,59.6158
03/23/2018,59.43,223534,60.15,60.26,59.43
03/22/2018,60.15,868593,60.58,60.73,60.12
03/21/2018,61.05,218869,60.87,61.25,60.78
03/20/2018,60.88,406105,60.9,61.03,60.78
03/19/2018,60.78,300911,60.98,60.99,60.5201
03/16/2018,61.09,168011,61.17,61.22,60.968999999999994
03/15/2018,61.12,416452,61.13,61.3698,60.9698
03/14/2018,60.92,342167,61.0,61.17,60.68
03/13/2018,60.56,687711,61.01,61.18,60.41
03/12/2018,60.83,1118617,60.63,60.92,60.5101
03/09/2018,60.75,441180,60.48,60.78,60.3545
03/08/2018,60.39,231823,60.33,60.425,60.11
03/07/2018,60.08,284732,59.87,60.1,59.65
03/06/2018,59.88,433155,59.95,59.95,59.63
03/05/2018,59.74,1330752,59.12,59.788999999999994,59.03
03/02/2018,59.54,540647,59.02,59.62,58.86
03/01/2018,59.16,511407,59.54,59.805,58.82
02/28/2018,59.32,756529,59.93,59.99,59.29
02/27/2018,59.76,662402,60.64,60.67,59.75
02/26/2018,61.34,291141,60.87,61.3572,60.8
02/23/2018,60.76,1436361,60.67,60.8,60.5
02/22/2018,59.98,1156946,59.99,60.37,59.89
02/21/2018,59.95,431391,60.56,60.9093,59.92
02/20/2018,60.24,240876,60.32,60.59,60.0916
02/16/2018,60.69,267891,60.5,60.9473,60.4795
02/15/2018,60.43,411780,60.17,60.43,59.885
02/14/2018,59.87,451015,58.89,59.9099,58.89
02/13/2018,59.18,319669,58.88,59.24,58.7819
02/12/2018,58.95,700481,58.66,59.12,58.49
02/09/2018,58.43,515952,58.45,58.64,57.16
02/08/2018,58.14,415155,59.64,59.64,58.12
02/07/2018,59.55,529296,59.86,60.4,59.55
02/06/2018,60.69,702907,59.44,60.93,59.15
02/05/2018,59.85,687766,61.45,61.69,59.8
02/02/2018,62.23,485569,62.87,62.87,62.15
02/01/2018,63.37,733473,63.45,63.62,63.291000000000004
01/31/2018,63.82,501949,63.93,64.0499,63.6201
01/30/2018,63.68,409087,63.92,63.99,63.605
01/29/2018,64.02,746717,64.21,64.24,64.0
01/26/2018,65.14,668524,64.93,65.2,64.8369
01/25/2018,64.39,526985,64.66,64.73,64.16
01/24/2018,64.49,667936,64.6,64.71,64.28
01/23/2018,64.24,581328,63.94,64.24,63.9202
01/22/2018,63.87,384159,63.5,63.87,63.47
01/19/2018,63.43,466828,63.19,63.44,63.19
01/18/2018,62.85,549665,62.77,62.9,62.68
01/17/2018,63.15,429118,62.98,63.39,62.9132
01/16/2018,62.79,429538,62.96,63.03,62.6897
01/12/2018,62.85,533097,62.51,62.8599,62.39
01/11/2018,62.51,730148,62.33,62.54,62.2729
01/10/2018,62.38,701572,62.56,62.585,62.25
01/09/2018,62.66,671612,62.7,62.758,62.57
01/08/2018,62.69,317643,62.52,62.69,62.49
01/05/2018,62.35,611351,62.14,62.4,62.01
01/04/2018,61.69,387570,61.66,61.7399,61.6
01/03/2018,61.63,415103,61.5,61.69,61.475
01/02/2018,61.31,392121,60.94,61.31,60.9
12/29/2017,60.5,518896,60.75,60.8,60.48
12/28/2017,60.54,370449,60.56,60.57,60.43
12/27/2017,60.15,355148,59.96,60.1799,59.93
12/26/2017,59.73,422326,59.75,59.76,59.67
12/22/2017,59.64,359304,59.35,59.64,59.3009
12/21/2017,59.26,349402,59.19,59.369,59.11
12/20/2017,59.08,345209,59.18,59.2,59.04
12/19/2017,59.27,471629,59.86,59.86,59.2
12/18/2017,61.46,586568,61.55,61.73,61.42
12/15/2017,61.07,241383,61.03,61.18,60.925
12/14/2017,61.09,205265,61.27,61.28,61.07
12/13/2017,61.28,365102,61.0,61.36,61.0
12/12/2017,60.71,419387,60.6,60.715,60.52
12/11/2017,60.58,577022,60.55,60.66,60.46
12/08/2017,60.63,431812,60.59,60.68,60.42
12/07/2017,60.21,562520,60.06,60.34,60.01
12/06/2017,60.18,345004,60.25,60.28,60.07
12/05/2017,60.45,244996,60.46,60.66,60.37
12/04/2017,60.16,219171,60.52,60.54,60.16
12/01/2017,60.51,209260,60.43,60.54,60.23
11/30/2017,60.49,364428,60.63,60.7482,60.48
11/29/2017,60.3,220126,60.58,60.58,60.201
11/28/2017,60.72,575892,60.6,60.72,60.485
11/27/2017,60.46,228490,60.76,60.76,60.46
11/24/2017,60.83,106834,60.76,60.8685,60.71
11/22/2017,60.59,277752,60.63,60.65,60.3435
11/21/2017,60.44,349537,60.2,60.5,60.2
11/20/2017,59.91,584651,59.96,60.04,59.79
11/17/2017,59.78,1339818,59.87,59.9501,59.78
11/16/2017,60.05,312413,59.9,60.0988,59.825
11/15/2017,59.52,315754,59.46,59.59,59.3
11/14/2017,59.77,1118126,59.73,59.78,59.6203
11/13/2017,59.78,308453,59.63,59.83,59.55
11/10/2017,60.0,375634,60.06,60.1,59.91
11/09/2017,60.08,429755,59.99,60.13,59.73
11/08/2017,60.14,201916,60.13,60.21,60.0
11/07/2017,59.86,236485,59.89,59.97,59.71
11/06/2017,59.82,245271,59.56,59.82,59.5
11/03/2017,59.89,220233,60.0,60.0,59.7
11/02/2017,60.02,228308,59.78,60.034,59.72
11/01/2017,59.6,309639,59.73,59.9,59.6
10/31/2017,59.66,326901,59.54,59.69,59.46
10/30/2017,59.27,629651,59.28,59.32,59.18
10/27/2017,59.44,276260,59.23,59.494,59.0971
10/26/2017,59.35,226120,59.58,59.62,59.3028
10/25/2017,59.32,258083,59.58,59.64,59.1304
10/24/2017,59.82,177026,59.82,59.8899,59.716
10/23/2017,59.6,231880,59.8,59.91,59.5703
10/20/2017,60.16,227267,60.27,60.27,60.1
10/19/2017,60.3,221567,60.23,60.3,60.11
10/18/2017,60.58,332942,60.52,60.6599,60.46
10/17/2017,60.29,427884,60.33,60.35,60.15
10/16/2017,60.47,620193,60.45,60.544,60.41
10/13/2017,60.51,653306,60.51,60.5973,60.39
10/12/2017,60.23,274679,60.19,60.33,60.1
10/11/2017,60.04,581592,59.93,60.07,59.8
10/10/2017,60.09,215738,59.91,60.0999,59.88
10/09/2017,59.46,150327,59.61,59.61,59.44
10/06/2017,59.62,182743,59.45,59.6671,59.3467
10/05/2017,59.82,221315,59.75,59.8997,59.661
10/04/2017,59.79,253372,59.78,59.82,59.63
10/03/2017,59.71,274068,59.54,59.71,59.41
10/02/2017,59.22,523953,59.55,59.55,59.21
09/29/2017,59.41,450554,59.19,59.45,59.1
09/28/2017,58.92,337517,58.7,58.94,58.63
09/27/2017,58.89,459464,58.98,59.0,58.82
09/26/2017,59.25,478914,59.31,59.39,59.1
09/25/2017,59.33,400811,59.44,59.44,59.15
09/22/2017,60.2,196179,60.23,60.3,60.13
09/21/2017,60.31,159124,60.39,60.44,60.27
09/20/2017,60.36,353605,60.64,60.72,60.09
09/19/2017,60.57,203901,60.61,60.61,60.44
09/18/2017,60.57,374880,60.71,60.755,60.455
09/15/2017,60.45,267030,60.35,60.45,60.2347
09/14/2017,59.99,273536,59.82,60.0,59.7609
09/13/2017,59.77,186216,60.0,60.0,59.65
09/12/2017,60.02,293422,60.1,60.1,59.98
09/11/2017,60.2,178906,60.21,60.26,60.14
09/08/2017,59.95,172830,60.05,60.0501,59.91
09/07/2017,59.92,347641,59.79,59.92,59.6694
09/06/2017,59.27,353475,59.08,59.31,59.0
09/05/2017,58.86,560745,59.03,59.1,58.69
09/01/2017,59.17,340354,59.37,59.37,59.11
08/31/2017,59.29,291799,59.07,59.33,58.9833
08/30/2017,58.71,418073,58.67,58.78,58.6
08/29/2017,58.67,254766,58.63,58.81,58.6025
08/28/2017,58.7,283679,58.79,58.799,58.63
08/25/2017,58.55,304632,58.43,58.66,58.3225
08/24/2017,58.45,226957,58.55,58.59,58.42
08/23/2017,58.57,252811,58.33,58.5991,58.33
08/22/2017,58.52,562987,58.51,58.58,58.32
08/21/2017,58.29,262428,58.11,58.33,58.11
08/18/2017,57.96,462345,57.98,58.085,57.88
08/17/2017,57.76,189919,58.17,58.24,57.76
08/16/2017,58.34,277170,58.12,58.3784,57.99
08/15/2017,57.91,449772,58.0,58.01,57.77
08/14/2017,58.24,277570,58.14,58.32,58.136
08/11/2017,57.87,171872,57.83,57.99,57.76
08/10/2017,57.92,490204,58.35,58.41,57.92
08/09/2017,58.75,528143,58.58,58.75,58.5
08/08/2017,58.49,276227,58.61,58.6799,58.4375
08/07/2017,58.65,213895,58.59,58.65,58.5114
08/04/2017,58.84,264699,58.87,58.9,58.64
08/03/2017,58.8,472975,58.73,58.8499,58.65
08/02/2017,58.73,304695,58.72,58.78,58.6
08/01/2017,58.72,409659,58.75,58.91,58.72
07/31/2017,58.55,233585,58.53,58.59,58.385
07/28/2017,58.55,192011,58.39,58.58,58.3
07/27/2017,58.27,424396,58.55,58.581,58.13
07/26/2017,58.13,525527,57.84,58.1999,57.7801
07/25/2017,57.79,630049,57.9,57.946000000000005,57.7499
07/24/2017,57.86,344668,57.84,57.89,57.69
07/21/2017,57.87,286355,57.81,57.87,57.66
07/20/2017,57.82,191915,57.78,57.875,57.705
07/19/2017,57.58,219460,57.41,57.6,57.41
07/18/2017,57.2,321927,57.14,57.22,57.1
07/17/2017,56.91,214580,57.03,57.03,56.87
07/14/2017,57.08,444768,56.86,57.09,56.78
07/13/2017,56.36,174835,56.24,56.39,56.2
07/12/2017,56.15,413623,55.95,56.19,55.86
07/11/2017,55.71,181588,55.6,55.74,55.44
07/10/2017,55.76,142932,55.7,55.79,55.63
07/07/2017,55.62,216641,55.56,55.66,55.4
07/06/2017,55.66,357697,55.84,55.84,55.6334
07/05/2017,55.99,427102,55.81,55.99,55.68
07/03/2017,56.1,189049,56.22,56.24,56.1
06/30/2017,56.25,442713,56.32,56.409,56.13
06/29/2017,56.21,618028,56.47,56.47,55.9818
06/28/2017,56.44,364615,56.41,56.49,56.29
06/27/2017,56.55,496501,56.77,56.77,56.51
06/26/2017,56.9,253697,57.09,57.22,56.9
06/23/2017,56.84,287470,56.69,56.9,56.67
06/22/2017,56.69,208571,56.71,56.7799,56.6
06/21/2017,56.8,449409,56.89,56.92,56.7075
06/20/2017,56.86,373777,57.24,57.24,56.86
06/19/2017,57.53,372628,57.6,57.61,57.51
06/16/2017,57.57,281071,57.52,57.58,57.3701
06/15/2017,57.43,264424,57.25,57.44,57.21
06/14/2017,57.67,388746,57.92,57.98,57.5306
06/13/2017,57.7,243779,57.55,57.72,57.55
06/12/2017,57.0,393244,57.07,57.14,56.86
06/09/2017,57.16,479469,57.18,57.23,56.95
06/08/2017,57.45,378293,57.55,57.55,57.34
06/07/2017,57.73,347586,57.77,57.8,57.57
06/06/2017,57.6,549141,57.65,57.66,57.5
06/05/2017,57.39,555312,57.47,57.47,57.33
06/02/2017,57.48,1289622,57.31,57.51,57.13
06/01/2017,56.94,705172,56.9,56.97,56.75
05/31/2017,56.435,603458,56.65,56.65,56.39
05/30/2017,56.37,326374,56.14,56.39,56.14
05/26/2017,56.14,484777,56.19,56.19,56.08
05/25/2017,56.17,204748,56.24,56.2692,56.12
05/24/2017,56.02,387047,55.73,56.02,55.63
05/23/2017,55.58,423732,55.78,55.79,55.56
05/22/2017,55.81,519862,55.76,55.8499,55.68
05/19/2017,55.58,510559,55.5,55.605,55.375
05/18/2017,55.07,228509,55.21,55.37,54.95
05/17/2017,55.39,755465,55.5,55.55,55.345
05/16/2017,55.55,292744,55.52,55.55,55.419
05/15/2017,55.51,318888,55.42,55.5499,55.4
05/12/2017,55.26,420873,55.0,55.28,55.0
05/11/2017,55.19,354360,55.06,55.19,55.01
05/10/2017,55.19,347240,55.34,55.34,55.02
05/09/2017,55.1,240568,55.09,55.16,55.005
05/08/2017,54.99,260020,55.11,55.14,54.9
05/05/2017,54.99,195108,54.58,55.0,54.57
05/04/2017,54.62,245537,54.69,54.69,54.51
05/03/2017,54.83,275774,54.94,55.01,54.77
05/02/2017,55.1,378019,54.89,55.1,54.8478
05/01/2017,54.63,340989,54.68,54.72,54.55
04/28/2017,54.46,379344,54.61,54.61,54.43
04/27/2017,54.76,234075,54.74,54.79,54.61
04/26/2017,54.81,1011644,54.79,54.94,54.71
04/25/2017,54.96,314791,54.91,55.03,54.88
04/24/2017,54.7,405585,54.69,54.82,54.58
04/21/2017,54.52,2718009,54.39,54.53,54.32
04/20/2017,54.56,231223,54.57,54.7,54.54
04/19/2017,54.37,327225,54.63,54.67,54.3
04/18/2017,54.75,230334,54.57,54.77,54.56
04/17/2017,54.9,354111,54.75,54.97,54.73
04/13/2017,54.36,261817,54.57,54.59,54.33
04/12/2017,54.42,552881,54.24,54.42,54.16
04/11/2017,54.1,355066,53.94,54.12,53.77
04/10/2017,53.73,380200,53.71,53.8,53.62
04/07/2017,53.88,237436,53.84,53.97,53.84
04/06/2017,53.75,256005,53.72,53.816,53.66
04/05/2017,53.57,387404,53.56,53.73,53.525
04/04/2017,53.51,197565,53.36,53.54,53.31
04/03/2017,53.38,392540,53.21,53.38,53.06
03/31/2017,53.26,241072,53.11,53.34,53.0744
03/30/2017,53.2,474361,53.24,53.31,53.16
03/29/2017,53.5,214544,53.35,53.52,53.32
03/28/2017,53.45,731410,53.35,53.5686,53.35
03/27/2017,53.43,479647,53.39,53.505,53.3161
03/24/2017,53.63,202052,53.5,53.72,53.46
03/23/2017,53.53,168865,53.32,53.604,53.32
03/22/2017,53.3,875002,53.09,53.35,53.09
03/21/2017,53.11,512827,53.49,53.59,53.02
03/20/2017,53.35,479080,53.28,53.46,53.25
03/17/2017,53.31,174923,53.31,53.43,53.23
03/16/2017,53.27,196247,53.24,53.32,53.2
03/15/2017,52.91,313061,52.13,52.94,52.13
03/14/2017,51.99,206221,52.05,52.08,51.94
03/13/2017,52.39,831369,52.25,52.42,52.2476
03/10/2017,52.04,248513,51.98,52.0461,51.86
03/09/2017,51.8,196455,51.85,51.8799,51.66
03/08/2017,51.83,330500,52.08,52.1399,51.83
03/07/2017,52.09,779591,52.07,52.2,52.0478
03/06/2017,52.2,560767,52.22,52.23,52.08
03/03/2017,52.25,294611,52.05,52.3,52.02
03/02/2017,52.1,321334,52.3,52.35,52.09
03/01/2017,52.8,379619,52.6,52.9199,52.57
02/28/2017,52.6,396901,52.63,52.73,52.55
02/27/2017,52.62,392496,52.74,52.74,52.55
02/24/2017,52.88,258541,52.8,52.9,52.72
02/23/2017,52.98,235586,52.99,53.07,52.87
02/22/2017,52.78,861251,52.7,52.79,52.5701
02/21/2017,52.55,1445984,52.42,52.5695,52.3524
02/17/2017,52.43,345238,52.3,52.46,52.28
02/16/2017,52.55,356842,52.49,52.57,52.38
02/15/2017,52.58,1757769,52.2,52.61,52.1246
02/14/2017,52.3,366477,52.22,52.3996,52.0404
02/13/2017,52.25,229521,52.3,52.35,52.1845
02/10/2017,52.42,320362,52.1,52.46,52.1
02/09/2017,52.36,222349,52.25,52.4,52.1932
02/08/2017,52.08,240449,51.98,52.11,51.96
02/07/2017,51.6,228057,51.48,51.67,51.464
02/06/2017,51.42,310387,51.46,51.46,51.3001
02/03/2017,51.62,331740,51.54,51.67,51.422
02/02/2017,51.35,264911,51.43,51.46,51.2258
02/01/2017,51.35,303528,51.34,51.4399,51.23
01/31/2017,51.23,570828,51.12,51.27,51.02
01/30/2017,50.84,356612,50.8,50.86,50.59
01/27/2017,50.94,362788,51.1,51.1,50.92
01/26/2017,51.03,235578,51.16,51.19,50.98
01/25/2017,51.21,499880,51.02,51.25,50.92
01/24/2017,51.13,444378,50.91,51.19,50.91
01/23/2017,51.0,477814,50.73,51.04,50.67
01/20/2017,50.59,311393,50.42,50.62,50.42
01/19/2017,50.49,260790,50.51,50.5815,50.2928
01/18/2017,50.84,409018,50.78,50.949,50.7
01/17/2017,50.84,253329,50.85,50.85,50.6506
01/13/2017,50.89,284764,50.7,50.94,50.7
01/12/2017,50.85,6139526,51.04,51.04,50.7675
01/11/2017,51.14,547448,50.87,51.21,50.6826
01/10/2017,51.08,353081,51.11,51.2096,51.05
01/09/2017,50.97,334101,50.94,51.04,50.9
01/06/2017,51.07,2760414,51.12,51.25,51.015
01/05/2017,51.12,1449652,50.67,51.16,50.67
01/04/2017,50.52,468586,50.16,50.5299,50.16
01/03/2017,49.86,512706,49.73,49.8615,49.62
12/30/2016,49.57,561830,49.61,49.78,49.44
12/29/2016,49.27,723319,49.05,49.36,49.05
12/28/2016,48.8,809538,48.98,48.98,48.7
12/27/2016,48.94,924878,48.89,49.0818,48.86
12/23/2016,48.92,537383,48.75,48.9499,48.75
12/22/2016,48.73,822376,48.7,48.82,48.61
12/21/2016,48.81,902767,48.87,49.01,48.78
12/20/2016,48.89,629305,48.81,48.989,48.81
12/19/2016,50.45,607137,50.38,50.59,50.38
12/16/2016,50.41,610546,50.39,50.61,50.3
12/15/2016,50.49,330463,50.5,50.5825,50.353
12/14/2016,51.0,322803,51.71,51.84,50.97
12/13/2016,52.07,656877,51.84,52.13,51.84
12/12/2016,51.59,298036,51.53,51.68,51.5
12/09/2016,52.06,878486,51.95,52.06,51.873000000000005
12/08/2016,52.03,369787,52.02,52.07,51.821000000000005
12/07/2016,52.0,471288,51.52,52.06,51.52
12/06/2016,51.4,468113,51.26,51.46,51.24
12/05/2016,51.175,352583,50.94,51.2,50.94
12/02/2016,51.0,410017,50.93,51.14,50.87
12/01/2016,50.81,405883,51.18,51.18,50.68
11/30/2016,51.37,641429,51.53,51.6,51.28
11/29/2016,51.27,220046,51.1,51.39,51.02
11/28/2016,51.01,219124,50.89,51.12,50.88
11/25/2016,50.7,92241,50.78,50.85,50.68
11/23/2016,50.68,260936,50.64,50.68,50.47
11/22/2016,50.79,311325,50.63,50.81,50.55
11/21/2016,50.52,372708,50.33,50.5898,50.33
11/18/2016,50.34,896915,50.49,50.6,50.28
11/17/2016,50.71,587414,50.55,50.88,50.55
11/16/2016,50.19,6809265,50.24,50.33,50.1
11/15/2016,50.83,653391,50.45,50.8678,50.45
11/14/2016,50.48,616200,50.77,50.77,50.231
11/11/2016,51.19,330261,51.35,51.3847,50.95
11/10/2016,51.61,318235,52.12,52.12,51.38399999999999
11/09/2016,52.79,617460,52.67,53.2,52.63
11/08/2016,53.36,206360,53.03,53.47,52.9768
11/07/2016,53.14,783044,53.01,53.1638,52.965
11/04/2016,52.84,363210,53.02,53.08,52.83
11/03/2016,53.33,380457,53.58,53.62,53.23
11/02/2016,53.24,368026,53.34,53.55,53.07
11/01/2016,53.31,554938,53.48,53.67,53.04
10/31/2016,53.45,273998,53.29,53.5165,53.286
10/28/2016,53.11,176454,53.17,53.28,52.97
10/27/2016,53.35,384703,53.71,53.71,53.35
10/26/2016,53.75,175789,53.9,53.9,53.67
10/25/2016,54.11,164638,54.09,54.18,53.966
10/24/2016,54.09,169860,54.21,54.21,53.97
10/21/2016,53.89,143611,53.69,53.9,53.576
10/20/2016,54.01,358348,53.89,54.096000000000004,53.84
10/19/2016,53.89,135366,53.83,53.94,53.74
10/18/2016,53.63,196274,53.66,53.71,53.5245
10/17/2016,52.89,483202,52.99,53.05,52.86
10/14/2016,53.11,157777,53.37,53.4483,53.11
10/13/2016,53.2,463648,52.87,53.32,52.77
10/12/2016,52.98,349837,52.9,53.04600000000001,52.83
10/11/2016,52.96,177140,53.44,53.44,52.8501
10/10/2016,54.09,168732,53.94,54.2386,53.94
10/07/2016,53.96,328124,54.19,54.19,53.6
10/06/2016,54.37,250436,54.31,54.3933,54.17
10/05/2016,54.91,238596,55.03,55.14,54.81
10/04/2016,55.16,164731,55.68,55.69,55.0486
10/03/2016,55.88,420923,55.73,56.15,55.66
09/30/2016,56.17,208545,55.98,56.29,55.906000000000006
09/29/2016,55.59,143031,56.12,56.12,55.41
09/28/2016,56.49,211173,56.3,56.51,55.97
09/27/2016,56.27,334950,55.95,56.34,55.92
09/26/2016,55.805,256170,56.0,56.0,55.78
09/23/2016,56.04,222187,56.22,56.26,56.02
09/22/2016,56.49,862804,56.53,56.62,56.35
09/21/2016,55.97,219545,55.61,56.02,55.29
09/20/2016,55.19,386314,55.41,55.46,55.14
09/19/2016,54.97,150744,55.19,55.32,54.9205
09/16/2016,54.65,192847,54.76,54.895,54.5108
09/15/2016,55.15,154316,54.82,55.236999999999995,54.69
09/14/2016,54.74,210459,54.81,55.06,54.71
09/13/2016,54.74,579047,55.22,55.34,54.54600000000001
09/12/2016,56.24,194268,55.53,56.3,55.31
09/09/2016,55.9,325656,56.65,56.75,55.9
09/08/2016,57.22,286373,57.51,57.52,57.19
09/07/2016,57.34,127522,57.5,57.5,57.2201
09/06/2016,57.4,216769,57.0,57.44,56.992
09/02/2016,56.63,200403,56.7,56.74,56.48
09/01/2016,56.3,271920,56.18,56.3,56.01
08/31/2016,55.93,138658,56.04,56.0657,55.78
08/30/2016,56.16,351689,56.45,56.47,56.051
08/29/2016,56.47,153016,56.39,56.4999,56.2
08/26/2016,56.32,195853,56.93,57.2399,56.12
08/25/2016,56.85,166350,56.9,56.9,56.78
08/24/2016,56.84,353692,57.05,57.05,56.786
08/23/2016,57.13,234463,57.42,57.4826,57.1
08/22/2016,56.88,105443,56.75,56.88,56.601000000000006
08/19/2016,56.99,1226629,56.94,57.01,56.68
08/18/2016,57.3,141091,57.13,57.3,57.0546
08/17/2016,56.96,168768,56.84,57.0297,56.57
08/16/2016,57.12,291972,57.31,57.31,57.0701
08/15/2016,57.48,212917,57.29,57.5782,57.25
08/12/2016,57.03,120152,57.27,57.27,57.0
08/11/2016,57.21,117977,57.09,57.239,57.0
08/10/2016,57.0,215602,57.09,57.2,56.9855
08/09/2016,56.83,196241,56.77,56.964,56.62
08/08/2016,56.57,199679,56.63,56.67,56.43
08/05/2016,56.42,177942,56.35,56.45,56.19
08/04/2016,56.13,105626,56.02,56.2,55.85
08/03/2016,55.67,191457,55.61,55.67,55.38
08/02/2016,56.035,627359,56.19,56.19,55.7607
08/01/2016,56.18,578576,56.35,56.3599,56.13
07/29/2016,56.24,268511,56.15,56.38,56.02
07/28/2016,56.1,297093,55.94,56.13,55.84
07/27/2016,55.68,182074,55.8,55.8,55.37
07/26/2016,55.78,150143,55.87,55.9,55.611000000000004
07/25/2016,55.39,293802,55.5,55.53,55.271
07/22/2016,55.4,198169,55.46,55.46,55.24
07/21/2016,55.26,109727,55.28,55.41,55.108999999999995
07/20/2016,55.36,134683,55.36,55.4153,55.201
07/19/2016,54.73,160633,54.75,54.77,54.61
07/18/2016,54.99,112175,54.93,55.0,54.8
07/15/2016,54.69,193275,54.91,54.91,54.628
07/14/2016,55.16,135500,55.2,55.28,55.0
07/13/2016,54.74,172009,54.9,54.96,54.67
07/12/2016,54.84,252717,54.95,55.063,54.785
07/11/2016,54.36,795509,54.27,54.5999,54.27
07/08/2016,53.9,141440,53.65,53.9,53.5129
07/07/2016,53.2,253384,53.18,53.5134,53.01
07/06/2016,53.42,166767,53.1,53.42,52.74
07/05/2016,53.41,159512,53.73,53.73,53.36
07/01/2016,54.16,268905,54.2,54.35,54.06
06/30/2016,54.06,241824,53.65,54.06,53.54
06/29/2016,53.51,351805,53.34,53.57,53.28
06/28/2016,52.55,771845,52.63,52.63,52.18
06/27/2016,51.16,1024592,51.47,51.57,50.7412
06/24/2016,51.81,471439,51.86,52.7079,51.76
06/23/2016,55.12,256572,54.94,55.1599,54.68
06/22/2016,54.19,963434,54.45,54.57,54.17
06/21/2016,54.29,213306,54.31,54.56,54.16
06/20/2016,53.95,339601,54.2,54.29,53.88
06/17/2016,52.89,222377,52.78,52.97,52.51
06/16/2016,52.8,180619,52.35,52.835,51.96
06/15/2016,52.97,115248,53.0,53.2199,52.89
06/14/2016,52.73,265330,52.92,52.92,52.43
06/13/2016,53.64,233276,53.62,54.0,53.5501
06/10/2016,54.12,162902,54.56,54.67,53.96
06/09/2016,55.25,185804,55.26,55.3262,55.08
06/08/2016,55.51,161112,55.67,55.67,55.4356
06/07/2016,55.25,148475,55.14,55.3995,55.115
06/06/2016,55.02,130779,54.81,55.099,54.8099
06/03/2016,54.63,239243,54.2,54.63,54.14
06/02/2016,53.82,1036190,53.67,53.82,53.47
06/01/2016,53.79,244129,53.67,53.8199,53.571000000000005
05/31/2016,53.695,224819,53.78,53.93,53.5501
05/27/2016,53.73,209705,53.81,53.85,53.6
05/26/2016,53.87,370641,53.94,53.94,53.72
05/25/2016,53.81,127363,53.73,53.8799,53.63
05/24/2016,53.65,152548,53.43,53.705,53.256
05/23/2016,53.09,132095,53.15,53.251999999999995,53.05
05/20/2016,53.25,655042,53.1,53.31,53.1
05/19/2016,52.73,185563,52.61,52.87,52.55
05/18/2016,53.25,147330,53.46,53.76,53.1201
05/17/2016,53.43,178738,53.65,53.75,53.31
05/16/2016,53.59,172854,53.34,53.65,53.34
05/13/2016,53.13,164019,53.37,53.4,52.998999999999995
05/12/2016,53.57,132085,53.96,53.96,53.4292
05/11/2016,53.83,224273,54.12,54.15,53.82
05/10/2016,54.52,137058,54.27,54.52,54.13
05/09/2016,53.79,174168,54.0,54.159,53.76
05/06/2016,53.84,336327,53.68,53.88,53.558
05/05/2016,53.88,130437,54.1,54.19,53.71
05/04/2016,53.9,200100,54.11,54.11,53.73
05/03/2016,54.29,435171,54.73,54.87,54.27
05/02/2016,55.09,260626,54.91,55.1599,54.8
04/29/2016,54.63,226860,54.78,54.81,54.3601
04/28/2016,54.62,690130,54.75,55.07,54.5
04/27/2016,55.14,201072,54.98,55.22,54.8001
04/26/2016,55.1,274118,55.2,55.2699,55.0201
04/25/2016,54.87,142606,54.72,54.8999,54.6401
04/22/2016,54.64,211888,54.77,54.89,54.43
04/21/2016,54.58,259466,55.0,55.0,54.473
04/20/2016,55.12,151175,55.17,55.35,54.981
04/19/2016,55.08,127509,54.99,55.1699,54.8767
04/18/2016,54.7,177868,54.41,54.7742,54.346000000000004
04/15/2016,54.23,304639,54.43,54.47,54.2
04/14/2016,54.44,346431,54.44,54.5899,54.42
04/13/2016,54.65,144882,54.62,54.71,54.4627
04/12/2016,54.22,138359,54.09,54.37,53.763999999999996
04/11/2016,53.76,188207,53.93,54.19,53.76
04/08/2016,53.55,149157,53.75,53.77,53.42
04/07/2016,52.85,137013,53.15,53.27,52.7006
04/06/2016,53.39,114923,52.97,53.39,52.85
04/05/2016,52.77,3402523,52.83,53.0,52.6201
04/04/2016,53.13,433367,53.48,53.505,53.06
04/01/2016,53.24,382069,52.68,53.29,52.525
03/31/2016,53.51,470455,53.67,53.75,53.5
03/30/2016,53.7,243738,53.67,53.9,53.58
03/29/2016,53.44,283147,52.48,53.44,52.2801
03/28/2016,52.53,196162,52.61,52.61,52.34
03/24/2016,52.29,255819,52.22,52.33,52.025
03/23/2016,52.53,100622,52.96,53.1099,52.51
03/22/2016,53.18,314596,53.0,53.19,52.81
03/21/2016,53.26,237257,53.24,53.27,53.0
03/18/2016,53.29,523150,53.39,53.52,53.2
03/17/2016,53.25,263573,52.81,53.41,52.67
03/16/2016,52.52,222759,51.57,52.59,51.57
03/15/2016,51.9,117190,51.9,51.95,51.66
03/14/2016,52.38,133738,52.32,52.48,52.21
03/11/2016,52.25,248072,51.87,52.31,51.851000000000006
03/10/2016,50.99,167702,51.32,51.5,50.65
03/09/2016,51.09,266458,51.15,51.24,50.9201
03/08/2016,50.86,155246,51.16,51.16,50.83
03/07/2016,51.21,360275,51.0,51.326,50.89
03/04/2016,51.42,170528,51.13,51.6,51.13
03/03/2016,51.12,401105,50.83,51.1385,50.75
03/02/2016,50.79,153921,50.38,50.83,50.3
03/01/2016,50.36,382880,49.88,50.51,49.82
02/29/2016,49.12,423764,49.42,49.638999999999996,49.08
02/26/2016,49.24,256415,49.82,49.82,49.22
02/25/2016,49.76,424051,49.43,49.77,49.18
02/24/2016,49.43,720322,48.61,49.49,48.41
02/23/2016,48.93,134080,49.24,49.36,48.82
02/22/2016,49.71,119973,49.5,49.738,49.5
02/19/2016,49.18,167620,48.77,49.2,48.7275
02/18/2016,48.62,117491,48.82,48.839,48.48
02/17/2016,48.86,238571,48.5,48.98,48.36
02/16/2016,48.36,127197,48.16,48.4899,47.974
02/12/2016,47.21,241587,46.71,47.21,46.602
02/11/2016,46.63,188613,46.75,46.88,46.35
02/10/2016,47.05,276743,47.25,47.55,47.01
02/09/2016,46.98,219857,46.69,47.181999999999995,46.55
02/08/2016,47.47,243981,47.5,47.5799,47.0101
02/05/2016,48.07,149727,48.61,48.62,47.901
02/04/2016,48.79,145157,48.79,49.1656,48.63
02/03/2016,48.88,185074,48.62,48.88,47.92
02/02/2016,47.98,289637,48.08,48.29,47.77
02/01/2016,48.85,285349,48.55,49.0381,48.55
01/29/2016,48.66,245418,47.97,48.66,47.8401
01/28/2016,47.08,312147,47.41,47.41,46.9
01/27/2016,46.71,185582,47.15,47.31,46.56
01/26/2016,47.09,264769,46.6,47.13,46.6
01/25/2016,46.39,400412,46.71,46.842,46.31
01/22/2016,46.93,396295,46.59,46.98,46.5194
01/21/2016,45.77,877366,45.61,46.17,45.17
01/20/2016,45.81,605894,46.16,46.17,45.131
01/19/2016,46.91,462505,47.39,47.45,46.696000000000005
01/15/2016,46.82,255559,46.93,47.14,46.48
01/14/2016,48.34,235527,47.95,48.515,47.69
01/13/2016,47.76,430311,48.63,48.71,47.656000000000006
01/12/2016,48.3,282197,48.59,48.618,48.0
01/11/2016,48.26,198168,48.65,48.66,47.9078
01/08/2016,48.17,274500,49.01,49.0999,48.137
01/07/2016,48.92,207572,49.04,49.56,48.92
01/06/2016,50.01,176364,50.03,50.18,49.81
01/05/2016,50.64,453381,50.65,50.733999999999995,50.36
01/04/2016,50.56,334199,50.46,50.65,50.015
12/31/2015,51.1,316072,51.41,51.56,51.1
12/30/2015,51.66,417051,51.88,51.88,51.55
12/29/2015,51.91,449301,51.77,52.24,51.6522
12/28/2015,51.44,495262,51.7,51.7,51.36
12/24/2015,51.77,171413,51.53,51.91,51.506
12/23/2015,51.76,924734,51.64,51.891000000000005,51.5001
12/22/2015,51.39,413949,51.31,51.49,51.08
12/21/2015,51.06,250892,51.55,51.5699,50.83
12/18/2015,51.73,414709,51.99,52.0,51.653
12/17/2015,51.62,535144,51.97,52.15,51.62
12/16/2015,52.25,288180,51.67,52.45,51.527
12/15/2015,51.25,292211,51.21,51.42,51.12
12/14/2015,51.0,283543,50.98,51.11,50.52
12/11/2015,50.59,417673,50.85,50.91,50.5101
12/10/2015,51.67,264721,51.77,51.9262,51.59
12/09/2015,51.87,278827,52.01,52.36,51.66
12/08/2015,52.04,217970,51.98,52.13,51.82
12/07/2015,52.5,274080,52.51,52.7,52.3
12/04/2015,52.94,653316,52.32,52.98,52.27
12/03/2015,52.42,416036,52.84,52.84,52.233999999999995
12/02/2015,52.5,388507,52.9,52.99,52.46
12/01/2015,53.25,365599,52.87,53.25,52.86
11/30/2015,52.3,812380,52.22,52.38,52.12
11/27/2015,52.37,234346,52.36,52.43,52.239
11/25/2015,52.78,291749,52.74,52.835,52.57
11/24/2015,52.81,354249,52.38,52.86,52.21
11/23/2015,52.79,702521,53.05,53.083,52.7
11/20/2015,53.2,214988,53.21,53.41,53.15
11/19/2015,52.91,154175,52.73,52.99,52.73
11/18/2015,52.63,181044,52.22,52.65,52.22
11/17/2015,52.21,243333,52.31,52.41,52.09
11/16/2015,52.11,454838,51.5,52.13,51.5
11/13/2015,51.44,1116876,51.6,51.75,51.3422
11/12/2015,51.72,1131411,52.04,52.06,51.68
11/11/2015,51.98,203570,52.02,52.14,51.87
11/10/2015,51.65,268413,51.54,51.65,51.3
11/09/2015,51.62,208425,52.05,52.09,51.47
11/06/2015,52.81,225225,52.82,52.88,52.5401
11/05/2015,53.27,173396,53.32,53.32,53.0273
11/04/2015,53.14,235086,53.53,53.581,53.03
11/03/2015,53.9,157680,53.62,54.028999999999996,53.5101
11/02/2015,54.02,348834,53.7,54.07,53.5864
10/30/2015,53.55,314692,53.69,53.8,53.4709
10/29/2015,53.61,129459,53.55,53.6565,53.41
10/28/2015,54.05,109742,54.16,54.39,53.6709
10/27/2015,53.96,120392,54.08,54.0991,53.8409
10/26/2015,54.23,116259,54.27,54.2799,54.111999999999995
10/23/2015,54.46,142809,54.48,54.61,54.168
10/22/2015,54.1,248735,53.7,54.1691,53.63
10/21/2015,53.08,371502,53.58,53.59,53.04
10/20/2015,53.45,208919,53.53,53.59,53.3701
10/19/2015,53.56,126319,53.55,53.611000000000004,53.4001
10/16/2015,53.84,143431,53.77,53.86,53.583
10/15/2015,53.71,105844,53.37,53.71,53.18
10/14/2015,52.9,182527,52.94,53.05,52.76
10/13/2015,52.59,177365,52.78,52.96,52.51
10/12/2015,53.26,115013,53.4,53.45,53.16
10/09/2015,53.34,170902,53.42,53.57,53.06
10/08/2015,53.28,199243,52.74,53.33,52.628
10/07/2015,52.87,2026054,52.86,53.03,52.46
10/06/2015,52.57,299090,52.58,52.71,52.37
10/05/2015,52.81,234031,52.52,52.8699,52.46
10/02/2015,51.87,192920,50.86,51.88,50.755
10/01/2015,51.23,161089,51.34,51.3899,50.836999999999996
09/30/2015,50.97,229458,50.79,51.0,50.478
09/29/2015,50.15,241903,50.12,50.2698,49.9201
09/28/2015,50.03,279461,50.69,50.76,50.0
09/25/2015,50.81,243672,51.12,51.26,50.66
09/24/2015,50.49,206391,50.22,50.5699,49.92
09/23/2015,50.27,177583,50.44,50.56,50.16
09/22/2015,50.5,259177,50.63,50.6699,50.27
09/21/2015,51.34,219855,51.4,51.46,51.077
09/18/2015,50.96,253901,51.26,51.46,50.88
09/17/2015,51.4,417521,51.16,52.053999999999995,51.03
09/16/2015,51.45,318688,51.1,51.47,51.0345
09/15/2015,50.97,339249,50.68,51.04,50.5201
09/14/2015,50.85,161618,50.93,50.93,50.67
09/11/2015,50.95,232801,50.7,51.0,50.568000000000005
09/10/2015,50.65,306239,50.28,50.81,50.26
09/09/2015,50.07,354595,50.94,51.04,50.06
09/08/2015,50.65,353021,50.31,50.66,50.27
09/04/2015,49.23,346274,49.36,49.5702,49.0
09/03/2015,50.25,289947,50.29,50.62,50.14
09/02/2015,50.31,1564313,50.28,50.33,49.83
09/01/2015,49.59,387359,50.0,50.1985,49.4299
08/31/2015,51.0,400840,51.22,51.302,50.97
08/28/2015,51.53,1233046,51.6,51.715,51.38
08/27/2015,52.17,498370,51.52,52.2099,51.42
08/26/2015,50.83,672071,50.76,50.84,49.71
08/25/2015,49.86,1410440,51.88,51.9211,49.77
08/24/2015,49.49,681340,48.67,50.48,47.172
08/21/2015,51.85,745414,52.98,53.1,51.8339
08/20/2015,53.18,1998164,53.7,53.75,53.13
08/19/2015,54.21,302089,54.24,54.45,53.83
08/18/2015,54.5,551321,54.25,54.58,54.2
08/17/2015,54.89,148993,54.6,54.89,54.5
08/14/2015,55.06,263108,54.9,55.1196,54.7
08/13/2015,54.74,428023,54.58,54.86,54.41
08/12/2015,54.56,416199,54.38,54.5799,54.09
08/11/2015,54.89,372013,54.92,55.018,54.6301
08/10/2015,55.74,320881,55.12,55.79,55.12
08/07/2015,55.12,796216,54.97,55.15,54.8808
08/06/2015,54.94,210600,55.16,55.16,54.81100000000001
08/05/2015,55.37,489642,55.49,55.57,55.2501
08/04/2015,55.07,227435,55.14,55.3,55.01
08/03/2015,54.7,380584,54.82,54.9999,54.4909
07/31/2015,55.1,369019,55.25,55.38,54.97
07/30/2015,54.84,242752,54.68,54.88,54.53
07/29/2015,54.99,361865,54.6,55.06,54.5345
07/28/2015,54.86,397515,54.6,54.87,54.35
07/27/2015,54.31,301796,54.44,54.4999,54.17
07/24/2015,54.71,383701,55.1,55.2099,54.5812
07/23/2015,55.07,266866,55.36,55.402,54.9401
07/22/2015,55.5,246083,55.5,55.57,55.193000000000005
07/21/2015,55.71,226417,55.8,55.803000000000004,55.62
07/20/2015,55.85,227580,55.98,56.0,55.695
07/17/2015,55.96,267484,55.93,55.98,55.698
07/16/2015,55.83,246438,55.9,56.07899999999999,55.67
07/15/2015,55.13,301070,55.35,55.45,55.0
07/14/2015,55.48,374061,55.31,55.5346,55.121
07/13/2015,55.11,1133729,55.48,55.6,55.0
07/10/2015,54.72,317671,54.69,54.78,54.4
07/09/2015,53.49,537945,53.99,54.082,53.49
07/08/2015,52.56,626349,53.06,53.08,52.48
07/07/2015,54.11,350191,53.98,54.19,53.35
07/06/2015,54.4,384064,54.5,54.6375,54.2
07/02/2015,55.54,483166,55.7,55.7,55.42
07/01/2015,55.72,299856,55.84,55.9391,55.5301
06/30/2015,55.46,523210,55.79,55.79,55.27
06/29/2015,55.11,415825,55.61,56.2,55.031000000000006
06/26/2015,56.3,337928,56.39,56.59,56.181000000000004
06/25/2015,56.93,223123,57.18,57.226000000000006,56.9
06/24/2015,57.09,357291,57.29,57.3,57.02
06/23/2015,57.45,251275,57.31,57.47,57.23
06/22/2015,57.27,328736,57.46,57.52,57.21
06/19/2015,56.67,586938,56.83,56.8799,56.61
06/18/2015,56.95,799961,56.68,57.23,56.59
06/17/2015,56.56,367356,56.4,56.63399999999999,55.9593
06/16/2015,56.66,408621,56.52,56.696000000000005,56.405
06/15/2015,56.76,288863,56.68,56.76,56.431999999999995
06/12/2015,56.94,200027,56.93,57.01,56.77
06/11/2015,57.05,280077,57.08,57.108999999999995,56.8301
06/10/2015,56.97,342676,56.75,57.07,56.62
06/09/2015,56.33,355411,56.31,56.3699,56.13
06/08/2015,56.35,329772,56.48,56.56,56.2
06/05/2015,56.67,396949,56.65,56.7845,56.4001
06/04/2015,57.23,276576,57.4,57.568999999999996,57.0724
06/03/2015,57.71,302896,57.79,57.88,57.643
06/02/2015,57.98,228197,57.91,58.1799,57.7608
06/01/2015,57.93,314250,58.28,58.4013,57.7596
05/29/2015,57.75,320913,58.15,58.15,57.68
05/28/2015,58.47,392727,58.25,58.47,57.65
05/27/2015,58.96,244456,59.54,59.6099,58.71
05/26/2015,58.85,462078,59.35,59.35,58.7
05/22/2015,59.45,371723,59.38,59.51,59.3
05/21/2015,59.43,386061,59.35,59.46,59.23
05/20/2015,59.57,328552,59.42,59.75,59.3
05/19/2015,59.48,262320,59.55,59.608999999999995,59.39
05/18/2015,59.59,334982,59.66,59.8699,59.51
05/15/2015,59.95,301003,59.58,59.96,59.5
05/14/2015,59.39,354195,59.29,59.39,59.07
05/13/2015,58.72,300938,58.78,58.9599,58.61
05/12/2015,58.3,495907,58.25,58.4,58.03
05/11/2015,58.52,277232,58.81,58.89,58.51
05/08/2015,59.13,228083,58.84,59.18,58.67
05/07/2015,57.72,294277,57.66,57.8099,57.5108
05/06/2015,58.16,571298,58.74,58.84,58.0601
05/05/2015,58.86,801974,59.5,59.53,58.8034
05/04/2015,59.85,442836,59.81,59.86,59.67
05/01/2015,59.4,749315,59.15,59.4,59.01
04/30/2015,59.13,316559,59.39,59.47,59.05
04/29/2015,59.33,305937,59.35,59.41,59.1353
04/28/2015,59.66,372979,59.5,59.68,59.386
04/27/2015,59.58,345415,59.6,59.7399,59.441
04/24/2015,59.29,298260,59.35,59.35,59.092
04/23/2015,59.05,275117,58.71,59.1,58.58
04/22/2015,59.05,718324,58.99,59.0699,58.79
04/21/2015,58.62,1597909,58.73,58.76,58.5
04/20/2015,58.38,436213,58.34,58.47,58.28
04/17/2015,58.53,282234,58.62,58.62,58.3
04/16/2015,59.18,280103,58.97,59.28,58.8001
04/15/2015,58.79,305096,58.7,58.8599,58.4501
04/14/2015,58.7,490731,58.55,58.71,58.44
04/13/2015,58.32,232478,58.83,58.879,58.2612
04/10/2015,58.84,260588,58.75,58.85,58.6
04/09/2015,58.9,400903,58.88,58.94,58.501999999999995
04/08/2015,58.34,268157,58.47,58.56,58.14
04/07/2015,57.68,264413,57.98,57.98,57.65
04/06/2015,57.78,302896,57.65,58.0,57.52
04/02/2015,57.19,272510,57.07,57.23,56.96
04/01/2015,56.82,447427,56.83,56.83,56.4731
03/31/2015,56.27,370950,56.3,56.46,56.2
03/30/2015,56.91,338291,56.84,56.99,56.76
03/27/2015,56.74,315867,56.62,56.87,56.62
03/26/2015,56.36,379060,56.51,56.53,56.1
03/25/2015,56.68,744194,57.24,57.28,56.64
03/24/2015,56.93,346671,56.98,57.0599,56.85
03/23/2015,56.62,367158,56.66,56.72,56.3352
03/20/2015,56.44,395695,56.21,56.54,55.94
03/19/2015,55.56,373643,55.73,55.73,55.4103
03/18/2015,55.73,1018606,54.76,55.84,54.586999999999996
03/17/2015,54.73,654647,54.8,54.8399,54.5503
03/16/2015,55.1,576980,55.05,55.2,54.97
03/13/2015,54.71,792812,54.75,54.78,54.41
03/12/2015,54.79,241689,54.73,54.8648,54.59
03/11/2015,54.16,426686,54.29,54.309,54.07
03/10/2015,53.98,480692,54.4,54.45,53.901
03/09/2015,54.88,429046,54.96,54.96,54.74
03/06/2015,55.34,440958,55.94,55.94,55.29
03/05/2015,56.23,243864,56.47,56.47,56.141000000000005
03/04/2015,56.44,289728,56.68,56.746,56.18
03/03/2015,57.01,296280,57.17,57.1899,56.8875
03/02/2015,57.25,301646,57.22,57.25,57.07
02/27/2015,56.96,334513,57.19,57.23,56.96
02/26/2015,57.195,470482,57.51,57.51,57.108999999999995
02/25/2015,57.26,302407,57.3,57.37,57.2367
02/24/2015,57.16,209112,56.95,57.229,56.81
02/23/2015,56.89,246065,56.94,56.95,56.75
02/20/2015,57.01,152462,56.65,57.108999999999995,56.5
02/19/2015,56.74,298441,56.69,56.909,56.57
02/18/2015,56.94,206651,56.81,57.02,56.6252
02/17/2015,56.74,324710,56.71,56.85,56.52
02/13/2015,56.81,203516,56.75,56.84,56.481
02/12/2015,56.24,275938,56.0,56.26,55.89
02/11/2015,55.75,152567,55.73,55.83,55.48
02/10/2015,55.88,150171,55.92,55.92,55.6
02/09/2015,55.55,327574,55.7,55.76,55.492
02/06/2015,56.21,222794,56.54,56.55,56.083999999999996
02/05/2015,56.74,227044,56.48,56.75,56.369
02/04/2015,55.82,726507,56.06,56.3,55.7904
02/03/2015,56.26,268912,55.88,56.32,55.78
02/02/2015,55.9,591300,55.58,55.99,55.39
01/30/2015,54.94,275910,55.3,55.4,54.901
01/29/2015,55.87,149166,55.72,55.8895,55.425
01/28/2015,55.39,161386,56.12,56.1399,55.29
01/27/2015,55.88,234217,55.81,55.96,55.65
01/26/2015,56.14,210893,55.98,56.23,55.83
01/23/2015,55.875,234922,56.07,56.1199,55.875
01/22/2015,55.85,279360,55.5,55.9492,55.25
01/21/2015,55.61,126284,55.48,55.65,55.37
01/20/2015,55.21,226093,55.45,55.45,55.01
01/16/2015,55.63,298048,55.08,55.65,55.03
01/15/2015,54.87,277038,55.19,55.25,54.78
01/14/2015,54.72,155585,54.66,54.754,54.29
01/13/2015,54.59,146134,54.72,55.0,54.2275
01/12/2015,54.15,199239,54.45,54.45,54.06
01/09/2015,54.23,258352,54.37,54.3999,53.95
01/08/2015,54.22,136022,53.64,54.32,53.64
01/07/2015,53.95,143432,53.85,54.0,53.5201
01/06/2015,53.13,165556,53.54,53.56,52.82
01/05/2015,53.37,136549,53.74,53.7676,53.25
01/02/2015,53.77,247478,54.09,54.19,53.648
12/31/2014,53.52,183473,53.82,54.037,53.51
12/30/2014,53.89,199177,53.89,53.93,53.68
12/29/2014,53.99,482371,54.15,54.18,53.9
12/26/2014,54.29,250379,54.18,54.49,54.09
12/24/2014,53.78,104248,53.74,53.86,53.55
12/23/2014,53.65,333042,53.78,53.92,53.54
12/22/2014,53.88,144619,53.86,54.0,53.68
12/19/2014,54.82,205201,54.85,54.97,54.68
12/18/2014,54.65,269256,54.5,54.84,54.27
12/17/2014,54.2,188631,53.64,54.5593,53.5601
12/16/2014,53.48,232894,53.45,54.1399,53.41
12/15/2014,53.57,263205,54.3,54.4699,53.46
12/12/2014,54.3,247170,54.82,54.96,54.2601
12/11/2014,54.82,275674,55.13,55.1699,54.661
12/10/2014,54.85,359245,55.34,55.34,54.73
12/09/2014,55.29,290792,55.1,55.29,54.88
12/08/2014,55.17,212473,55.51,55.543,55.14
12/05/2014,56.0,581184,56.03,56.16,55.85
12/04/2014,56.01,338620,56.13,56.17,55.8704
12/03/2014,56.46,103002,56.53,56.53,56.361000000000004
12/02/2014,56.5,186520,56.42,56.53,56.3001
12/01/2014,56.13,119572,56.32,56.32,55.89
11/28/2014,56.22,44225,56.48,56.48,56.2
11/26/2014,56.41,68602,56.31,56.45,56.19
11/25/2014,56.18,306398,56.41,56.479,56.1
11/24/2014,56.42,589494,56.53,56.53,56.25
11/21/2014,56.19,154888,56.41,56.41,55.91
11/20/2014,55.6,87418,55.46,55.65,55.4
11/19/2014,55.94,103964,55.99,56.0999,55.73
11/18/2014,56.12,106311,55.99,56.21,55.88
11/17/2014,56.06,162986,56.04,56.08,55.8501
11/14/2014,56.39,117258,56.14,56.42,55.9701
11/13/2014,55.87,79264,56.0,56.0699,55.7501
11/12/2014,55.77,100632,55.74,55.82,55.6401
11/11/2014,55.77,135080,55.65,55.816,55.586000000000006
11/10/2014,55.49,132424,55.43,55.5599,55.41
11/07/2014,55.1,216501,54.98,55.1,54.78
11/06/2014,55.17,193805,55.37,55.412,55.09
11/05/2014,55.87,266646,55.99,56.05,55.71
11/04/2014,56.45,164149,56.44,56.55,56.138000000000005
11/03/2014,56.92,288568,56.85,56.99,56.66
10/31/2014,56.86,157020,56.56,56.91,56.44
10/30/2014,55.41,147077,55.04,55.54,55.0
10/29/2014,54.96,141640,55.44,55.44,54.713
10/28/2014,55.1,355199,55.0,55.251000000000005,54.8001
10/27/2014,54.61,221439,54.67,54.724,54.42
10/24/2014,54.88,139775,54.81,54.93,54.58
10/23/2014,54.73,122859,54.8,54.99,54.5001
10/22/2014,54.2,151772,54.53,54.65,54.15
10/21/2014,54.47,109886,54.33,54.5773,54.26
10/20/2014,53.98,641270,53.33,54.05,53.33
10/17/2014,53.66,248882,53.66,53.821999999999996,53.318000000000005
10/16/2014,52.98,154647,52.28,53.31,52.2406
10/15/2014,53.14,207877,53.01,53.23,52.17
10/14/2014,53.15,159142,53.4,53.61,53.063
10/13/2014,52.93,126711,53.35,53.64,52.92
10/10/2014,53.18,204614,53.52,53.82,53.15
10/09/2014,53.56,193126,54.34,54.34,53.535
10/08/2014,54.46,135708,53.72,54.52,53.44
10/07/2014,53.56,352736,54.12,54.1499,53.5
10/06/2014,54.08,125447,54.04,54.3799,53.907
10/03/2014,53.87,149964,54.14,54.14,53.56
10/02/2014,53.7,154247,53.76,53.9399,53.12
10/01/2014,53.99,334592,54.18,54.3,53.89
09/30/2014,54.45,136564,54.5,54.55,54.28
09/29/2014,54.53,107425,54.54,54.89,54.35
09/26/2014,55.23,104599,55.12,55.4399,55.08
09/25/2014,54.8,168756,55.3,55.6,54.76
09/24/2014,55.6,164094,55.45,55.87,55.261
09/23/2014,55.85,127612,55.99,56.028999999999996,55.7536
09/22/2014,56.04,217758,56.13,56.36,55.8201
09/19/2014,56.26,99435,56.66,56.66,56.15
09/18/2014,56.6,123021,56.63,56.6699,56.4768
09/17/2014,56.38,250481,56.79,56.89,56.38
09/16/2014,57.01,168822,56.72,57.169,56.38
09/15/2014,56.9,105801,57.22,57.245,56.87
09/12/2014,57.44,228658,57.7,57.7,57.325
09/11/2014,57.78,121092,57.64,57.8,57.59
09/10/2014,58.11,188406,57.94,58.12,57.82
09/09/2014,58.01,129795,58.27,58.27,57.85
09/08/2014,58.58,165241,58.9,58.9,58.5
09/05/2014,59.16,217535,59.01,59.16,58.87
09/04/2014,59.2,85850,59.46,59.498999999999995,59.051
09/03/2014,59.53,115869,59.41,59.64,59.41
09/02/2014,58.92,179576,58.9,59.05,58.79
08/29/2014,58.8,145419,58.85,59.04600000000001,58.72
08/28/2014,59.0,108463,59.01,59.06,58.87
08/27/2014,59.35,68905,59.39,59.458,59.2901
08/26/2014,59.36,108653,59.41,59.482,59.33
08/25/2014,59.41,105612,59.23,59.52,59.20399999999999
08/22/2014,59.23,76675,59.37,59.47,59.0566
08/21/2014,59.39,137758,59.36,59.44,59.2
08/20/2014,59.15,92562,59.15,59.3299,59.1001
08/19/2014,59.42,86388,59.37,59.43,59.31
08/18/2014,59.11,82993,59.04,59.13,58.9203
08/15/2014,58.91,91835,59.12,59.17,58.56
08/14/2014,58.77,141588,58.78,58.905,58.691
08/13/2014,58.74,90366,59.0,59.0,58.547
08/12/2014,58.32,119649,58.26,58.32,58.0601
08/11/2014,58.25,103107,58.21,58.32,58.04
08/08/2014,57.71,121577,57.4,57.79,57.33
08/07/2014,57.42,108597,57.83,57.83,57.29
08/06/2014,57.63,88666,57.5,57.76,57.34
08/05/2014,57.86,131547,58.4,58.4,57.76
08/04/2014,58.66,112584,58.63,58.7599,58.33
08/01/2014,58.51,103209,58.53,58.673,58.28
07/31/2014,58.65,91142,59.16,59.16,58.61
07/30/2014,59.22,83961,59.45,59.45,59.0
07/29/2014,59.22,140740,59.47,59.55,59.22
07/28/2014,59.22,105373,58.9,59.2699,58.9
07/25/2014,59.02,92363,59.26,59.26,58.9601
07/24/2014,59.41,108022,59.53,59.53,59.26
07/23/2014,59.44,81568,59.55,59.5599,59.22
07/22/2014,59.15,95819,59.13,59.248000000000005,59.08
07/21/2014,58.88,113982,58.71,58.9,58.512
07/18/2014,58.95,66706,58.75,59.0,58.7001
07/17/2014,58.37,173480,58.86,58.86,58.32
07/16/2014,59.01,92460,59.0,59.023,58.91
07/15/2014,58.55,131454,58.74,58.748000000000005,58.32
07/14/2014,58.48,136342,58.64,58.66,58.48
07/11/2014,58.35,239976,58.38,58.5099,58.1957
07/10/2014,58.37,10854340,57.98,58.42,57.85
07/09/2014,58.39,180670,58.27,58.428000000000004,58.12
07/08/2014,58.02,78786,58.39,58.45,57.918
07/07/2014,58.29,112671,58.47,58.47,58.18
07/03/2014,58.49100000000001,46144,58.5,58.5639,58.41
07/02/2014,58.33,110038,58.34,58.4199,58.25
07/01/2014,58.26,87257,58.31,58.35,58.1017
06/30/2014,58.05,74208,58.06,58.1099,57.85
06/27/2014,58.0,92444,57.92,58.0,57.75
06/26/2014,57.89,51373,57.71,58.0,57.56
06/25/2014,57.63,70339,57.23,57.74,57.23
06/24/2014,57.24,66631,57.53,57.64,57.19
06/23/2014,57.9,52645,57.97,57.99,57.75
06/20/2014,58.22,193814,58.26,58.26,58.0101
06/19/2014,57.99,55180,58.03,58.15,57.82
06/18/2014,57.84,67400,57.56,57.85,57.27
06/17/2014,57.39,99034,57.51,57.51,57.1
06/16/2014,57.52,129056,57.64,57.64,57.4
06/13/2014,57.65,146288,57.83,57.83,57.48
06/12/2014,57.58,130239,57.97,57.97,57.51
06/11/2014,57.68,143493,57.6,57.7,57.5836
06/10/2014,57.95,136010,58.0,58.0,57.9
06/09/2014,58.32,83750,58.3,58.4,58.1601
06/06/2014,58.27,42875,58.06,58.2889,58.0568
06/05/2014,57.97,98795,57.8,58.019,57.648
06/04/2014,57.6,176422,57.55,57.7,57.4
06/03/2014,57.89,147373,57.94,57.99,57.71
06/02/2014,57.87,212432,57.92,58.05,57.65
05/30/2014,57.87,544222,57.55,57.87,57.46
05/29/2014,57.49,56154,57.43,57.49,57.2501
05/28/2014,57.15,87278,57.2,57.2,57.02
05/27/2014,57.23,226418,57.0,57.3,56.9804
05/23/2014,57.13,95263,56.86,57.21,56.86
05/22/2014,56.64,52096,56.7,56.73,56.56
05/21/2014,56.64,110139,56.65,56.7,56.45
05/20/2014,56.28,90881,56.58,56.58,56.17
05/19/2014,56.8499,90110,56.75,56.86,56.62
05/16/2014,56.91,87129,56.94,56.95,56.61
05/15/2014,56.6,71036,56.7,56.84,56.371
05/14/2014,56.75,119886,56.64,56.9,56.64
05/13/2014,56.55,79232,56.54,56.63,56.41
05/12/2014,56.23,89702,56.21,56.29,56.03
05/09/2014,55.77,150322,55.82,55.8499,55.57
05/08/2014,55.63,158681,55.71,55.873999999999995,55.5538
05/07/2014,55.72,52202,55.66,55.76,55.39
05/06/2014,55.49,86740,55.51,55.63,55.35
05/05/2014,55.41,100328,55.1,55.41,55.081
05/02/2014,55.4799,141636,55.5,55.6235,55.3335
05/01/2014,55.45,92243,55.49,55.49,55.35
04/30/2014,55.29,61678,55.15,55.33,55.0
04/29/2014,55.29,55623,55.4,55.42,55.04
04/28/2014,54.93,71021,55.03,55.04,54.591
04/25/2014,54.76,97978,55.07,55.07,54.6905
04/24/2014,55.13,1243614,55.3,55.3185,55.02
04/23/2014,55.16,58925,55.25,55.25,55.03
04/22/2014,55.35,71601,55.45,55.47,55.31
04/21/2014,55.27,69487,55.45,55.59,55.18
04/17/2014,55.6,79175,55.48,55.6,55.33
04/16/2014,55.2,77782,55.1,55.27,54.93
04/15/2014,54.79,116760,54.82,54.9499,54.211000000000006
04/14/2014,54.97,68923,54.88,55.0222,54.725
04/11/2014,54.71,74054,54.85,54.979,54.58
04/10/2014,54.79,121259,55.5,55.5,54.74100000000001
04/09/2014,55.56,85676,55.27,55.57,55.00899999999999
04/08/2014,55.02,119965,55.07,55.2199,54.911
04/07/2014,54.87,89823,54.61,55.13,54.61
04/04/2014,54.81,141773,55.08,55.3,54.6632
04/03/2014,54.84,91104,55.02,55.04,54.596000000000004
04/02/2014,55.0,80791,54.69,55.04,54.69
04/01/2014,54.43,112399,54.42,54.4999,54.29
03/31/2014,54.07,62197,54.25,54.26,54.07
03/28/2014,53.82,70186,53.61,54.0,53.61
03/27/2014,53.37,170614,53.2,53.43,53.13
03/26/2014,52.87,119566,53.35,53.35,52.7801
03/25/2014,52.96,152457,52.97,53.184,52.7855
03/24/2014,52.56,66569,52.89,53.0,52.43
03/21/2014,52.58,48845,52.64,52.97,52.55
03/20/2014,52.26,175594,52.25,52.419,51.96
03/19/2014,52.77,104659,53.3,53.45,52.6972
03/18/2014,53.46,91723,53.47,53.56,53.07
03/17/2014,53.26,95687,53.0,53.32,52.96
03/14/2014,52.71,112644,52.68,52.88,52.5489
03/13/2014,52.57,85583,53.49,53.49,52.4
03/12/2014,53.36,100596,53.06,53.42,53.0101
03/11/2014,53.52,81727,54.07,54.07,53.445
03/10/2014,54.04,105470,54.09,54.09,53.7603
03/07/2014,54.33,82551,54.64,54.64,54.16
03/06/2014,54.596000000000004,80016,54.36,54.74,54.08
03/05/2014,53.92,44030,54.05,54.05,53.8
03/04/2014,53.89,99045,53.79,54.04,53.74
03/03/2014,52.96,89151,53.22,53.38,52.76
02/28/2014,53.63,79989,53.61,53.9073,53.51
02/27/2014,53.61,66019,53.16,53.66,53.13
02/26/2014,53.37,90838,53.71,53.71,53.26
02/25/2014,53.458999999999996,82347,53.86,53.86,53.4
02/24/2014,53.81,120511,53.56,54.02,53.53
02/21/2014,53.84,67358,54.0,54.0211,53.7703
02/20/2014,53.92,195556,53.76,53.982,53.55
02/19/2014,53.6,75667,53.76,54.05,53.56
02/18/2014,53.77,129681,53.98,53.98,53.69
02/14/2014,53.54,52841,53.36,53.65,53.28
02/13/2014,53.36,85120,52.92,53.49,52.8
02/12/2014,53.44,107735,53.54,53.559,53.3319
02/11/2014,53.33,185076,52.9,53.39,52.81
02/10/2014,52.46,187500,52.35,52.59,52.331
02/07/2014,52.78,112586,52.35,52.8,52.32
02/06/2014,52.27,174406,51.86,52.32,51.64
02/05/2014,51.58,152235,51.5,51.62,51.20399999999999
02/04/2014,51.57,250860,51.21,51.63,51.1401
02/03/2014,50.65,164306,51.69,51.69,50.65
01/31/2014,51.58,176438,51.42,51.869,51.281000000000006
01/30/2014,52.27,196833,52.1,52.36,51.99
01/29/2014,51.86,174654,52.19,52.2099,51.7849
01/28/2014,53.14,118517,52.59,53.14,52.34
01/27/2014,52.27,142030,52.64,52.69,51.92
01/24/2014,52.42,396129,53.31,53.31,52.41
01/23/2014,53.41,128844,53.71,53.75,53.2
01/22/2014,54.18,122644,54.21,54.22,54.01
01/21/2014,53.93,102379,54.21,54.21,53.72
01/17/2014,53.97,65600,54.0,54.17,53.9
01/16/2014,53.76,88424,53.76,53.77,53.61
01/15/2014,53.88,218494,54.0,54.05,53.75
01/14/2014,53.86,111670,53.55,53.88,53.51
01/13/2014,53.53,137942,54.0,54.038999999999994,53.41
01/10/2014,54.06,87638,53.78,54.1,53.57
01/09/2014,53.53,66472,53.55,53.559,53.371
01/08/2014,53.54,122387,53.7,53.7,53.42
01/07/2014,53.601000000000006,73739,53.7,53.7,53.5103
01/06/2014,53.51,366155,53.68,53.72,53.42
01/03/2014,53.69,88161,53.73,53.86,53.5837
01/02/2014,53.65,176263,54.21,54.24,53.51
12/31/2013,54.48,201715,54.23,54.61,54.09
12/30/2013,54.25,186595,54.0,54.35,53.86
12/27/2013,53.86,165872,54.0,54.0,53.6
12/26/2013,53.67,244213,53.38,53.67,53.37
12/24/2013,53.26,96146,53.51,53.51,53.21
12/23/2013,53.46,357726,53.59,53.66,53.4
12/20/2013,53.28,139477,53.25,53.35,53.0
12/19/2013,54.66,160035,54.63,54.66,54.211000000000006
12/18/2013,54.59,371828,54.3,54.9,54.02
12/17/2013,54.11,244418,54.5,54.53,53.83
12/16/2013,54.46,155645,54.23,54.72,54.23
12/13/2013,54.48,83768,54.52,54.52,54.13
12/12/2013,54.38,62394,54.5,54.5361,54.2
12/11/2013,54.58,149284,55.14,55.14,54.5
12/10/2013,55.29,66991,55.19,55.32,55.03
12/09/2013,55.24,104305,55.36,55.36,55.12
12/06/2013,55.55,130603,55.21,55.589,55.05
12/05/2013,54.98,106874,55.22,55.22,54.92
12/04/2013,55.43,140841,55.25,55.49,55.03
12/03/2013,55.5,72650,55.64,55.65,55.28
12/02/2013,55.77,80793,56.25,56.25,55.67
11/29/2013,56.3,40611,56.53,56.71,56.27
11/27/2013,56.52,56805,56.4,56.52,56.1501
11/26/2013,56.15,98662,55.9,56.205,55.89
11/25/2013,56.01,147946,56.4,56.4,56.0
11/22/2013,56.67,57905,56.5,56.69,56.3695
11/21/2013,56.52,60958,56.5,56.6,56.29
11/20/2013,56.6301,49014,57.24,57.24,56.61
11/19/2013,57.33,119523,57.51,57.51,57.11
11/18/2013,57.67,118968,57.87,57.99,57.61
11/15/2013,57.77,216606,57.56,57.8296,57.2201
11/14/2013,56.85,457637,56.9,57.0194,56.6601
11/13/2013,56.72,69411,56.3,56.74,56.0
11/12/2013,56.39,62191,56.6,56.6,56.21
11/11/2013,56.5,49950,56.61,56.64,56.45
11/08/2013,56.71,78088,56.49,56.73,56.2601
11/07/2013,56.46,93642,57.24,57.24,56.42
11/06/2013,57.23,84803,57.41,57.5,57.18
11/05/2013,57.24,57853,57.36,57.373000000000005,57.08
11/04/2013,57.77,84930,57.77,57.7896,57.45
11/01/2013,57.58,65142,57.72,57.815,57.3601
10/31/2013,57.85,53132,58.14,58.14,57.7601
10/30/2013,58.09,81229,58.21,58.36,57.77
10/29/2013,58.36,83562,58.36,58.3784,58.18
10/28/2013,58.19,120679,58.31,58.4,58.15
10/25/2013,58.3551,49793,58.46,58.48,58.2606
10/24/2013,58.32,109929,58.64,58.64,58.2401
10/23/2013,58.32,64802,58.45,58.495,58.1
10/22/2013,59.03,71132,58.75,59.119,58.69
10/21/2013,58.59,107556,58.27,58.7,58.27
10/18/2013,58.73,53804,58.65,58.91,58.49
10/17/2013,58.33,95682,57.96,58.38,57.82
10/16/2013,57.72,88990,57.53,57.799,57.25
10/15/2013,57.26,120854,57.48,57.48,57.09
10/14/2013,57.93,154930,57.46,58.0,57.16
10/11/2013,57.69,368128,57.36,57.74,57.2
10/10/2013,57.61,172902,57.08,57.67,57.08
10/09/2013,56.7,5561845,56.67,56.84,56.35
10/08/2013,55.91,96815,56.09,56.26,55.7
10/07/2013,55.88,80808,56.17,56.17,55.69
10/04/2013,56.64,54941,56.62,56.69,56.41
10/03/2013,56.39,74283,56.88,56.88,56.175
10/02/2013,56.92,150934,56.7,56.92,56.41
10/01/2013,56.9,131553,56.96,57.0,56.57
09/30/2013,56.72,152863,56.4,56.7599,56.1
09/27/2013,56.95,154928,56.83,56.98,56.75
09/26/2013,56.9,101638,56.88,57.14,56.73
09/25/2013,56.73,120027,57.41,57.41,56.62
09/24/2013,56.89,75914,56.99,57.17,56.72
09/23/2013,57.35,74573,57.22,57.43,56.98
09/20/2013,57.25,145981,58.24,58.24,57.25
09/19/2013,58.17,80501,58.25,58.34,57.94
09/18/2013,57.83,129735,56.2,57.84,56.0
09/17/2013,56.11,80146,55.98,56.19,55.95
09/16/2013,55.94,105507,56.03,56.58,55.59
09/13/2013,55.49,354370,55.36,55.51,55.17
09/12/2013,55.19,82836,55.39,55.41,55.153999999999996
09/11/2013,55.64,187913,55.29,55.64,55.1601
09/10/2013,55.49,111230,55.37,55.53,55.1948
09/09/2013,54.96,61391,54.58,54.96,54.01
09/06/2013,53.58,72307,53.56,53.9,53.32
09/05/2013,53.62,115110,53.48,53.63,53.36
09/04/2013,53.62,73879,53.36,53.72,53.2401
09/03/2013,53.18,67031,53.26,53.5999,52.981
08/30/2013,52.5,49593,52.67,52.87,52.42
08/29/2013,52.52,55905,52.5,52.73,52.4461
08/28/2013,52.4243,39345,52.43,52.6789,52.306000000000004
08/27/2013,52.36,78972,52.59,52.76,52.2899
08/26/2013,53.31,78264,53.51,53.58,53.2401
08/23/2013,53.53,158443,53.25,53.56,53.1509
08/22/2013,53.07,59572,53.38,53.38,53.0
08/21/2013,52.99,88386,53.55,53.57899999999999,52.9201
08/20/2013,53.81,72052,53.9,54.0,53.7677
08/19/2013,53.99,105266,54.47,54.53,53.92
08/16/2013,54.57,64585,54.78,54.86,54.5
08/15/2013,54.62,54904,54.64,54.69,54.321999999999996
08/14/2013,55.17,39469,55.13,55.3,55.13
08/13/2013,55.09,264229,55.1,55.31,54.93
08/12/2013,54.85,51897,54.97,55.12,54.8004
08/09/2013,55.29,52351,55.21,55.48,54.9
08/08/2013,55.23,35109,55.03,55.43,54.8525
08/07/2013,54.62,59648,54.81,54.83,54.56
08/06/2013,55.1,124968,55.26,55.5,55.0257
08/05/2013,55.05,59726,55.21,55.21,54.9601
08/02/2013,55.08,83115,54.92,55.144,54.736000000000004
08/01/2013,54.83,102862,54.52,54.99,54.52
07/31/2013,54.02,112969,54.06,54.34,53.72
07/30/2013,54.17,44954,54.5,54.6,54.04
07/29/2013,54.51,60503,54.64,54.72,54.41
07/26/2013,55.0,53122,54.97,55.0051,54.51
07/25/2013,55.27,125732,54.72,55.29,54.72
07/24/2013,55.1,69836,55.57,55.6,54.8984
07/23/2013,55.57,83174,55.5,55.77,55.3
07/22/2013,55.37,78895,55.19,55.47,55.085
07/19/2013,55.11,86637,55.12,55.145,54.9
07/18/2013,54.97,88531,55.15,55.1999,54.919
07/17/2013,55.15,120838,55.25,55.25,54.9
07/16/2013,54.88,85727,55.04,55.093999999999994,54.8
07/15/2013,55.29,71120,55.01,55.29,54.85
07/12/2013,54.65,65528,54.8,54.86,54.5
07/11/2013,55.35,68231,54.59,55.35,54.44
07/10/2013,53.22,83445,53.42,53.6096,53.2001
07/09/2013,53.53,57972,53.36,53.67,53.31
07/08/2013,53.21,82269,53.37,53.50899999999999,53.07
07/05/2013,53.528,77419,53.14,53.98,53.14
07/03/2013,53.43,68627,53.18,53.64,53.11
07/02/2013,53.48,71814,53.49,53.94,53.23
07/01/2013,53.27,107746,53.62,53.62,53.211999999999996
06/28/2013,53.38,123255,53.19,53.5996,53.0
06/27/2013,52.96,90057,52.53,53.03,52.53
06/26/2013,51.71,122710,51.66,51.88,51.46
06/25/2013,51.22,158488,50.84,51.305,50.5801
06/24/2013,50.435,207131,50.39,50.68,49.76
06/21/2013,51.37,154143,51.33,51.58,50.751000000000005
06/20/2013,50.92,184141,52.11,52.18,50.6601
06/19/2013,53.41,142807,54.56,54.81,53.41
06/18/2013,54.71,85152,54.3,54.8,54.3
06/17/2013,54.18,104209,54.27,54.55,54.01
06/14/2013,53.93,58414,54.09,54.361999999999995,53.771
06/13/2013,53.95,96478,53.01,53.9699,52.99
06/12/2013,52.67,167311,53.3,53.479,52.66
06/11/2013,53.02,198630,53.32,53.4,52.97
06/10/2013,54.51,95680,55.03,55.03,54.51
06/07/2013,55.36,161602,55.06,55.3699,54.535
06/06/2013,54.355,155372,54.18,54.4,53.6905
06/05/2013,54.19,233333,55.12,55.12,54.174
06/04/2013,55.59,124095,55.84,56.152,55.36
06/03/2013,55.16,264513,55.03,55.2,54.62
05/31/2013,55.1999,198504,55.85,55.96,55.16
05/30/2013,56.075,254517,56.37,56.37,56.0
05/29/2013,56.65,210283,57.14,57.14,56.48
05/28/2013,57.69,132992,58.12,58.2299,57.523999999999994
05/24/2013,57.28,129679,57.42,57.42,57.05
05/23/2013,57.98,216860,57.76,58.0,56.75
05/22/2013,59.31,248107,60.18,60.4123,59.0939
05/21/2013,60.31,138756,60.34,60.428999999999995,59.97
05/20/2013,60.73,113402,60.66,60.739,60.52
05/17/2013,60.46,75756,60.01,60.46,59.87
05/16/2013,59.72,75249,59.66,59.85,59.5
05/15/2013,59.73,180553,59.78,59.9,59.51
05/14/2013,60.22,283963,60.12,60.29,59.4
05/13/2013,60.6,99896,60.65,60.68,60.45
05/10/2013,61.0,129782,61.08,61.08,60.79
05/09/2013,61.18,96785,61.54,61.68,61.02
05/08/2013,61.86,82658,61.81,61.88,61.6001
05/07/2013,61.82,161021,61.81,61.93,61.6
05/06/2013,61.98,134078,62.05,62.05,61.81
05/03/2013,62.05,141763,61.54,62.0999,61.52
05/02/2013,61.41,561830,61.39,61.516000000000005,61.13
05/01/2013,61.06,111003,61.54,61.54,60.9542
04/30/2013,61.3225,129732,61.23,61.38,60.92
04/29/2013,61.08,90257,60.86,61.08,60.61
04/26/2013,60.32,98202,60.52,60.5347,60.15
04/25/2013,60.751999999999995,69421,60.83,60.95,60.63
04/24/2013,60.48,76961,60.19,60.61,60.19
04/23/2013,60.12,62630,59.93,60.168,59.7779
04/22/2013,60.09,104488,60.17,60.2,59.73
04/19/2013,60.24,114768,60.12,60.286,60.0
04/18/2013,59.1,81012,59.47,59.47,59.004
04/17/2013,59.16,104433,59.54,59.54,58.81
04/16/2013,59.69,68204,59.66,59.74,59.18
04/15/2013,58.661,134067,59.52,59.52,58.61
04/12/2013,59.99,95775,60.01,60.0875,59.68
04/11/2013,59.5,142427,59.42,59.648999999999994,59.32
04/10/2013,59.31,155672,59.14,59.42,59.0
04/09/2013,58.8,103332,58.56,58.91,58.3
04/08/2013,59.02,84976,58.79,59.02,58.537
04/05/2013,58.75,111349,58.23,58.77,57.99
04/04/2013,58.0,81859,57.76,58.0,57.66
04/03/2013,56.82,98082,57.48,57.51,56.7341
04/02/2013,57.28,110216,57.22,57.48,57.09
04/01/2013,56.19,104113,56.9,56.9,56.11
03/28/2013,57.38,107222,57.27,57.38,57.09
03/27/2013,57.41,125915,57.24,57.43,57.0479
03/26/2013,57.1,86971,56.76,57.1,56.707
03/25/2013,56.4,76623,56.94,56.94,56.24
03/22/2013,56.4401,69317,56.23,56.498999999999995,56.23
03/21/2013,55.88,116055,56.09,56.2,55.83
03/20/2013,56.29,89978,56.39,56.41,56.19
03/19/2013,55.79,82826,56.23,56.23,55.56
03/18/2013,56.19,101516,56.21,56.5,56.04
03/15/2013,56.648999999999994,59002,56.72,56.72,56.5
03/14/2013,56.72,43397,56.44,56.72,56.4
03/13/2013,55.99,126065,56.17,56.17,55.8601
03/12/2013,56.18,104306,56.49,56.57,56.108999999999995
03/11/2013,56.6,59047,56.74,56.75,56.4701
03/08/2013,56.7209,84570,56.72,56.78,56.434
03/07/2013,56.68,112294,56.86,56.86,56.62
03/06/2013,56.56,101360,56.7,56.7099,56.4078
03/05/2013,56.33,177385,56.39,56.43600000000001,56.2189
03/04/2013,56.19,403263,56.13,56.2299,55.91
03/01/2013,56.26,82489,56.22,56.33,55.98
02/28/2013,55.87,111402,55.94,56.31,55.87
02/27/2013,55.88,90557,55.21,55.93,55.21
02/26/2013,54.99,105966,54.8,55.21,54.7495
02/25/2013,54.32,64615,55.44,55.44,54.32
02/22/2013,54.93,157124,55.16,55.16,54.71
02/21/2013,54.71,142005,55.04,55.06,54.55
02/20/2013,55.12,244869,55.75,55.75,55.0909
02/19/2013,55.68,117693,55.58,55.7,55.52
02/15/2013,55.2,109353,55.48,55.48,55.1
02/14/2013,55.33,93062,55.29,55.39,55.203
02/13/2013,55.5,95022,55.69,55.69,55.39
02/12/2013,55.31,73677,55.27,55.4,55.0704
02/11/2013,55.26,101544,55.28,55.3,55.0701
02/08/2013,55.16,129870,54.85,55.22,54.85
02/07/2013,54.85,114989,55.2,55.288000000000004,54.55
02/06/2013,55.31,134799,55.15,55.31,54.99
02/05/2013,55.33,142401,55.39,55.39,55.1
02/04/2013,55.28,144755,55.88,55.88,55.1501
02/01/2013,56.08,108870,56.1,56.2,55.84
01/31/2013,55.92,158684,56.03,56.1098,55.8335
01/30/2013,55.96,81042,55.97,56.13,55.9
01/29/2013,55.71,76228,55.62,55.74,55.46
01/28/2013,55.35,224705,55.7,55.7,55.31
01/25/2013,55.6134,124253,55.58,55.73,55.4201
01/24/2013,55.56,115521,55.71,55.8198,55.476000000000006
01/23/2013,55.37,150844,55.56,55.56,55.28
01/22/2013,55.62,193311,55.75,55.75,55.4597
01/18/2013,55.65,144886,55.7,55.74,55.45
01/17/2013,55.7,140358,55.75,55.91,55.5201
01/16/2013,55.71,84086,55.59,55.73,55.445
01/15/2013,55.68,204604,55.64,55.81,55.56
01/14/2013,55.6,165152,55.77,55.77,55.47
01/11/2013,55.4699,111331,55.52,55.58,55.3
01/10/2013,55.82,105989,55.89,55.89,55.47
01/09/2013,55.37,178507,55.4,55.48,55.3
01/08/2013,54.8,195352,55.1,55.1,54.64
01/07/2013,55.45,209431,55.4,55.45,55.181999999999995
01/04/2013,55.35,158130,55.16,55.4258,55.0701
01/03/2013,55.38,747211,55.5,55.57,55.144
01/02/2013,55.86,158872,55.62,55.86,55.49
12/31/2012,55.03,153209,54.38,55.14,54.33
12/28/2012,54.19,116679,54.22,54.341,54.1201
12/27/2012,54.52,117820,54.52,54.619,54.13
12/26/2012,54.35,85518,54.58,54.872,54.18
12/24/2012,54.07,59766,54.31,54.31,53.9
12/21/2012,54.19,130431,53.87,54.229,53.78
12/20/2012,54.4,129367,54.26,54.4,53.95
12/19/2012,55.9,174356,56.16,56.16,55.9
12/18/2012,56.04,108101,55.8,56.08,55.6536
12/17/2012,55.64,86882,55.59,55.7399,55.42
12/14/2012,55.35,107620,55.43,55.54,55.2755
12/13/2012,55.06,61550,55.32,55.32,54.9001
12/12/2012,55.31,99985,55.23,55.5903,55.2
12/11/2012,55.21,60168,55.17,55.3,55.1
12/10/2012,55.27,163659,55.27,55.3,55.05
12/07/2012,55.1,49873,55.01,55.16,54.88
12/06/2012,54.78,40229,54.76,54.78,54.5
12/05/2012,54.53,50953,54.63,54.7999,54.3807
12/04/2012,54.48,69371,54.61,54.63,54.41
12/03/2012,54.36,70805,54.75,54.75,54.28
11/30/2012,54.28,86530,54.35,54.38,54.1363
11/29/2012,54.25,30414,54.13,54.25,53.9601
11/28/2012,53.7924,57073,53.36,53.83,53.1718
11/27/2012,53.39,38999,53.71,53.72,53.369
11/26/2012,53.56,52255,53.58,53.58,53.12
11/23/2012,53.65,23641,53.25,53.65,53.25
11/21/2012,52.73,36040,52.82,52.82,52.52
11/20/2012,52.79,27886,52.74,52.79,52.48
11/19/2012,53.028999999999996,64018,52.88,53.028999999999996,52.65
11/16/2012,52.22,38697,52.05,52.25,51.7688
11/15/2012,52.09,39718,51.94,52.1499,51.85
11/14/2012,51.95,124020,52.6,52.623999999999995,51.65
11/13/2012,52.22,38466,52.29,52.47,52.1
11/12/2012,52.5,46715,52.69,52.69,52.42
11/09/2012,52.42,28613,52.55,52.729,52.31
11/08/2012,52.45,48674,53.09,53.09,52.42
11/07/2012,53.01,88636,53.47,53.47,52.69
11/06/2012,53.78,60977,53.57,53.8999,53.376000000000005
11/05/2012,53.51,51568,53.43,53.51,53.12
11/02/2012,53.31,56287,53.71,53.99,53.11
11/01/2012,53.62,79834,53.25,53.7,53.16
10/31/2012,52.89,57925,53.14,53.49,52.5701
10/26/2012,52.8,34538,52.94,52.94,52.58
10/25/2012,53.07,25414,53.2,53.2,52.8
10/24/2012,52.63,28175,52.77,52.96,52.55
10/23/2012,52.13,83628,52.45,52.45,51.87
10/22/2012,52.92,31020,52.84,52.94,52.6
10/19/2012,52.4,45451,52.85,52.85,52.14
10/18/2012,52.894,72625,53.09,53.16,52.8
10/17/2012,53.2218,77866,53.21,53.32,52.93
10/16/2012,52.89,63230,52.75,52.93,52.6568
10/15/2012,52.2196,63379,52.19,52.32,51.86
10/12/2012,51.77,33651,52.03,52.05,51.7
10/11/2012,51.75,43885,52.02,52.02,51.7
10/10/2012,51.54,23090,51.8,51.8,51.4608
10/09/2012,51.61,55793,51.85,51.9,51.47
10/08/2012,51.79,11622,51.96,51.96,51.7313
10/05/2012,52.0894,39864,52.56,52.56,52.0894
10/04/2012,52.26,27984,52.16,52.2799,51.895
10/03/2012,51.6775,24737,51.51,51.89,51.5
10/02/2012,51.5041,26948,51.79,52.0,51.33
10/01/2012,51.5058,91736,51.78,51.95,51.41
09/28/2012,51.43,43375,51.81,51.81,51.27
09/27/2012,51.86,35379,51.72,52.0,51.46
09/26/2012,51.2,25280,51.45,51.45,51.0
09/25/2012,51.12,30582,51.95,52.1,51.12
09/24/2012,51.44,42615,51.51,51.61,51.27
09/21/2012,52.2,25518,52.61,52.61,52.2
09/20/2012,52.2,36525,52.14,52.21,51.8705
09/19/2012,52.44,37636,52.52,52.55,52.25
09/18/2012,52.35,59053,52.4,52.46,52.22
09/17/2012,52.45,141102,52.84,52.84,52.35
09/14/2012,52.88,182109,53.06,53.26,52.79
09/13/2012,52.31,43541,51.63,52.53,51.41
09/12/2012,51.52,38095,51.67,51.67,51.3948
09/11/2012,51.12,16886,51.08,51.14,50.89
09/10/2012,50.62,61174,51.03,51.03,50.51
09/07/2012,51.03,33807,51.12,51.12,50.986000000000004
09/06/2012,50.55,86645,50.12,50.57,49.8417
09/05/2012,49.6,45662,49.81,49.86,49.494
09/04/2012,49.73,41310,50.03,50.03,49.4701
08/31/2012,50.75,29431,49.77,50.75,49.533
08/30/2012,49.3,21318,49.69,49.69,49.22
08/29/2012,49.9291,17862,50.28,50.28,49.912
08/28/2012,49.94,29278,49.87,50.01,49.79
08/27/2012,49.87,39400,50.28,50.28,49.8077
08/24/2012,50.11,19152,50.0,50.2299,49.82
08/23/2012,50.0001,28900,50.41,50.41,49.94
08/22/2012,50.27,32759,50.1,50.3799,49.8804
08/21/2012,50.044,52825,50.3,50.46,49.968
08/20/2012,50.1248,32763,50.2,50.2,49.83
08/17/2012,50.2,38305,50.3,50.3,50.0403
08/16/2012,50.11,36246,50.05,50.25,49.8499
08/15/2012,49.961000000000006,33507,50.08,50.08,49.8271
08/14/2012,49.9602,29017,50.25,50.25,49.88
08/13/2012,50.13,44521,50.3,50.3,49.946000000000005
08/10/2012,50.244,28599,50.12,50.244,49.924
08/09/2012,50.16,34888,50.2,50.3,50.0905
08/08/2012,50.2499,47479,50.22,50.396,50.0
08/07/2012,50.4201,19505,50.61,50.69,50.31
08/06/2012,50.35,46917,50.51,50.65,50.35
08/03/2012,50.25,109603,50.0,50.52,49.943999999999996
08/02/2012,48.992,31266,49.16,49.39,48.742
08/01/2012,49.43,49812,49.91,49.91,49.373000000000005
07/31/2012,49.2,46538,49.53,49.6,49.2
07/30/2012,49.3612,30410,49.43,49.5206,49.2368
07/27/2012,49.5805,17508,49.13,49.74,48.993
07/26/2012,48.788000000000004,23488,48.75,48.9,48.513999999999996
07/25/2012,47.842,86388,47.97,48.04,47.63399999999999
07/24/2012,47.47,18244,47.74,47.76,47.19
07/23/2012,47.84,36072,47.63,47.8694,47.3375
07/20/2012,48.3261,16986,48.58,48.58,48.277
07/19/2012,49.123000000000005,28092,48.95,49.1599,48.82
07/18/2012,48.9011,37879,48.66,48.99,48.41
07/17/2012,48.818999999999996,28248,48.85,48.86,48.2925
07/16/2012,48.15,14995,48.17,48.269,47.8671
07/13/2012,48.17,68784,47.81,48.23,47.7
07/12/2012,47.49,42353,47.45,47.607,47.2177
07/11/2012,47.92,11169,47.75,48.0305,47.6729
07/10/2012,47.39,22692,48.22,48.22,47.39
07/09/2012,47.83,20451,47.91,47.91,47.59
07/06/2012,48.08,29210,48.23,48.23,47.763999999999996
07/05/2012,48.18,60929,48.54,48.54,48.0
07/03/2012,48.434,8974,48.07,48.5548,48.07
07/02/2012,48.18,29584,48.14,48.18,47.8
06/29/2012,47.8,46975,47.7,47.84,47.15
06/28/2012,46.48,32615,46.36,46.55,46.0237
06/27/2012,46.52,12213,46.51,46.56,46.32
06/26/2012,45.85,18332,45.8,45.9325,45.527
06/25/2012,45.42,19633,45.72,45.72,45.141000000000005
06/22/2012,45.83,23662,45.46,45.9773,45.46
06/21/2012,45.38,177156,46.48,46.48,45.35
06/20/2012,46.57,22637,46.77,46.86,46.4701
06/19/2012,46.615,47835,46.26,46.75899999999999,46.26
06/18/2012,45.955,36632,45.89,46.01,45.63
06/15/2012,45.72,19973,45.57,45.84,45.5125
06/14/2012,45.19,15462,45.07,45.23,44.9099
06/13/2012,44.71,49233,45.07,45.2482,44.71
06/12/2012,45.24,24330,44.78,45.24,44.75
06/11/2012,44.3744,20185,45.25,45.25,44.358000000000004
06/08/2012,44.8699,19468,44.6,44.87,44.26
06/07/2012,44.96,27455,45.76,45.76,44.96
06/06/2012,45.12,30442,44.65,45.13,44.46
06/05/2012,43.71,29510,43.59,43.71,43.33
06/04/2012,43.308,30409,43.39,43.39,43.0201
06/01/2012,43.31,30721,43.5,43.66,43.3
05/31/2012,44.32,25934,44.24,44.4,43.8521
05/30/2012,43.95,7445,44.19,44.19,43.93
05/29/2012,44.79,15847,44.73,44.91,44.49100000000001
05/25/2012,43.87,7522,43.7,43.99,43.7
05/24/2012,43.78,92492,44.39,44.39,43.53
05/23/2012,44.132,22832,44.1,44.19,43.518
05/22/2012,44.18,20277,44.72,44.825,44.133
05/21/2012,44.516999999999996,16883,43.91,44.58,43.91
05/18/2012,43.51,45613,44.15,44.17,43.51
05/17/2012,43.93,38759,44.6,44.6,43.9
05/16/2012,44.351000000000006,24290,44.87,44.89,44.31100000000001
05/15/2012,44.824,35698,45.34,45.34,44.78
05/14/2012,45.23,20913,45.34,45.505,45.2
05/11/2012,45.895,12287,45.95,46.27,45.88
05/10/2012,46.21,21543,46.66,46.66,46.1968
05/09/2012,46.1344,28982,46.13,46.37,45.84
05/08/2012,46.79,39879,46.95,47.37,46.31
05/07/2012,47.25,18609,47.02,47.318999999999996,47.0001
05/04/2012,47.05,16763,47.54,47.54,47.0
05/03/2012,47.618,14355,47.97,47.97,47.56
05/02/2012,47.93,20064,47.57,47.96,47.57
05/01/2012,47.93,28695,47.81,48.18,47.5227
04/30/2012,47.89,21874,47.97,47.97,47.6653
04/27/2012,47.95,55581,48.06,48.06,47.79
04/26/2012,47.9,24820,47.59,47.99,47.5
04/25/2012,47.672,15263,47.71,47.71,47.441
04/24/2012,47.0368,9661,46.97,47.318999999999996,46.97
04/23/2012,46.71,32089,46.72,46.73,46.358999999999995
04/20/2012,47.358999999999995,9495,47.21,47.53,47.1
04/19/2012,46.95,13200,47.2,47.21,46.7408
04/18/2012,47.1199,18903,47.16,47.2,46.94
04/17/2012,47.15,8056,47.0,47.265,46.78
04/16/2012,46.6899,11227,46.8,46.85,46.51
04/13/2012,46.64,15793,47.09,47.09,46.63
04/12/2012,46.9911,24614,46.57,47.06,46.57
04/11/2012,46.24,17453,46.42,46.49,46.1607
04/10/2012,45.69,49387,46.43,46.43,45.6
04/09/2012,46.358999999999995,17239,46.25,46.43,46.148999999999994
04/05/2012,46.55,19445,46.22,46.7049,46.22
04/04/2012,46.4,27650,46.6,46.6,46.15
04/03/2012,47.15,22848,47.59,47.59,46.8999
04/02/2012,47.519,23873,46.9,47.62,46.9
03/30/2012,47.01,21746,47.02,47.065,46.74
03/29/2012,46.5316,64873,46.39,46.72,46.21
03/28/2012,47.16,21607,47.52,47.52,46.9737
03/27/2012,47.57899999999999,47219,47.78,47.8,47.53
03/26/2012,47.57,19635,47.42,47.57,47.2
03/23/2012,46.85,20965,46.73,46.86,46.45
03/22/2012,46.77,24628,46.9,46.9,46.56
03/21/2012,47.31,30779,47.4,47.4,47.09
03/20/2012,47.56,38261,47.71,47.71,47.39
03/19/2012,48.07,26969,48.03,48.21,47.91
03/16/2012,48.35,15310,48.36,48.36,48.1201
03/15/2012,48.05,12636,48.01,48.13,47.81
03/14/2012,47.765,40748,48.24,48.24,47.69
03/13/2012,48.31,28647,47.86,48.31,47.7274
03/12/2012,47.39,19303,47.57,47.57,47.1801
03/09/2012,47.478,20500,47.75,47.8,47.4401
03/08/2012,47.77,30459,47.43,47.82,47.34
03/07/2012,46.672,21500,46.54,46.72,46.32
03/06/2012,46.08,34103,46.5,46.5,45.89
03/05/2012,47.54,33384,47.81,47.81,47.34
03/02/2012,47.85,32358,47.75,47.88,47.61
03/01/2012,47.8,98971,47.77,47.84,47.56
02/29/2012,47.64,41127,48.22,48.22,47.552
02/28/2012,47.99,28978,47.74,47.99,47.74
02/27/2012,47.4,279625,47.29,47.501999999999995,46.98
02/24/2012,47.65,62648,47.7,47.8,47.52
02/23/2012,47.29,26104,47.1,47.34,46.95
02/22/2012,47.01,10296,47.14,47.14,46.88
02/21/2012,47.0799,62299,47.31,47.31,46.98
02/17/2012,47.26,28658,47.47,47.47,47.1125
02/16/2012,46.95,30634,46.49,46.95,46.38
02/15/2012,46.47,86769,46.57,46.82,46.43
02/14/2012,45.913999999999994,33929,46.03,46.145,45.7301
02/13/2012,45.93,10061,46.12,46.12,45.7667
02/10/2012,45.6,27611,45.78,45.78,45.51
02/09/2012,46.28,24546,46.16,46.47,46.1455
02/08/2012,46.11,19257,45.95,46.17,45.92
02/07/2012,45.69,22321,45.66,45.735,45.3795
02/06/2012,45.65,23826,45.55,45.65,45.46
02/03/2012,45.89,18918,45.84,45.9799,45.65
02/02/2012,45.46,14279,45.5,45.6,45.37
02/01/2012,45.32,29117,45.31,45.4732,45.07
01/31/2012,44.56,24726,44.89,44.91,44.34
01/30/2012,44.47,40138,44.42,44.53,44.18
01/27/2012,44.93,43408,44.74,45.05,44.692
01/26/2012,44.83,29278,45.37,45.37,44.73
01/25/2012,44.74,45547,44.36,44.83,44.02
01/24/2012,44.28,40668,44.05,44.2922,43.98
01/23/2012,44.5393,24896,44.48,44.6759,44.318000000000005
01/20/2012,44.2,31540,44.02,44.21,43.86
01/19/2012,43.76,30898,43.71,43.99,43.44
01/18/2012,43.08,76382,42.62,43.09,42.6076
01/17/2012,42.4,53174,42.54,42.6,42.33
01/13/2012,41.79,24150,41.86,41.87,41.5
01/12/2012,42.13,15548,42.05,42.13,41.84
01/11/2012,41.75,76790,41.65,41.78,41.45
01/10/2012,41.76,46282,41.82,42.05,41.66
01/09/2012,41.09,22645,41.23,41.23,40.85
01/06/2012,40.87,18372,41.31,41.31,40.75
01/05/2012,41.33,22169,41.3,41.33,41.0
01/04/2012,41.49,35091,41.61,41.65,41.27
01/03/2012,41.66,40240,41.54,41.8199,41.29
12/30/2011,40.7,94783,40.55,40.85,40.55
12/29/2011,40.75,69536,40.51,40.75,40.31
12/28/2011,40.38,71537,40.99,41.0,40.24
12/27/2011,41.01,41880,41.05,41.1,40.96
12/23/2011,41.05,36411,41.11,41.11,40.851
12/22/2011,40.9101,44197,40.53,40.99,40.53
12/21/2011,40.35,42180,40.56,40.56,40.04
12/20/2011,42.12,36636,41.59,42.1369,41.59
12/19/2011,40.649,58656,41.25,41.25,40.56
12/16/2011,41.28,42947,41.4,41.69,41.2
12/15/2011,41.257,72591,41.51,41.51,41.184
12/14/2011,40.91,77096,41.35,41.43,40.87
12/13/2011,41.47,22695,42.1,42.35,41.363
12/12/2011,41.79,30277,42.25,42.25,41.6
12/09/2011,43.0535,10309,42.81,43.201,42.8
12/08/2011,42.37,73560,43.43,43.43,42.37
12/07/2011,43.85,73024,43.43,43.98,43.27
12/06/2011,43.63,36084,43.68,43.82,43.48
12/05/2011,43.92,38793,44.0,44.21,43.6996
12/02/2011,43.63,16469,44.1,44.1,43.496
12/01/2011,43.71,16206,43.76,43.828,43.57
11/30/2011,44.09,55144,43.64,44.09,43.64
11/29/2011,42.02,16555,42.14,42.29,41.9
11/28/2011,41.82,24509,42.02,42.02,41.5
11/25/2011,40.498000000000005,6799,40.4,40.94,40.4
11/23/2011,40.44,33688,41.02,41.02,40.42
11/22/2011,41.46,33398,41.41,41.6,41.12
11/21/2011,41.33,28684,41.62,41.62,40.9235
11/18/2011,42.41,23181,42.82,42.82,42.25
11/17/2011,42.12,51688,42.79,42.91,42.034
11/16/2011,42.82,57307,43.24,43.568999999999996,42.81
11/15/2011,44.11,14905,44.0,44.269,43.57
11/14/2011,44.01,13276,44.44,44.44,43.88
11/11/2011,44.68,15931,44.21,44.854,44.201
11/10/2011,43.99,44615,44.23,44.57,43.76
11/09/2011,43.87,52716,44.62,44.79,43.72
11/08/2011,45.83,23580,45.24,45.83,45.119
11/07/2011,45.4,34127,45.23,45.5,44.79
11/04/2011,45.233999999999995,37922,45.46,45.46,44.8318
11/03/2011,45.56,9034,45.53,45.5601,44.8615
11/02/2011,44.9064,9850,45.21,45.21,44.58
11/01/2011,44.39,57949,44.01,44.63,44.0
10/31/2011,45.49,25702,46.12,46.12,45.49
10/28/2011,47.29,11591,46.97,47.31,46.894
10/27/2011,47.086999999999996,36195,46.58,47.35,46.47
10/26/2011,44.7504,8070,44.74,44.8,44.2944
10/25/2011,44.5,19182,45.0,45.0,44.5
10/24/2011,45.35,18424,44.82,45.53,44.82
10/21/2011,44.52,15782,43.94,44.52,43.94
10/20/2011,43.68,16529,43.87,43.87,43.16
10/19/2011,43.92,18793,44.59,44.59,43.806999999999995
10/18/2011,44.516000000000005,18422,44.16,44.82,43.57
10/17/2011,44.288000000000004,6038,45.27,45.27,44.175
10/14/2011,44.95,4219,45.07,45.07,44.6508
10/13/2011,44.45,9915,44.34,44.55,43.95
10/12/2011,44.1212,14854,43.74,44.57,43.74
10/11/2011,43.05,8143,42.5,43.25,42.5
10/10/2011,43.3,16210,42.6,43.43,42.6
10/07/2011,41.9,54853,42.35,42.5,41.9
10/06/2011,42.14,8917,41.2,42.14,41.12
10/05/2011,41.06,25010,40.43,41.156000000000006,40.131
10/04/2011,40.38,29973,39.24,40.38,39.12
10/03/2011,39.9,32110,40.8,40.92,39.9
09/30/2011,41.0,27817,41.71,41.74,41.0
09/29/2011,42.39,23812,43.0,43.0,41.881
09/28/2011,41.82,19723,42.74,42.74,41.82
09/27/2011,42.494,25964,42.36,43.04,42.36
09/26/2011,41.69,19975,41.18,41.7,40.8
09/23/2011,41.3508,9587,41.26,41.61,41.26
09/22/2011,41.03,35881,41.57,41.57,40.6
09/21/2011,42.7,32434,44.05,44.05,42.7
09/20/2011,44.1,14453,44.34,44.48,43.931000000000004
09/19/2011,44.35,46009,44.13,44.35,43.7551
09/16/2011,45.32,33817,45.26,45.5,44.98
09/15/2011,45.123999999999995,8658,44.9806,45.16,44.6706
09/14/2011,44.75,16556,44.56,44.891999999999996,43.9
09/13/2011,44.89,7893,44.98,45.129,44.39
09/12/2011,45.08,32164,44.75,45.08,44.23
09/09/2011,45.21,17873,45.83,45.83,45.02
09/08/2011,46.5,58267,46.85,47.06,46.376000000000005
09/07/2011,47.29,6586,46.93,47.458999999999996,46.9
09/06/2011,46.47,35801,46.24,46.477,45.69
09/02/2011,47.396,10156,47.52,47.7,47.25
09/01/2011,48.17100000000001,32988,48.57,48.798,48.0478
08/31/2011,48.39,66275,48.44,48.7,48.16
08/30/2011,47.83,27122,47.59,47.85,47.27
08/29/2011,47.55,15195,47.11,47.663999999999994,47.11
08/26/2011,46.37,10342,45.64,46.48,45.396
08/25/2011,45.8632,14883,46.71,46.71,45.6655
08/24/2011,46.6,30969,46.34,46.775,46.131
08/23/2011,46.7235,13112,45.96,46.7235,45.958999999999996
08/22/2011,45.706,13929,46.29,46.29,45.34
08/19/2011,45.3788,27092,45.36,46.29,45.349
08/18/2011,45.629,118734,46.37,46.37,45.364
08/17/2011,47.65,212127,48.06,48.26,47.39
08/16/2011,47.533,16973,47.56,47.76,47.226000000000006
08/15/2011,48.0,42065,47.61,48.0,47.53
08/12/2011,46.9299,30230,47.16,47.16,46.63
08/11/2011,46.77,59757,45.49,47.16,45.25
08/10/2011,44.84,156328,45.98,45.98,44.81
08/09/2011,47.1,59227,45.73,47.1,44.88
08/08/2011,44.23,61843,46.27,46.32,44.23
08/05/2011,47.92,33659,48.51,48.55,46.67
08/04/2011,48.24,51279,49.66,49.67,48.19
08/03/2011,50.95,35355,51.15,51.15,50.25
08/02/2011,50.98,15804,51.77,51.89,50.9
08/01/2011,51.89,40752,52.28,52.36,51.45
07/29/2011,52.04,27943,51.68,52.2035,51.68
07/28/2011,51.68,63553,51.83,52.104,51.61
07/27/2011,51.72,60707,52.25,52.39,51.53
07/26/2011,52.2763,19157,52.38,52.57899999999999,52.2
07/25/2011,52.24,17455,52.24,52.32,52.09
07/22/2011,52.29,35141,52.44,52.44,52.11
07/21/2011,52.168,19423,51.92,52.349,51.92
07/20/2011,51.558,7357,51.62,51.77,51.498000000000005
07/19/2011,51.36,13640,51.15,51.38,51.06
07/18/2011,50.638999999999996,32026,50.93,50.93,50.4266
07/15/2011,51.28,40730,51.2,51.42,51.08
07/14/2011,51.13,9946,51.37,51.718999999999994,51.03
07/13/2011,51.39,41846,51.47,51.94,50.87
07/12/2011,50.9,21703,51.0,51.119,50.868
07/11/2011,51.13,22960,51.67,51.67,51.05
07/08/2011,52.31,26170,52.38,52.38,52.03
07/07/2011,52.63,29319,52.46,52.76,52.45
07/06/2011,52.228,17496,52.32,52.32,52.0
07/05/2011,52.37,105851,52.51,52.51,52.16
07/01/2011,52.4,30926,51.66,52.44,51.66
06/30/2011,51.95,29589,51.6,52.0,51.6
06/29/2011,51.22,134455,51.01,51.3,50.85
06/28/2011,50.78,16454,50.38,50.78,50.34
06/27/2011,50.263000000000005,17359,49.71,50.34,49.64
06/24/2011,49.94,69715,50.21,50.33,49.78
06/23/2011,50.09,142533,49.88,50.09,49.5
06/22/2011,50.2,139483,50.27,50.65,50.2
06/21/2011,50.77,37447,50.4,50.8,50.33
06/20/2011,50.0001,46372,49.93,50.13,49.8028
06/17/2011,50.242,12816,50.53,50.53,50.1843
06/16/2011,50.11,105081,50.09,50.29,49.63
06/15/2011,50.29,12142,50.95,50.95,50.18
06/14/2011,51.44,14436,51.41,51.59,51.23
06/13/2011,50.68,17001,50.99,50.99,50.41
06/10/2011,50.69,24510,51.3,51.3,50.56
06/09/2011,51.7,27039,51.5,51.79,51.256
06/08/2011,51.23,31026,51.63,51.63,51.22
06/07/2011,51.74,9880,51.68,52.065,51.68
06/06/2011,51.4199,20592,51.58,51.85,51.34
06/03/2011,51.8991,9319,51.55,52.21,51.5088
06/02/2011,52.02,18495,52.2,52.2,51.61
06/01/2011,51.668,50375,52.53,52.53,51.6156
05/31/2011,52.63,18233,52.78,52.78,52.286
05/27/2011,51.79,10557,51.81,51.943000000000005,51.62
05/26/2011,51.32,23795,51.16,51.41,50.94
05/25/2011,51.02,21206,50.84,51.15,50.75
05/24/2011,50.9,18410,51.0,51.031000000000006,50.7599
05/23/2011,50.6159,16695,50.65,50.68,50.37
05/20/2011,51.47,15925,51.6,51.82,51.29
05/19/2011,51.861000000000004,11537,51.96,51.99,51.57899999999999
05/18/2011,51.625,17101,51.11,51.75,51.11
05/17/2011,51.05,23658,50.79,51.06,50.47
05/16/2011,50.79,26744,50.91,51.135,50.622
05/13/2011,50.9799,98246,51.61,51.61,50.73
05/12/2011,51.58,16311,51.34,51.64,50.9409
05/11/2011,51.34,23704,52.08,52.08,51.17
05/10/2011,52.28,10016,51.9,52.32,51.9
05/09/2011,51.9,16389,51.78,51.92,51.51
05/06/2011,51.5043,15083,52.07,52.1146,51.346000000000004
05/05/2011,51.041000000000004,39142,51.61,51.61,50.86
05/04/2011,51.83,45420,52.46,52.46,51.57
05/03/2011,52.28,14773,52.72,52.72,52.15
05/02/2011,52.87,27744,53.33,53.33,52.76
04/29/2011,52.85,108382,52.85,52.97,52.668
04/28/2011,52.53,21478,52.55,52.6363,52.3345
04/27/2011,52.65,246933,52.46,52.73,51.9581
04/26/2011,52.29,31364,52.4,52.408,52.0
04/25/2011,51.98,30584,52.2,52.2,51.71
04/21/2011,51.97,28128,52.0,52.11,51.8595
04/20/2011,51.65,26655,51.68,51.74,51.5
04/19/2011,50.94,12578,50.65,50.94,50.65
04/18/2011,50.61,78233,50.91,50.91,50.15
04/15/2011,51.4199,15717,51.43,51.54,51.17
04/14/2011,51.41,14921,51.23,51.475,51.0
04/13/2011,50.8756,17580,51.19,51.32,50.86
04/12/2011,50.716,12908,51.0,51.0,50.6
04/11/2011,51.03,54351,51.58,51.58,50.94
04/08/2011,51.48,61242,51.65,51.67,51.3
04/07/2011,51.07,42423,51.27,51.38,50.84
04/06/2011,51.55,26313,51.35,51.61,51.35
04/05/2011,51.15,19109,51.03,51.33,50.72
04/04/2011,51.13,17298,51.34,51.34,51.03
04/01/2011,51.09,133788,50.99,51.18,50.67
03/31/2011,50.59,93188,50.57,50.67,50.476000000000006
03/30/2011,50.568000000000005,125062,50.42,50.66,50.2312
03/29/2011,49.85,50394,49.63,49.92,49.522
03/28/2011,49.75,34184,49.95,49.99,49.75
03/25/2011,49.92,38517,50.12,50.28,49.92
03/24/2011,50.43,28181,50.35,50.474,49.89
03/23/2011,49.96,60146,49.59,50.06,49.25
03/22/2011,49.64,44878,49.85,49.85,49.39
03/21/2011,49.92,49017,49.32,49.97,49.32
03/18/2011,48.7488,5376,48.47,48.83,48.47
03/17/2011,47.76,11721,47.59,47.9,47.42
03/16/2011,46.6034,36396,47.43,47.5,46.17
03/15/2011,47.6944,142528,46.84,47.8,46.39
03/14/2011,48.99,21521,48.9,48.99,48.56
03/11/2011,49.92,9678,49.35,49.95,49.35
03/10/2011,49.85,19151,50.34,50.34,49.75
03/09/2011,50.94,16420,51.0,51.0,50.69
03/08/2011,50.76,13336,50.62,50.92,50.62
03/07/2011,50.518,16494,51.5,51.5,50.42
03/04/2011,50.92,63768,51.16,51.17,50.62
03/03/2011,51.1,55540,50.89,51.15,50.65
03/02/2011,50.373999999999995,163403,50.41,50.6,50.2001
03/01/2011,50.25,85264,51.03,51.03,50.13
02/28/2011,50.65,12441,50.43,50.74,50.43
02/25/2011,50.18,18274,49.96,50.19,49.878
02/24/2011,49.361999999999995,12724,49.58,49.58,48.9
02/23/2011,49.38,14542,49.19,49.53,49.0
02/22/2011,49.19,26351,49.89,49.89,49.1
02/18/2011,50.613,8471,50.68,50.6971,50.4
02/17/2011,50.5,13945,50.25,50.55,50.13
02/16/2011,50.16,23905,49.63,50.25,49.63
02/15/2011,49.6,23631,49.78,49.8,49.54
02/14/2011,49.97,18247,50.1,50.1,49.81100000000001
02/11/2011,49.65,15755,50.27,50.27,49.0
02/10/2011,49.69,21326,50.19,50.36,49.225
02/09/2011,50.126000000000005,26018,50.82,50.82,49.91
02/08/2011,50.88,17624,51.38,51.38,50.5
02/07/2011,51.5,22447,51.5,51.5,50.67
02/04/2011,51.0,24462,51.21,51.21,50.6
02/03/2011,50.99,28555,51.09,51.09,50.6133
02/02/2011,50.82,16189,51.21,51.21,50.63
02/01/2011,50.8563,54011,50.64,50.97,50.36
01/31/2011,50.08,12469,50.67,50.67,49.9
01/28/2011,49.82,46515,50.84,50.84,49.69
01/27/2011,50.84,132686,50.98,50.98,50.63
01/26/2011,51.11600000000001,14770,51.19,51.19,50.9
01/25/2011,50.9,23399,50.8,50.9,50.494
01/24/2011,50.92,36364,50.76,51.00899999999999,50.5
01/21/2011,50.59,16359,51.04,51.04,50.5
01/20/2011,50.65,20638,51.0,51.0,50.34
01/19/2011,51.2,55968,51.82,51.82,51.0207
01/18/2011,51.42,40744,51.68,51.68,51.242
01/14/2011,51.45,24972,51.25,51.5,51.14
01/13/2011,51.35,23258,52.04,52.04,51.28
01/12/2011,51.34,26175,51.29,51.37,51.0
01/11/2011,50.56,25187,50.77,50.77,50.46
01/10/2011,50.38,33892,50.44,50.44,50.0
01/07/2011,50.59,24206,51.05,51.05,50.2501
01/06/2011,50.76,25208,51.27,51.27,50.58
01/05/2011,51.3,24150,51.04,51.34,51.0
01/04/2011,51.08,37106,51.36,51.36,50.75
01/03/2011,50.91,73064,51.23,51.23,50.76
12/31/2010,50.6,14827,50.28,50.61,50.18
12/30/2010,50.28,20309,50.26,50.28,50.1
12/29/2010,50.2399,30195,50.36,50.36,50.1
12/28/2010,49.7,22455,49.94,49.94,49.6399
12/27/2010,49.79,40137,49.69,49.7999,49.47
12/23/2010,49.69,270178,50.17,50.17,49.54
12/22/2010,49.62,10911,49.58,49.62,49.5
12/21/2010,49.62,15994,49.82,49.82,49.53
12/20/2010,49.2,134388,49.42,49.42,48.98
12/17/2010,49.03,10280,49.32,49.32,48.968
12/16/2010,49.42,15073,49.46,49.46,49.075
12/15/2010,49.33,27247,49.79,49.86,49.25
12/14/2010,49.9,30277,50.39,50.52,49.82
12/13/2010,49.66,74531,49.71,49.97,49.54
12/10/2010,49.42,44672,49.26,49.42,49.115
12/09/2010,49.216,16371,49.39,49.39,49.01
12/08/2010,49.25,20519,49.29,49.41,48.97
12/07/2010,49.28,34951,49.99,49.99,49.28
12/06/2010,49.4799,29875,49.26,49.5,49.15
12/03/2010,49.61,10698,49.24,49.659,49.1531
12/02/2010,49.45,25846,48.73,49.46,48.73
12/01/2010,48.67,19048,48.53,48.74,48.28
11/30/2010,47.46,18244,47.27,47.702,47.17
11/29/2010,47.81,40322,47.62,47.83,47.2834
11/26/2010,47.71,14361,47.73,47.85,47.629
11/24/2010,48.41,39232,48.36,48.42,48.146
11/23/2010,47.66,44522,48.03,48.03,47.4799
11/22/2010,48.81,32751,48.8,48.989,48.254
11/19/2010,49.2,20181,49.1,49.21,48.773999999999994
11/18/2010,49.64,24997,49.56,49.72,49.45
11/17/2010,48.881,37407,48.9,49.09,48.81
11/16/2010,48.77,78387,49.52,49.52,48.5
11/15/2010,49.75,28911,50.21,50.25,49.75
11/12/2010,49.96,44110,50.47,50.47,49.75
11/11/2010,50.53,26444,50.68,50.68,50.31
11/10/2010,51.174,66488,51.18,51.24,50.61
11/09/2010,51.0,70091,52.09,52.09,51.0
11/08/2010,51.9199,92545,52.08,52.51,51.67
11/05/2010,52.21,89508,52.14,52.27,52.0
11/04/2010,52.34,90657,52.53,54.18,51.6
11/03/2010,51.36,76503,51.01,51.36,50.66
11/02/2010,50.83,41188,50.83,50.86,50.6452
11/01/2010,50.23,19195,50.39,50.43600000000001,49.92
