Date, Close/Last, Volume, Open, High, Low
01/06/2020,81.19,347717,81.32,81.34,81.115
01/03/2020,81.32,285294,81.25,81.445,81.2
01/02/2020,81.51,483686,81.6,81.67,81.29
12/31/2019,81.41,218460,81.36,81.4183,81.2684
12/30/2019,81.33,131667,81.39,81.4924,81.28
12/27/2019,81.5,152590,81.31,81.53,81.2989
12/26/2019,81.18,151646,81.22,81.3,81.1107
12/24/2019,81.17,58872,81.01,81.21,81.01
12/23/2019,81.04,62335,80.96,81.04,80.91
12/20/2019,81.26,154162,81.03,81.26,81.03
12/19/2019,81.11,215289,81.23,81.27,81.1
12/18/2019,81.3,164136,81.24,81.4,81.1752
12/17/2019,81.25,173102,81.02,81.25,80.99
12/16/2019,80.99,137536,81.08,81.08,80.89
12/13/2019,80.99,489166,80.77,81.0,80.67
12/12/2019,80.66,122805,80.74,80.7439,80.595
12/11/2019,80.63,188809,80.39,80.6457,80.35
12/10/2019,80.11,132097,80.18,80.19,80.0616
12/09/2019,80.01,164223,80.15,80.1999,80.0
12/06/2019,79.9,101566,79.86,79.94,79.85
12/05/2019,79.76,98856,79.71,79.8659,79.545
12/04/2019,79.45,284227,79.46,79.64,79.4
12/03/2019,79.36,153124,79.38,79.39,79.22
12/02/2019,79.28,114393,79.6,79.6,79.22
11/29/2019,79.92,56492,80.05,80.09,79.905
11/27/2019,80.02,74744,80.16,80.18,80.0
11/26/2019,80.06,116012,79.97,80.17,79.9
11/25/2019,79.92,128908,80.05,80.05,79.88
11/22/2019,79.85,128964,79.98,80.0,79.8415
11/21/2019,79.82,81083,79.86,79.86,79.6929
11/20/2019,79.77,82716,79.7,79.81,79.6461
11/19/2019,79.63,113870,79.61,79.63,79.54
11/18/2019,79.8,114543,79.99,79.99,79.71
11/15/2019,80.05,162326,79.92,80.19,79.92
11/14/2019,80.04,91831,79.99,80.0462,79.9333
11/13/2019,79.6,122608,79.61,79.67,79.5481
11/12/2019,79.68,69474,79.83,79.84,79.68
11/11/2019,79.8,97662,79.99,79.99,79.7
11/08/2019,79.81,119884,79.79,79.96,79.7436
11/07/2019,79.87,95264,80.08,80.2,79.6846
11/06/2019,80.19,268337,79.92,80.3328,79.92
11/05/2019,79.99,165040,80.22,80.24,79.97
11/04/2019,80.35,204541,80.59,80.663,80.31
11/01/2019,80.7,108649,80.4,80.7,80.26
10/31/2019,80.7,114329,80.52,80.7,80.38
10/30/2019,80.5,317772,80.46,80.5,80.0
10/29/2019,80.39,189359,80.51,80.56,80.28
10/28/2019,80.42,134480,80.67,80.67,80.41
10/25/2019,80.7,66965,80.71,80.7695,80.61
10/24/2019,80.63,81976,80.66,80.7,80.51
10/23/2019,80.67,75623,80.49,80.67,80.41
10/22/2019,80.42,107609,80.34,80.57,80.34
10/21/2019,80.26,137165,80.35,80.48,80.26
10/18/2019,80.59,60107,80.56,80.6655,80.49
10/17/2019,80.44,89592,80.36,80.62,80.35
10/16/2019,80.35,131585,80.41,80.41,80.19
10/15/2019,80.46,330385,80.42,80.6689,80.42
10/14/2019,80.49,153999,80.42,80.56,80.365
10/11/2019,80.45,201496,80.46,80.59,80.3939
10/10/2019,80.45,295422,80.41,80.45,80.342
10/09/2019,80.5,117548,80.54,80.54,80.35300000000001
10/08/2019,80.46,55623,80.43,80.5082,80.3571
10/07/2019,80.35,138075,80.72,80.7612,80.33
10/04/2019,80.94,83825,80.52,80.94,80.51
10/03/2019,80.38,90923,80.18,80.4016,80.0222
10/02/2019,79.91,76277,80.02,80.03,79.8904
10/01/2019,80.08,131274,80.13,80.21,80.0
09/30/2019,80.6,139774,80.44,80.6299,80.34
09/27/2019,80.44,109812,80.64,80.66,80.2701
09/26/2019,80.48,86857,80.55,80.5694,80.42
09/25/2019,80.36,62331,80.53,80.53,80.2053
09/24/2019,80.47,108225,80.69,80.8,80.47
09/23/2019,81.03,124235,81.08,81.2174,80.87
09/20/2019,81.04,161289,80.91,81.04,80.78
09/19/2019,80.71,68059,80.63,80.75,80.5811
09/18/2019,80.37,74414,80.48,80.6936,80.2
09/17/2019,80.4,84550,80.09,80.4,79.95
09/16/2019,80.03,59339,80.03,80.14,79.97
09/13/2019,79.91,153039,80.27,80.28,79.83
09/12/2019,80.62,186463,81.1,81.1,80.528
09/11/2019,80.44,126180,80.4,80.5599,80.35
09/10/2019,80.32,114452,80.85,80.85,80.31
09/09/2019,80.97,209471,81.39,81.42,80.91
09/06/2019,81.45,101231,81.52,81.52,81.36
09/05/2019,81.29,128584,81.47,81.69,81.21
09/04/2019,81.56,70994,81.37,81.59,81.18
09/03/2019,81.12,216575,80.99,81.25,80.98
08/30/2019,81.3,86757,80.82,81.33,80.82
08/29/2019,81.13,81197,81.05,81.1795,81.02
08/28/2019,81.08,63254,80.92,81.09,80.91
08/27/2019,80.92,67124,80.74,80.93,80.74
08/26/2019,80.65,70418,80.68,80.87,80.65
08/23/2019,80.72,117596,80.74,80.9,80.59
08/22/2019,80.8,56712,80.8,80.88,80.6811
08/21/2019,80.7,70581,80.64,80.7699,80.35
08/20/2019,80.47,64800,80.46,80.54,80.207
08/19/2019,80.47,63721,80.57,80.83,80.42
08/16/2019,80.96,59439,80.65,80.96,80.4
08/15/2019,80.4,184274,80.32,80.4,80.135
08/14/2019,79.95,657963,80.35,80.35,79.89
08/13/2019,80.41,1041605,80.15,80.49,80.0457
08/12/2019,80.42,261486,80.57,80.5779,80.26899999999999
08/09/2019,81.48,66657,81.48,81.58,81.408
08/08/2019,81.32,110797,81.18,81.41,81.07
08/07/2019,81.01,197054,81.15,81.21,80.998
08/06/2019,80.64,88050,80.66,80.73,80.54
08/05/2019,80.28,65677,80.5,80.5,80.2221
08/02/2019,80.72,77712,80.82,80.88,80.71
08/01/2019,80.88,75391,80.55,80.9499,80.55
07/31/2019,81.08,69532,81.06,81.19,80.76
07/30/2019,80.94,66872,81.01,81.11,80.93
07/29/2019,81.13,68769,81.08,81.14,81.0
07/26/2019,81.03,67357,81.13,81.23,80.98
07/25/2019,81.17,167997,81.22,81.249,81.005
07/24/2019,81.08,93424,81.03,81.19,81.01
07/23/2019,80.93,67369,80.89,80.95,80.82
07/22/2019,80.81,83246,80.75,80.84,80.62
07/19/2019,80.61,85454,80.53,80.67,80.53
07/18/2019,80.61,84808,80.6,80.688,80.44
07/17/2019,80.63,57288,80.63,80.6898,80.565
07/16/2019,80.44,322134,80.48,80.61,80.3746
07/15/2019,80.48,100769,80.34,80.5,80.17
07/12/2019,80.29,81958,80.17,80.29,80.04
07/11/2019,80.13,105052,80.42,80.44,80.0984
07/10/2019,80.3,112959,80.42,80.4588,80.29
07/09/2019,80.3,93924,80.26,80.43,80.2276
07/08/2019,80.47,127346,80.55,80.5955,80.45
07/05/2019,80.65,97223,80.7,80.7,80.335
07/03/2019,80.8,87255,80.71,80.86,80.62
07/02/2019,80.54,266015,80.54,80.72,80.5125
07/01/2019,80.49,98511,80.43,80.56,80.3328
06/28/2019,80.42,118848,80.35,80.4395,80.29
06/27/2019,80.29,76064,80.11,80.32,80.0
06/26/2019,79.99,153311,79.96,80.1,79.92
06/25/2019,79.98,94093,80.16,80.21,79.91
06/24/2019,80.15,274219,80.17,80.22,80.0884
06/21/2019,80.13,188089,80.2,80.3187,80.04
06/20/2019,80.54,88246,80.57,80.6,80.32
06/19/2019,80.13,82731,79.59,80.2,79.4913
06/18/2019,79.65,61206,79.46,79.66,79.45
06/17/2019,79.02,105733,78.96,79.04,78.9184
06/14/2019,78.98,65496,78.99,79.09,78.92
06/13/2019,79.11,148380,78.97,79.20100000000001,78.86
06/12/2019,79.08,90007,79.1,79.16,79.05
06/11/2019,79.075,61172,79.03,79.075,78.9856
06/10/2019,78.96,119893,78.94,78.99,78.9
06/07/2019,78.87,67510,78.72,78.87,78.66
06/06/2019,78.64,64544,78.52,78.74,78.52
06/05/2019,78.37,90561,78.53,78.59,78.37
06/04/2019,78.12,141500,78.26,78.26,78.0043
06/03/2019,77.86,154989,77.64,77.86,77.562
05/31/2019,78.17,88619,78.36,78.36,77.98
05/30/2019,78.11,75144,78.1,78.17,78.06
05/29/2019,77.95,77878,78.03,78.08,77.95
05/28/2019,77.91,257713,77.89,78.07,77.83
05/24/2019,77.78,68374,77.83,77.85,77.72
05/23/2019,77.55,84933,77.64,77.68,77.51
05/22/2019,77.71,40293,77.83,77.92,77.6575
05/21/2019,77.89,175475,77.84,77.9,77.7
05/20/2019,77.68,40385,77.66,77.75,77.5603
05/17/2019,77.62,67459,77.65,77.76,77.5265
05/16/2019,77.68,54463,77.68,77.773,77.65
05/15/2019,77.7,67249,77.59,77.73,77.55
05/14/2019,77.55,59270,77.39,77.59,77.35
05/13/2019,77.25,101545,77.44,77.75,77.102
05/10/2019,77.72,102612,77.72,77.72,77.4
05/09/2019,77.58,247077,77.56,77.72,77.34
05/08/2019,77.57,143389,77.58,77.7216,77.54
05/07/2019,77.66,79971,77.84,77.8934,77.66
05/06/2019,77.91,161251,77.77,77.91,77.7453
05/03/2019,77.93,80389,77.79,77.93,77.75
05/02/2019,77.62,123034,77.79,77.8938,77.5
05/01/2019,77.7,218351,77.84,78.0291,77.7
04/30/2019,78.13,155236,78.09,78.14,77.94
04/29/2019,77.89,127343,77.91,77.99,77.8145
04/26/2019,77.97,111042,77.98,78.07,77.92
04/25/2019,77.83,79802,77.69,77.86,77.63
04/24/2019,77.94,80075,78.0,78.06,77.86
04/23/2019,77.98,104835,77.85,78.0,77.85
04/22/2019,77.84,80573,77.85,77.898,77.8
04/18/2019,77.83,67259,77.92,77.92,77.81
04/17/2019,77.8,60597,77.83,77.89,77.8
04/16/2019,77.83,76371,77.79,77.86,77.65
04/15/2019,77.65,75933,77.7,77.755,77.59
04/12/2019,77.7344,89832,77.71,77.79,77.66
04/11/2019,77.79,89226,77.88,77.96,77.79
04/10/2019,78.05,182641,78.04,78.07,77.93
04/09/2019,77.95,107401,77.96,78.05,77.92
04/08/2019,77.9,90633,78.01,78.1,77.83
04/05/2019,78.03,79018,77.88,78.06,77.8701
04/04/2019,77.9,144979,77.92,77.99,77.885
04/03/2019,77.9,122486,77.87,77.93,77.7
04/02/2019,77.91,126723,78.0,78.0,77.77
04/01/2019,77.86,138983,77.85,78.0,77.75
03/29/2019,78.25,84674,78.11,78.25,78.0434
03/28/2019,78.04,54100,77.94,78.0802,77.8995
03/27/2019,77.91,88621,78.1,78.15,77.91
03/26/2019,78.23,73968,78.11,78.23,78.04
03/25/2019,78.08,218250,77.91,78.09,77.885
03/22/2019,77.9,266116,77.95,77.97,77.76
03/21/2019,78.09,126786,78.08,78.154,77.96
03/20/2019,77.99,339386,77.62,78.08,77.47
03/19/2019,77.6,105361,77.63,77.68,77.54
03/18/2019,77.57,160249,77.48,77.5794,77.45
03/15/2019,77.5,63929,77.44,77.5,77.3264
03/14/2019,77.25,124212,77.25,77.28,77.1733
03/13/2019,77.32,118056,77.24,77.32,77.16
03/12/2019,77.31,194706,77.14,77.31,77.13
03/11/2019,77.13,204246,77.08,77.1605,77.03
03/08/2019,76.95,67686,76.71,76.99,76.7
03/07/2019,76.89,115131,76.98,76.98,76.835
03/06/2019,76.99,130739,76.82,77.1163,76.8101
03/05/2019,76.96,89060,76.85,76.96,76.8008
03/04/2019,76.84,130643,76.92,76.93,76.771
03/01/2019,76.91,113431,77.01,77.01,76.83
02/28/2019,77.37,468202,77.31,77.4045,77.2252
02/27/2019,77.37,95369,77.44,77.44,77.2
02/26/2019,77.31,88143,77.28,77.49,77.19
02/25/2019,77.11,124116,77.25,77.29,77.07
02/22/2019,77.04,67550,77.11,77.237,77.03
02/21/2019,76.91,116514,77.1,77.11,76.53
02/20/2019,77.1,94346,77.1,77.11,76.94
02/19/2019,76.96,99632,76.93,77.1,76.93
02/15/2019,76.92,132350,76.95,77.0,76.9088
02/14/2019,76.97,144184,76.92,77.0,76.77
02/13/2019,76.84,126005,76.95,76.98,76.83
02/12/2019,76.8,67862,76.87,76.87,76.7
02/11/2019,76.665,67321,76.85,76.8668,76.56
02/08/2019,76.85,67191,76.81,76.99,76.8
02/07/2019,77.03,122896,77.0,77.03,76.815
02/06/2019,77.07,141342,77.02,77.1,76.935
02/05/2019,77.14,69118,76.97,77.21,76.9664
02/04/2019,76.75,94813,76.74,76.8499,76.63
02/01/2019,76.91,171600,76.78,76.95,76.64
01/31/2019,77.23,175638,77.01,77.285,76.93
01/30/2019,76.7,95546,76.38,76.7,76.3407
01/29/2019,76.48,133257,76.24,76.48,76.24
01/28/2019,76.28,174347,76.39,76.46,76.1901
01/25/2019,76.55,116779,76.57,76.68,76.55
01/24/2019,76.65,60524,76.55,76.66,76.54
01/23/2019,76.44,61881,76.34,76.51,76.09
01/22/2019,76.01,153337,76.07,76.1,75.86
01/18/2019,76.14,103467,76.01,76.14,75.96
01/17/2019,75.93,71090,75.71,75.93,75.6552
01/16/2019,75.71,124843,75.8,75.9,75.62
01/15/2019,75.61,56459,75.62,75.6391,75.4928
01/14/2019,75.52,160864,75.31,75.52,75.3
01/11/2019,75.47,152903,75.38,75.7,75.24
01/10/2019,75.46,197852,75.36,75.49,75.27
01/09/2019,75.51,136201,75.57,75.719,75.46
01/08/2019,75.4,91509,75.34,75.4,75.24
01/07/2019,75.4,121063,75.3,75.5049,75.29
01/04/2019,75.14,150141,74.99,75.3099,74.96
01/03/2019,74.95,87651,74.75,74.95,74.68
01/02/2019,74.75,99286,74.52,74.75,74.51
12/31/2018,74.54,308712,74.49,74.6915,74.16
12/28/2018,74.41,259847,74.39,74.8,74.31
12/27/2018,74.31,227722,74.01,74.3555,74.01
12/26/2018,74.09,144090,74.24,74.55,74.02
12/24/2018,74.01,127339,74.22,74.32,74.01
12/21/2018,74.33,140549,74.58,74.611,74.26
12/20/2018,74.7,152969,74.89,74.94,74.5401
12/19/2018,74.74,313134,74.73,74.91,74.6328
12/18/2018,74.66,279368,74.74,74.8999,74.64
12/17/2018,74.53,125617,74.54,74.7,74.52
12/14/2018,74.56,74305,74.49,74.66,74.42
12/13/2018,74.48,145143,74.35,74.62,74.35
12/12/2018,74.4,153897,74.41,74.59,74.3101
12/11/2018,74.19,272046,74.18,74.3799,74.11
12/10/2018,74.19,79656,74.15,74.27,74.0301
12/07/2018,74.11,101503,74.15,74.31,74.09
12/06/2018,74.15,307176,73.98,74.15,73.935
12/04/2018,74.1,207103,74.12,74.18,73.9
12/03/2018,74.0,233136,74.19,74.247,74.0
11/30/2018,74.06,109346,73.87,74.16,73.87
11/29/2018,73.89,82524,74.06,74.1535,73.867
11/28/2018,73.9,263593,73.44,74.01,73.334
11/27/2018,73.4,271059,73.29,73.5046,73.2303
11/26/2018,73.53,256582,73.53,73.68,73.41
11/23/2018,73.5504,48946,73.67,73.7423,73.5301
11/21/2018,73.77,246381,73.72,73.8999,73.69
11/20/2018,73.63,289147,73.54,73.84,73.5
11/19/2018,73.96,270249,74.15,74.15,73.9203
11/16/2018,74.31,332145,74.09,74.31,73.9501
11/15/2018,74.05,206296,74.19,74.19,73.928
11/14/2018,74.19,86077,74.2,74.34,74.09
11/13/2018,74.11,207039,74.17,74.25,74.03
11/12/2018,74.09,111175,74.28,74.32,74.0834
11/09/2018,74.2,119403,74.21,74.29,74.07
11/08/2018,74.21,130737,74.35,74.477,74.19
11/07/2018,74.495,78632,74.6,74.6391,74.429
11/06/2018,74.35,166440,74.5,74.5593,74.2638
11/05/2018,74.44,135137,74.32,74.47,74.32
11/02/2018,74.38,116448,74.49,74.4999,74.25
11/01/2018,74.32,102186,74.19,74.52,74.19
10/31/2018,74.5,124183,74.8,74.8,74.36
10/30/2018,74.76,97279,74.5,74.76,74.48
10/29/2018,74.51,129069,74.7,74.88,74.5
10/26/2018,74.72,85160,74.64,74.732,74.55
10/25/2018,74.7,52789,74.57,74.8,74.4958
10/24/2018,74.4,86064,74.65,74.7201,74.4
10/23/2018,74.66,106038,74.52,74.71,74.5
10/22/2018,74.64,100218,74.82,74.82,74.6
10/19/2018,74.66,182613,74.76,74.76,74.6
10/18/2018,74.76,87437,74.87,74.936,74.71
10/17/2018,74.97,83288,75.15,75.15,74.83
10/16/2018,75.16,66741,74.93,75.18,74.89
10/15/2018,74.81,87615,74.82,74.95,74.7821
10/12/2018,74.89,78292,74.87,74.9805,74.8032
10/11/2018,74.8,109121,74.7,74.8399,74.6
10/10/2018,74.58,68061,74.78,74.78,74.5
10/09/2018,74.8,78354,74.63,74.8,74.54
10/08/2018,74.6797,52041,74.6,74.75,74.6
10/05/2018,74.67,161810,74.8,74.8999,74.5
10/04/2018,74.95,62216,75.13,75.15,74.8
10/03/2018,75.39,109926,75.64,75.8,75.27
10/02/2018,75.54,79291,75.51,75.64,75.4595
10/01/2018,75.43,138763,75.54,75.63,75.43
09/28/2018,75.83,188840,75.88,75.94,75.8
09/27/2018,75.93,51747,75.89,75.9346,75.8
09/26/2018,75.6431,199614,75.55,75.6431,75.46
09/25/2018,75.48,191774,75.3,75.54,75.2524
09/24/2018,75.44,68537,75.35,75.53,75.35
09/21/2018,75.37,58177,75.28,75.4728,75.2653
09/20/2018,75.24,62305,75.15,75.31,75.1498
09/19/2018,75.03,40809,75.01,75.08,74.8801
09/18/2018,74.87,94925,74.99,75.06,74.8187
09/17/2018,75.06,206080,74.99,75.12,74.93
09/14/2018,75.13,80107,75.1,75.23,74.91
09/13/2018,74.96,104976,74.98,75.13,74.8201
09/12/2018,74.63,83549,74.53,74.7499,74.48
09/11/2018,74.45,144903,74.45,74.45,74.32
09/10/2018,74.56,131449,74.6,74.676,74.4615
09/07/2018,74.62,64321,74.62,74.7,74.55
09/06/2018,74.78,152158,74.79,74.83,74.6
09/05/2018,74.53,132311,74.4,74.68,74.39
09/04/2018,74.52,278987,74.37,74.52,74.31
08/31/2018,74.91,146911,74.8,75.1,74.8
08/30/2018,75.08,94162,75.17,75.3,74.843
08/29/2018,75.29,132538,75.53,75.5558,75.27
08/28/2018,75.56,57869,75.62,75.6438,75.55
08/27/2018,75.61,46013,75.55,75.66,75.55
08/24/2018,75.6,70114,75.51,75.66,75.45100000000001
08/23/2018,75.43,45524,75.75,75.75,75.43
08/22/2018,75.68,54006,75.77,75.77,75.58
08/21/2018,75.44,97872,75.43,75.63,75.4201
08/20/2018,75.48,57380,75.27,75.49,75.241
08/17/2018,75.43,129322,75.13,75.49,75.13
08/16/2018,75.15,135054,75.16,75.319,75.09
08/15/2018,74.99,124655,75.04,75.13,74.84
08/14/2018,75.24,112903,75.09,75.24,74.9314
08/13/2018,74.83,239812,74.5,74.83,74.49
08/10/2018,75.0,230078,75.52,75.52,74.95
08/09/2018,75.54,59996,75.68,75.71,75.5242
08/08/2018,75.88,148579,75.75,75.89,75.6724
08/07/2018,75.76,42917,75.91,75.91,75.714
08/06/2018,75.76,94341,76.01,76.01,75.76
08/03/2018,75.97,60331,75.89,76.01,75.8501
08/02/2018,75.94,46597,75.72,75.96,75.71
08/01/2018,76.0,237187,76.07,76.1497,75.89
07/31/2018,76.53,53576,76.59,76.6,76.47
07/30/2018,76.5,73300,76.67,76.729,76.5
07/27/2018,76.6,22839,76.62,76.74,76.6
07/26/2018,76.59,52317,76.62,76.6999,76.5301
07/25/2018,76.6,59187,76.35,76.61,76.34
07/24/2018,76.21,81425,76.15,76.24,76.14
07/23/2018,76.26,67620,76.37,76.37,76.15
07/20/2018,76.34,69769,76.42,76.47,76.1801
07/19/2018,76.33,40113,76.25,76.33,76.14
07/18/2018,76.25,75092,76.25,76.42,76.22
07/17/2018,76.4,55553,76.16,76.4,76.15
07/16/2018,76.33,53395,76.35,76.45,76.19
07/13/2018,76.51,61068,76.29,76.55,76.28
07/12/2018,76.19,58499,76.19,76.21,76.0
07/11/2018,76.07,126191,76.2,76.22,76.0
07/10/2018,76.2,50333,75.96,76.2188,75.96
07/09/2018,76.24,83318,76.1,76.31,76.1
07/06/2018,76.09,71943,75.85,76.09,75.5237
07/05/2018,75.5,96145,75.58,75.65,75.44
07/03/2018,75.28,39744,75.19,75.36,75.16
07/02/2018,75.15,81265,75.07,75.15,74.9
06/29/2018,75.3,60232,75.59,75.5903,75.3
06/28/2018,75.31,42443,75.34,75.42,75.21
06/27/2018,75.29,60211,75.48,75.5,75.25
06/26/2018,75.26,32591,75.29,75.32,75.16
06/25/2018,75.25,62684,75.49,75.49,75.15
06/22/2018,75.51,60433,75.54,75.6468,75.41
06/21/2018,75.26,47549,75.16,75.26,75.06
06/20/2018,75.08,103640,75.21,75.28,75.02
06/19/2018,74.98,170953,74.51,74.99,74.51
06/18/2018,75.03,386184,74.95,75.03,74.82
06/15/2018,75.12,129149,74.87,75.2399,74.87
06/14/2018,74.95,103362,75.27,75.46,74.95
06/13/2018,75.0872,128296,75.1,75.23,74.8962
06/12/2018,75.25,72262,75.25,75.35,75.2
06/11/2018,75.41,96650,75.4,75.55,75.32
06/08/2018,75.55,44517,75.45,75.615,75.45
06/07/2018,75.6,56700,75.68,75.7078,75.4646
06/06/2018,75.63,69836,75.65,75.7567,75.52
06/05/2018,75.85,71613,75.84,75.8812,75.6931
06/04/2018,75.68,75607,75.91,75.9899,75.68
06/01/2018,75.7,70530,75.72,75.955,75.62
05/31/2018,76.26,55668,76.4,76.4162,76.1
05/30/2018,76.45,48073,76.51,76.65,76.398
05/29/2018,76.48,243203,77.0,77.0,76.3
05/25/2018,76.79,206657,76.58,76.82,76.5101
05/24/2018,76.44,39884,76.27,76.47,76.27
05/23/2018,76.16,44599,75.9,76.25,75.9
05/22/2018,75.92,45426,75.93,75.99,75.89
05/21/2018,75.62,51760,75.52,75.68,75.51
05/18/2018,75.69,58599,75.5,75.73,75.46
05/17/2018,75.62,129544,75.71,75.8,75.54
05/16/2018,75.99,102742,76.02,76.0721,75.89
05/15/2018,75.8854,70302,75.81,75.8854,75.75
05/14/2018,76.27,59550,76.3,76.4088,76.19
05/11/2018,76.45,66766,76.38,76.59,76.32
05/10/2018,76.12,54058,76.2,76.36,76.11
05/09/2018,75.4,83960,75.36,75.55,75.31
05/08/2018,75.73,121059,75.73,75.9,75.3753
05/07/2018,75.95,108426,75.97,76.1299,75.9103
05/04/2018,76.22,67798,75.89,76.23,75.89
05/03/2018,76.17,129688,76.24,76.24,76.05
05/02/2018,76.14,281686,76.41,76.5026,76.06
05/01/2018,76.62,226677,76.63,76.94,76.44
04/30/2018,76.97,70325,77.22,77.24,76.97
04/27/2018,77.21,59117,77.07,77.21,77.0594
04/26/2018,77.08,97107,77.05,77.169,77.0395
04/25/2018,77.01,84153,76.96,77.0799,76.7662
04/24/2018,77.21,60641,77.25,77.3527,77.11
04/23/2018,77.2,78404,77.28,77.31,77.11
04/20/2018,77.41,75227,77.59,77.6,77.36
04/19/2018,77.6,56227,77.77,77.8,77.51
04/18/2018,77.92,109930,78.05,78.12,77.92
04/17/2018,78.02,42909,78.03,78.055,77.94
04/16/2018,78.04,50892,77.9,78.04,77.9
04/13/2018,78.05,83542,78.02,78.109,77.97
04/12/2018,78.04,56533,77.98,78.1162,77.95
04/11/2018,77.97,49418,77.96,78.07,77.9501
04/10/2018,77.95,74650,78.1,78.13,77.89
04/09/2018,78.13,91395,78.13,78.1399,77.985
04/06/2018,78.15,235865,78.2,78.25,78.0201
04/05/2018,78.05,68726,78.2,78.2,78.0001
04/04/2018,78.16,67541,78.07,78.17,77.99
04/03/2018,77.99,83152,78.06,78.17,77.95
04/02/2018,78.03,132391,77.94,78.26,77.8504
03/29/2018,78.45,100890,78.25,78.45,78.16
03/28/2018,78.08,36775,78.09,78.1699,77.9901
03/27/2018,77.93,55179,77.86,78.09,77.86
03/26/2018,77.76,41501,77.68,77.86,77.6401
03/23/2018,77.55,63751,77.7,77.77,77.55
03/22/2018,77.81,46511,77.84,77.99,77.72
03/21/2018,77.91,44676,77.71,77.93,77.7027
03/20/2018,77.7,62466,78.06,78.08,77.6675
03/19/2018,77.85,50721,77.93,77.97,77.8236
03/16/2018,78.11,58284,78.05,78.16,77.9931
03/15/2018,78.05,55796,78.13,78.16,78.03
03/14/2018,78.08,155294,78.06,78.25,78.03
03/13/2018,77.97,87419,78.1,78.2138,77.902
03/12/2018,78.11,43989,78.07,78.1615,78.0101
03/09/2018,78.1,168706,78.07,78.22,78.0
03/08/2018,77.95,47476,78.06,78.09,77.85
03/07/2018,78.02,67122,77.96,78.075,77.8347
03/06/2018,77.97,184810,78.1,78.39,77.68
03/05/2018,78.03,135461,78.07,78.38,77.91
03/02/2018,78.09,62835,78.0,78.16,77.84
03/01/2018,77.95,89271,78.27,78.27,77.9001
02/28/2018,78.32,44622,78.44,78.53,78.28
02/27/2018,78.4,69217,78.82,78.86,78.26
02/26/2018,78.71,184233,78.42,78.72,78.3802
02/23/2018,78.37,58694,78.15,78.3948,78.01
02/22/2018,77.97,59674,78.18,78.2043,77.95
02/21/2018,77.94,48425,78.36,78.4,77.888
02/20/2018,78.14,82166,78.26,78.375,78.03
02/16/2018,78.41,114343,78.37,78.56,78.26
02/15/2018,78.25,63382,77.85,78.25,77.8443
02/14/2018,77.8,148866,77.81,77.89,77.68
02/13/2018,78.0,218604,78.18,78.33,77.7012
02/12/2018,78.17,123943,77.91,78.22,77.91
02/09/2018,77.94,206562,78.16,78.18,77.55
02/08/2018,78.21,121760,78.65,78.755,78.16
02/07/2018,78.71,117152,78.89,79.14,78.71
02/06/2018,78.86,147645,78.87,79.1014,78.84
02/05/2018,78.72,210330,79.0,79.015,78.6
02/02/2018,79.13,96645,79.47,79.47,79.0648
02/01/2018,79.58,126035,79.72,79.8323,79.51
01/31/2018,79.9,108557,79.99,80.0,79.76
01/30/2018,79.84,102945,79.91,79.985,79.74
01/29/2018,79.91,103989,79.93,80.0,79.81
01/26/2018,80.26,108835,80.18,80.26,80.05
01/25/2018,80.1,112638,80.01,80.14,79.9101
01/24/2018,79.99,84068,79.95,80.01,79.8214
01/23/2018,80.12,94696,79.98,80.13,79.94
01/22/2018,79.9,89849,79.89,79.9565,79.81
01/19/2018,79.83,78374,79.8,79.959,79.79
01/18/2018,80.0,78682,80.03,80.17,80.0
01/17/2018,80.18,85988,80.19,80.265,80.18
01/16/2018,80.12,97793,80.2,80.3,80.11
01/12/2018,80.23,78799,80.0,80.28,80.0
01/11/2018,80.22,66499,80.15,80.262,80.02
01/10/2018,80.05,178503,80.11,80.11,79.9833
01/09/2018,80.27,88794,80.42,80.45,80.2676
01/08/2018,80.42,132553,80.52,80.5399,80.39
01/05/2018,80.61,215511,80.63,80.66,80.55
01/04/2018,80.5,60248,80.45,80.5,80.41
01/03/2018,80.49,112381,80.3,80.53,80.3
01/02/2018,80.41,132075,80.29,80.41,80.1501
12/29/2017,80.27,111067,80.26,80.43,80.2
12/28/2017,80.12,87736,80.25,80.295,80.075
12/27/2017,80.24,57703,80.15,80.25,80.085
12/26/2017,80.16,42121,80.1,80.18,80.06
12/22/2017,80.39,83345,80.33,80.43,80.27
12/21/2017,80.29,63239,80.2,80.36,80.15
12/20/2017,80.27,109157,80.34,80.3471,80.1701
12/19/2017,80.33,69134,80.46,80.47,80.2201
12/18/2017,80.43,85237,80.54,80.59,80.37899999999999
12/15/2017,80.47,52597,80.44,80.53,80.34
12/14/2017,80.34,75350,80.33,80.36,80.23
12/13/2017,80.29,157758,80.14,80.329,80.12
12/12/2017,80.09,35215,80.12,80.12,80.0169
12/11/2017,80.13,97959,80.31,80.31,80.09
12/08/2017,80.16,53690,80.25,80.3,80.03
12/07/2017,80.23,163607,80.15,80.36,80.15
12/06/2017,80.38,44020,80.37,80.4,80.27
12/05/2017,80.35,42193,80.26,80.35,80.19
12/04/2017,80.14,63253,80.18,80.195,80.05
12/01/2017,80.2,66063,80.16,80.2302,80.07
11/30/2017,80.24,78342,80.45,80.5,80.23
11/29/2017,80.35,63756,80.48,80.53,80.315
11/28/2017,80.6,49438,80.61,80.6399,80.49
11/27/2017,80.48,61416,80.45,80.5499,80.45
11/24/2017,80.38,67302,80.35,80.4999,80.25
11/22/2017,80.5,129579,80.28,80.535,80.2358
11/21/2017,80.17,46293,80.18,80.27,80.11
11/20/2017,80.07,36858,80.04,80.18,80.04
11/17/2017,80.1,46463,80.01,80.189,79.9847
11/16/2017,80.03,59993,79.95,80.09,79.8497
11/15/2017,79.82,37837,79.69,79.82,79.61
11/14/2017,79.66,75406,79.66,79.74,79.52
11/13/2017,79.77,74600,79.73,79.82,79.5
11/10/2017,79.61,206818,79.66,79.7006,79.49
11/09/2017,79.64,73040,79.83,79.86,79.61
11/08/2017,79.88,72461,79.83,79.99,79.78
11/07/2017,79.8,111680,80.1,80.2,79.73
11/06/2017,80.09,231801,80.3,80.3,80.08
11/03/2017,80.4,64095,80.58,80.58,80.2501
11/02/2017,80.76,54575,80.66,80.83,80.58
11/01/2017,80.63,57103,80.65,80.77,80.56
10/31/2017,80.96,118550,80.86,80.96,80.86
10/30/2017,80.98,42653,80.89,80.98,80.8
10/27/2017,80.67,55082,80.56,80.8,80.4367
10/26/2017,80.37,99204,80.69,80.69,80.35
10/25/2017,80.68,830622,80.69,80.69,80.37
10/24/2017,80.8,38896,80.75,80.8,80.69
10/23/2017,80.8,54667,80.98,81.0,80.79
10/20/2017,80.95,105850,81.02,81.09,80.82
10/19/2017,81.11,70382,81.18,81.18,81.07
10/18/2017,81.0,38220,81.09,81.09,80.9401
10/17/2017,81.01,57470,80.97,81.04,80.915
10/16/2017,81.02,44383,81.01,81.09,80.97
10/13/2017,81.0,32549,81.02,81.03,80.91
10/12/2017,80.91,33637,80.79,80.95,80.79
10/11/2017,80.77,29509,80.82,80.84899999999999,80.7
10/10/2017,80.72,37177,80.8,80.8999,80.6534
10/09/2017,80.57,172893,80.63,80.69,80.56
10/06/2017,80.72,86344,80.61,80.745,80.59
10/05/2017,80.75,57927,80.91,80.91,80.70100000000001
10/04/2017,80.79,57605,80.78,80.98,80.7406
10/03/2017,80.82,137938,80.84,80.95,80.783
10/02/2017,80.83,186781,80.87,80.87,80.6784
09/29/2017,81.15,54281,81.03,81.18,80.9201
09/28/2017,80.92,39433,80.7,80.92,80.7
09/27/2017,80.78,85387,80.76,81.04,80.69
09/26/2017,81.11,63622,81.09,81.11,80.9807
09/25/2017,81.04,46877,81.06,81.077,80.95
09/22/2017,81.05,37876,81.01,81.08,80.97
09/21/2017,80.92,82977,80.87,80.954,80.7272
09/20/2017,80.84,284699,81.05,81.14,80.771
09/19/2017,81.17,34043,81.1,81.2,81.05
09/18/2017,81.21,37417,81.19,81.31,81.14
09/15/2017,81.37,65633,81.36,81.37,81.27
09/14/2017,81.29,46729,81.11,81.29,81.11
09/13/2017,81.24,42694,81.18,81.28,81.1
09/12/2017,81.26,45448,81.25,81.3616,81.15
09/11/2017,81.4,45246,81.41,81.4258,81.33
09/08/2017,81.45,54453,81.69,81.69,81.34
09/07/2017,81.4,54668,81.33,81.41,81.2301
09/06/2017,81.25,196799,81.32,81.33,81.15
09/05/2017,81.36,31814,81.12,81.36,81.11
09/01/2017,81.1,89509,81.25,81.25,80.98
08/31/2017,81.58,88253,81.41,81.58,81.365
08/30/2017,81.35,160057,81.48,81.48,81.13
08/29/2017,81.12,45363,81.18,81.2099,81.0001
08/28/2017,81.07,106768,81.15,81.18,81.0
08/25/2017,81.06,56595,81.05,81.17,80.98
08/24/2017,80.99,52815,80.9,80.99,80.8048
08/23/2017,80.87,62540,80.8,80.87,80.6843
08/22/2017,80.67,77948,80.85,80.86,80.6601
08/21/2017,80.77,69633,80.8,80.9,80.66
08/18/2017,80.69,57702,80.65,80.69,80.57
08/17/2017,80.54,75605,80.6,80.699,80.42
08/16/2017,80.48,62763,80.51,80.58,80.44
08/15/2017,80.4,69905,80.6,80.6,80.2904
08/14/2017,80.45,37178,80.44,80.53,80.24
08/11/2017,80.19,21603,80.18,80.26,80.12
08/10/2017,80.14,58705,80.32,80.35,80.12
08/09/2017,80.4,34716,80.41,80.5099,80.2852
08/08/2017,80.44,64070,80.5,80.5389,80.34
08/07/2017,80.47,44966,80.69,80.69,80.35
08/04/2017,80.38,65723,80.5,80.5,80.2218
08/03/2017,80.49,158292,80.6,80.6,80.34
08/02/2017,80.31,98533,80.48,80.48,80.141
08/01/2017,80.23,46508,80.4,80.4,80.1328
07/31/2017,80.42,61849,80.42,80.5,80.39
07/28/2017,80.39,43284,80.43,80.54,80.31
07/27/2017,80.36,72854,80.55,80.55,80.322
07/26/2017,80.57,30813,80.22,80.59,80.1868
07/25/2017,80.16,64975,80.33,80.33,80.1192
07/24/2017,80.29,136557,80.58,80.58,80.23
07/21/2017,80.46,33815,80.49,80.5,80.4
07/20/2017,80.38,33654,80.46,80.46,80.3396
07/19/2017,80.34,209204,80.3,80.35,80.19
07/18/2017,80.23,42368,80.17,80.2664,80.1011
07/17/2017,80.09,90173,80.02,80.28,79.95
07/14/2017,79.98,66262,80.01,80.075,79.9472
07/13/2017,79.77,48146,79.78,79.9026,79.67
07/12/2017,79.79,199680,79.44,79.81,79.44
07/11/2017,79.38,57853,79.4,79.5,79.3
07/10/2017,79.42,54562,79.65,79.65,79.22
07/07/2017,79.1,62340,79.13,79.215,78.9
07/06/2017,79.13,176466,79.49,79.49,79.02
07/05/2017,79.36,90376,79.34,79.59,79.32
07/03/2017,79.69,77239,80.06,80.06,79.45
06/30/2017,80.1,39560,79.94,80.14,79.94
06/29/2017,80.0,53109,80.03,80.2889,80.0
06/28/2017,80.38,94490,80.64,80.64,80.1
06/27/2017,80.33,76272,80.78,80.78,80.1981
06/26/2017,80.58,43562,80.68,80.6967,80.55
06/23/2017,80.5,45934,80.61,80.6569,80.35
06/22/2017,80.29,77662,80.16,80.29,80.065
06/21/2017,80.14,45217,80.53,80.53,80.04
06/20/2017,80.26,189676,80.23,80.53,80.17
06/19/2017,80.42,92467,80.55,80.7,80.41
06/16/2017,80.66,67914,80.89,80.9022,80.59
06/15/2017,80.72,41264,80.85,80.85,80.6201
06/14/2017,81.03,102829,81.02,81.17,80.85
06/13/2017,80.59,34797,80.56,80.658,80.52
06/12/2017,80.67,86479,80.72,80.72,80.55
06/09/2017,80.57,75886,80.75,80.775,80.5276
06/08/2017,80.63,36738,80.74,80.74,80.4
06/07/2017,80.7,76216,80.93,80.9303,80.66
06/06/2017,80.91,45412,80.9,80.98899999999999,80.7701
06/05/2017,80.78,54577,80.82,80.8999,80.717
06/02/2017,80.87,79061,80.5,80.91,80.5
06/01/2017,80.52,58821,80.46,80.55,80.444
05/31/2017,80.74,76577,80.79,80.828,80.62
05/30/2017,80.66,89480,80.71,80.76,80.58800000000001
05/26/2017,80.66,39049,80.67,80.67,80.46
05/25/2017,80.48,80474,80.71,80.71,80.41
05/24/2017,80.58,48380,80.5,80.61,80.36
05/23/2017,80.31,80580,80.38,80.49,80.2801
05/22/2017,80.2444,52313,80.43,80.43,80.24
05/19/2017,80.28,39135,80.21,80.35,80.13
05/18/2017,80.25,107225,80.13,80.2636,79.88
05/17/2017,80.49,74230,80.6,80.6,80.36
05/16/2017,80.45,58388,80.52,80.52,80.35
05/15/2017,80.4,91230,80.34,80.44,80.34
05/12/2017,80.34,88649,80.12,80.34,80.12
05/11/2017,80.08,47161,80.0,80.08,79.9088
05/10/2017,80.01,55818,79.96,80.02,79.84
05/09/2017,79.72,54614,79.95,79.95,79.72
05/08/2017,79.93,62340,80.11,80.11,79.755
05/05/2017,79.89,78591,79.92,80.04,79.8
05/04/2017,79.97,106667,80.11,80.29,79.88
05/03/2017,80.34,66738,80.25,80.39,80.1968
05/02/2017,80.25,52884,80.15,80.28,80.0512
05/01/2017,80.13,93752,80.18,80.265,80.0
04/28/2017,80.43,47790,80.29,80.44,80.22
04/27/2017,80.23,71017,80.05,80.28,80.05
04/26/2017,80.08,63485,80.03,80.23,80.03
04/25/2017,80.22,86635,80.33,80.33,80.1443
04/24/2017,80.37,92755,80.16,80.37,80.14
04/21/2017,80.14,82810,80.07,80.17,80.0185
04/20/2017,80.02,123221,80.22,80.22,79.93
04/19/2017,80.03,143889,80.27,80.27,79.94
04/18/2017,80.12,62222,79.9,80.18,79.88
04/17/2017,80.17,390079,80.2,80.23,79.93
04/13/2017,79.86,73699,79.99,79.99,79.78
04/12/2017,79.97,104032,79.79,79.97,79.685
04/11/2017,79.74,80896,79.79,79.79,79.52
04/10/2017,79.59,61823,79.55,79.63,79.41
04/07/2017,79.49,97981,79.65,79.74,79.41
04/06/2017,79.69,44212,79.64,79.72,79.55
04/05/2017,79.5,91649,79.44,79.59,79.4013
04/04/2017,79.48,31978,79.5,79.5268,79.36
04/03/2017,79.465,127442,79.39,79.5,79.221
03/31/2017,79.65,88754,79.76,79.8,79.56
03/30/2017,79.73,55742,79.85,79.8551,79.63
03/29/2017,79.81,88649,79.53,79.81,79.53
03/28/2017,79.6,69972,79.71,79.82,79.48
03/27/2017,79.6,47866,79.69,79.69,79.4801
03/24/2017,79.45,50969,79.51,79.64,79.45
03/23/2017,79.44,40157,79.42,79.4877,79.34
03/22/2017,79.38,96372,79.33,79.38,79.06
03/21/2017,79.27,76054,79.37,79.38,79.27
03/20/2017,79.26,58519,79.1,79.26,79.1
03/17/2017,79.1,95732,78.95,79.19,78.882
03/16/2017,78.84,47125,78.87,78.9299,78.62
03/15/2017,78.92,68652,78.36,79.01,78.27
03/14/2017,78.26,43897,78.52,78.52,78.07
03/13/2017,78.42,53748,78.37,78.5799,78.2
03/10/2017,78.36,51987,78.49,78.49,78.2101
03/09/2017,78.24,99809,78.47,78.47,78.1
03/08/2017,78.66,76256,78.83,78.885,78.56
03/07/2017,79.07,247252,79.25,79.2778,79.0
03/06/2017,79.13,69690,79.16,79.18,79.0
03/03/2017,79.25,90586,78.98,79.26,78.8501
03/02/2017,78.85,75191,79.08,79.08,78.83
03/01/2017,79.19,92837,79.03,79.199,79.02
02/28/2017,79.45,142308,79.63,79.69,79.45
02/27/2017,79.51,118639,79.69,79.7,79.48
02/24/2017,79.62,83232,79.54,79.63,79.3706
02/23/2017,79.37,560548,79.29,79.6,79.29
02/22/2017,79.31,157648,79.49,79.49,79.2148
02/21/2017,79.5,270910,79.35,79.5,79.14
02/17/2017,79.15,254002,79.18,79.18,79.01
02/16/2017,79.21,48198,79.15,79.23899999999999,79.03399999999999
02/15/2017,79.14,70629,79.0,79.1431,78.85
02/14/2017,79.16,82964,79.48,79.48,79.01
02/13/2017,79.34,67612,79.34,79.3699,79.2
02/10/2017,79.18,80079,79.22,79.236,79.0201
02/09/2017,79.12,73269,79.25,79.25,79.0101
02/08/2017,79.24,69552,79.08,79.24,79.0692
02/07/2017,78.96,176712,79.01,79.05,78.7701
02/06/2017,79.01,91454,79.02,79.04899999999999,78.8201
02/03/2017,78.88,150409,78.82,78.99,78.5872
02/02/2017,78.63,71552,78.82,78.88,78.57
02/01/2017,78.46,231308,78.24,78.85,78.05
01/31/2017,78.64,114171,78.43,78.7,78.4001
01/30/2017,78.31,142935,78.64,78.64,78.3
01/27/2017,78.74,68384,78.44,78.74,78.3501
01/26/2017,78.29,101135,78.17,78.3657,78.03
01/25/2017,78.12,86250,78.56,78.56,78.08
01/24/2017,78.29,82378,78.58,78.73,78.18
01/23/2017,78.7,109759,78.2,78.7,78.18
01/20/2017,78.2,151557,78.15,78.31,78.03
01/19/2017,78.13,150386,78.34,78.51,77.8791
01/18/2017,78.26,113778,78.87,78.87,78.25
01/17/2017,78.76,149458,78.93,78.9701,78.62
01/13/2017,78.49,131170,78.52,78.64,78.3701
01/12/2017,78.64,121248,78.66,78.6608,78.3801
01/11/2017,78.26,127804,78.2,78.295,78.0
01/10/2017,78.34,170956,78.49,78.571,78.2
01/09/2017,78.59,105602,78.54,78.59,78.2001
01/06/2017,78.39,74762,78.43,78.55,78.25
01/05/2017,78.61,69223,78.38,78.62,78.17
01/04/2017,78.11,35581,77.9,78.1999,77.83
01/03/2017,77.8,136284,77.8,77.85,77.5
12/30/2016,77.54,61700,77.41,77.642,77.36
12/29/2016,77.43,85178,77.62,77.72,77.36
12/28/2016,77.37,131678,77.28,77.52,77.1224
12/27/2016,77.3,92360,77.48,77.48,76.49
12/23/2016,77.36,50366,77.25,77.42,77.1743
12/22/2016,77.28,300008,77.36,77.38600000000001,77.0437
12/21/2016,77.74,109120,77.64,77.74,77.4101
12/20/2016,77.35,97274,77.42,77.46,77.22
12/19/2016,77.42,242346,77.1,77.42,77.01
12/16/2016,76.99,240226,77.07,77.15,76.835
12/15/2016,77.0,92455,77.13,77.27,76.82
12/14/2016,77.33,91438,77.77,77.94,77.13
12/13/2016,77.55,127251,77.44,77.635,77.4001
12/12/2016,77.27,133458,77.19,77.42,77.1701
12/09/2016,77.17,83172,77.31,77.5399,77.12
12/08/2016,77.34,120577,77.46,77.48,77.28
12/07/2016,77.54,187569,77.45,77.72,77.1501
12/06/2016,77.15,134574,76.87,77.25,76.87
12/05/2016,76.85,58347,76.67,76.91,76.52
12/02/2016,76.43,218252,76.3,77.03,76.1609
12/01/2016,76.31,110378,76.55,76.5699,76.233
11/30/2016,77.02,119086,77.2,77.31,77.0
11/29/2016,77.3,112898,77.21,77.36,77.1004
11/28/2016,77.2,87658,77.26,77.35,77.0903
11/25/2016,76.94,32587,76.83,77.26,76.79
11/23/2016,77.02,43094,77.06,77.06,76.65
11/22/2016,77.33,67810,77.22,77.3899,77.22
11/21/2016,77.12,64863,77.15,77.3,77.01
11/18/2016,76.81,92765,77.26,77.3999,76.7648
11/17/2016,77.22,88282,76.94,77.6799,76.6
11/16/2016,77.29,83371,76.68,77.29,76.68
11/15/2016,77.36,122962,77.25,77.4399,76.9
11/14/2016,76.45,219587,76.19,76.6999,75.8
11/11/2016,76.91,295494,76.47,77.509,76.43
11/10/2016,76.55,380220,79.06,79.06,76.06
11/09/2016,79.39,156984,79.6,79.73,79.28
11/08/2016,80.36,105672,80.36,80.5094,80.18
11/07/2016,80.21,62929,80.22,80.31,80.04
11/04/2016,79.88,89698,79.75,79.9999,79.7101
11/03/2016,79.77,55422,79.76,80.02199999999999,79.7201
11/02/2016,79.79,92802,79.65,80.0,79.65
11/01/2016,79.725,90060,79.84,80.0,79.6001
10/31/2016,80.21,70884,80.25,80.31,80.01
10/28/2016,80.19,65645,80.25,80.39,80.0892
10/27/2016,80.12,91394,80.74,80.92,80.12
10/26/2016,80.85,39390,80.88,81.01,80.7
10/25/2016,81.05,106545,81.07,81.2,81.04
10/24/2016,80.97,78632,81.12,81.275,80.96
10/21/2016,81.02,130677,81.0,81.12,80.75
10/20/2016,80.98,94715,80.93,81.1999,80.771
10/19/2016,80.77,44216,80.75,80.9,80.6301
10/18/2016,80.76,76884,80.5,80.78,80.5
10/17/2016,80.6403,66020,80.67,80.76,80.55
10/14/2016,80.67,88144,80.9,80.9,80.67
10/13/2016,80.89,41785,80.84,80.9799,80.7501
10/12/2016,80.9,75101,80.87,80.93,80.5701
10/11/2016,80.7,88838,81.03,81.07,80.6105
10/10/2016,81.19,117596,80.93,81.2,80.9
10/07/2016,80.84,82536,80.99,81.0499,80.84
10/06/2016,81.1,46564,80.96,81.15,80.8701
10/05/2016,81.03,100512,81.14,81.18,80.79
10/04/2016,81.01,106048,81.49,81.49,81.01
10/03/2016,81.38,98275,81.28,81.38,81.1
09/30/2016,81.63,117960,81.55,81.64,81.3901
09/29/2016,81.3001,89565,81.57,81.646,81.3
09/28/2016,81.6,88835,81.51,81.6,81.33
09/27/2016,81.46,119344,81.4,81.465,81.2929
09/26/2016,81.2516,82517,81.44,81.4685,81.1678
09/23/2016,81.47,132612,81.85,81.85,81.44
09/22/2016,81.78,96790,81.82,81.929,81.66
09/21/2016,81.55,120427,80.92,81.55,80.8701
09/20/2016,80.54,106083,80.79,80.8199,80.53
09/19/2016,80.66,132783,80.66,80.7299,80.5
09/16/2016,80.5,61046,80.64,80.64,80.28
09/15/2016,80.51,123123,80.33,80.615,80.33
09/14/2016,80.28,70407,80.4,80.62899999999999,80.21
09/13/2016,80.38,126386,80.94,81.0999,80.3201
09/12/2016,80.99,74771,80.83,80.9928,80.7
09/09/2016,81.09,101356,81.49,81.53,81.0869
09/08/2016,81.76,142113,82.0,82.08,81.73
09/07/2016,81.96,85478,81.92,82.0,81.79
09/06/2016,81.71,72890,81.53,81.73,81.3944
09/02/2016,81.26,94002,81.37,81.43,81.22
09/01/2016,81.14,59697,81.24,81.27600000000001,81.0637
08/31/2016,81.71,235394,81.61,81.7799,81.54
08/30/2016,81.71,67038,81.85,81.85,81.6501
08/29/2016,81.68,135363,81.74,81.7999,81.62
08/26/2016,81.52,120824,81.71,81.8,81.5
08/25/2016,81.56,79895,81.63,81.69,81.5
08/24/2016,81.63,336703,81.84,81.8999,81.63
08/23/2016,81.78,128252,81.87,81.9099,81.7501
08/22/2016,81.75,165219,81.71,81.77,81.6101
08/19/2016,81.71,79679,81.74,81.809,81.601
08/18/2016,81.82,68722,81.67,81.87,81.595
08/17/2016,81.6,72295,81.72,81.74,81.4901
08/16/2016,81.61,158262,81.73,81.795,81.55
08/15/2016,81.63,90060,81.59,81.6699,81.529
08/12/2016,81.56,51844,81.41,81.619,81.2701
08/11/2016,81.1601,56601,81.53,81.53,81.1601
08/10/2016,81.34,65968,81.12,81.4148,81.12
08/09/2016,81.1,67783,80.94,81.13,80.9201
08/08/2016,80.76,53851,80.78,80.869,80.6201
08/05/2016,80.61,111793,80.59,80.839,80.5
08/04/2016,80.54,70372,80.42,80.55,80.3301
08/03/2016,80.32,61113,80.21,80.369,80.09
08/02/2016,80.36,133035,80.4,80.458,80.17
08/01/2016,80.36,105977,80.61,80.61,80.2835
07/29/2016,80.76,51485,80.65,80.82,80.501
07/28/2016,80.63,73135,80.75,80.79,80.52
07/27/2016,80.68,48827,80.5,80.695,80.35
07/26/2016,80.4401,80011,80.71,80.74,80.32
07/25/2016,80.57,52389,80.86,80.86,80.57
07/22/2016,80.86,69650,80.65,80.8925,80.6001
07/21/2016,80.81,45035,80.77,80.885,80.5523
07/20/2016,80.78,49669,80.68,80.86,80.541
07/19/2016,80.77,115407,80.77,80.8699,80.6938
07/18/2016,80.76,39053,81.0,81.0,80.6001
07/15/2016,80.84,74371,80.95,80.96,80.66
07/14/2016,80.9,51620,80.96,80.98,80.7301
07/13/2016,80.72,66807,80.75,80.97,80.65
07/12/2016,80.74,128320,80.7,80.99,80.55
07/11/2016,80.94,61541,80.98,80.99,80.7944
07/08/2016,80.7,35123,80.52,80.71,80.2005
07/07/2016,80.41,51229,80.54,80.54,80.03
07/06/2016,80.5,50322,80.27,80.5,80.1701
07/05/2016,80.24,86768,80.33,80.34,79.98
07/01/2016,80.21,79704,80.27,80.31,79.94
06/30/2016,80.29,139698,79.77,80.3599,79.7011
06/29/2016,79.7,46141,79.15,79.7447,79.1
06/28/2016,78.98,38954,78.93,79.016,78.85
06/27/2016,78.6,76506,78.62,78.68,78.5
06/24/2016,78.52,44547,78.31,78.6,77.9901
06/23/2016,78.96,29032,78.93,78.97,78.8
06/22/2016,78.635,29938,78.7,78.77,78.3901
06/21/2016,78.5,42760,78.5,78.5,78.2401
06/20/2016,78.47,35967,78.21,78.5,78.21
06/17/2016,78.01,70965,78.11,78.16,77.86
06/16/2016,78.03,62169,78.11,78.13,77.87
06/15/2016,78.08,40978,77.86,78.08,77.76
06/14/2016,77.75,40891,78.03,78.03,77.69
06/13/2016,78.23,42633,78.1,78.23,77.8901
06/10/2016,78.24,43431,78.31,78.44,78.24
06/09/2016,78.53,41331,78.58,78.65,78.46
06/08/2016,78.79,58461,78.83,78.83,78.52199999999999
06/07/2016,78.48,100512,78.4,78.57,78.26
06/06/2016,78.18,49264,78.05,78.2588,77.9401
06/03/2016,77.99,105593,77.8,78.02,77.66
06/02/2016,77.51,59919,77.45,77.57,77.24
06/01/2016,77.26,43710,77.34,77.38,77.1
05/31/2016,77.38,77063,77.52,77.699,77.38
05/27/2016,77.5101,23937,77.79,77.79,77.51
05/26/2016,77.52,168370,77.78,77.82,77.52
05/25/2016,77.59,61186,77.41,77.68,77.37
05/24/2016,77.39,70459,77.53,77.54,77.25
05/23/2016,77.4,58964,77.61,77.61,77.18
05/20/2016,77.38,59627,77.51,77.58,77.35
05/19/2016,77.31,68670,77.75,77.75,77.0201
05/18/2016,77.52,126451,78.05,78.05,77.52
05/17/2016,78.01,50050,78.03,78.0699,77.8701
05/16/2016,78.07,28244,78.14,78.14,77.9101
05/13/2016,77.99,27010,77.96,78.0299,77.79
05/12/2016,77.93,77555,78.06,78.06,77.82
05/11/2016,77.691,36084,77.87,77.87,77.66
05/10/2016,77.67,37305,77.62,77.69,77.43
05/09/2016,77.49,137086,77.53,77.56,77.17
05/06/2016,77.54,169784,77.5,77.6,77.26
05/05/2016,77.47,25721,77.48,77.535,77.3901
05/04/2016,77.31,26224,77.48,77.48,77.21
05/03/2016,77.48,50983,77.63,77.63,77.29
05/02/2016,77.64,47432,77.97,77.97,77.5201
04/29/2016,77.97,83870,78.15,78.15,77.8301
04/28/2016,77.99,316274,77.8,78.0999,77.75
04/27/2016,77.71,43435,77.61,77.75,77.4001
04/26/2016,77.44,85771,77.58,77.67,77.37
04/25/2016,77.46,52845,77.79,77.85,77.3701
04/22/2016,77.66,26092,77.7,77.7,77.5301
04/21/2016,77.6,157690,77.91,77.91,77.57
04/20/2016,77.82,60311,77.84,77.9,77.72
04/19/2016,77.78,69304,77.61,77.79,77.5105
04/18/2016,77.3413,36114,77.35,77.4,77.25
04/15/2016,77.54,51657,77.5,77.5666,77.4
04/14/2016,77.49,46047,77.34,77.57,77.24
04/13/2016,77.29,58029,77.32,77.34,77.12899999999999
04/12/2016,77.0,36024,76.96,77.06,76.89
04/11/2016,76.85,55670,76.67,76.85,76.61
04/08/2016,76.59,91430,76.69,76.69,76.3901
04/07/2016,76.33,120162,76.53,76.833,76.26
04/06/2016,76.57,37563,76.51,76.69,76.32
04/05/2016,76.49,96647,76.67,76.67,76.27
04/04/2016,76.68,47525,76.79,77.04,76.55
04/01/2016,76.81,77999,76.74,76.9,76.52
03/31/2016,76.945,80519,76.86,77.09,76.8201
03/30/2016,76.78,70161,76.84,76.88,76.6501
03/29/2016,76.68,75195,76.15,76.7,76.12
03/28/2016,76.35,41289,76.41,76.41,76.13
03/24/2016,76.34,43388,76.15,76.43,76.15
03/23/2016,76.47,196415,76.71,76.89,76.38
03/22/2016,76.73,69809,76.72,76.9,76.6
03/21/2016,76.85,88111,77.06,77.06,76.75
03/18/2016,76.8,137021,76.91,76.99,76.6301
03/17/2016,76.7,48169,76.08,76.71,76.0701
03/16/2016,75.9,57099,75.42,75.9,75.3401
03/15/2016,75.39,43785,75.5,75.62,75.3101
03/14/2016,75.67,44953,75.68,75.8099,75.6105
03/11/2016,75.76,50776,75.57,75.95,75.56
03/10/2016,75.43,25982,75.56,75.5784,75.36
03/09/2016,75.36,32349,75.02,75.4199,75.02
03/08/2016,75.02,400219,75.16,75.41,75.01
03/07/2016,75.5,118464,75.53,75.59,75.41
03/04/2016,75.54,53584,75.57,75.63,75.4201
03/03/2016,75.42,82764,75.41,75.44,75.2301
03/02/2016,75.26,139092,74.85,75.31,74.85
03/01/2016,75.2,89736,74.85,75.2,74.85
02/29/2016,74.88,102494,74.94,75.05,74.8601
02/26/2016,74.86,48712,74.65,74.86,74.58
02/25/2016,74.55,25966,74.66,74.66,74.4001
02/24/2016,74.44,70866,74.35,74.46,74.14
02/23/2016,74.42,64501,75.0,75.0,74.3001
02/22/2016,74.32,43277,74.15,74.42,74.15
02/19/2016,74.18,67543,75.0,75.0,73.89
02/18/2016,74.18,67716,73.75,74.21,73.75
02/17/2016,73.95,41752,73.55,73.9699,73.48
02/16/2016,73.47,63444,73.19,73.8,73.19
02/12/2016,73.21,25889,73.31,73.355,72.99
02/11/2016,73.08,136079,72.74,73.09,72.74
02/10/2016,73.14,45760,73.44,73.44,72.9301
02/09/2016,73.0,232161,73.08,73.445,72.84
02/08/2016,73.6,70983,73.66,73.67,73.29
02/05/2016,73.71,33036,73.71,73.9999,73.4907
02/04/2016,73.67,64250,73.59,73.69,73.3501
02/03/2016,73.5,97984,73.47,73.509,73.18
02/02/2016,73.33,97029,73.48,73.66,73.03
02/01/2016,73.5,86563,73.61,73.64,73.21
01/29/2016,73.73,95007,73.95,73.9899,73.7
01/28/2016,73.6699,289554,73.73,74.05,73.571
01/27/2016,73.3,86885,73.06,73.5098,73.06
01/26/2016,73.008,100391,72.96,73.1499,72.6201
01/25/2016,72.81,34389,73.0,73.13,72.81
01/22/2016,72.9501,85114,72.76,72.9999,72.5401
01/21/2016,72.33,96827,72.17,72.4799,72.16
01/20/2016,72.38,107880,72.26,72.44,72.13
01/19/2016,72.52,107396,72.32,72.6,72.32
01/15/2016,72.32,214658,72.86,72.86,72.2701
01/14/2016,72.95,218815,72.8,73.1799,72.7676
01/13/2016,73.05,101742,73.34,73.55,73.05
01/12/2016,73.52,75634,73.57,73.82,73.31
01/11/2016,73.71,86267,73.83,73.83,73.5
01/08/2016,73.83,216887,74.02,74.02,73.67
01/07/2016,73.75,308718,73.71,74.05,73.64
01/06/2016,74.06,66222,74.2,74.2,73.9444
01/05/2016,74.13,180782,74.16,74.46,72.32
01/04/2016,74.16,421603,75.44,75.4495,73.9928
12/31/2015,73.96,51735,73.94,74.0899,73.5233
12/30/2015,74.08,86475,74.16,74.27,73.8
12/29/2015,74.02,88020,74.2,74.2,73.9
12/28/2015,74.12,100267,74.0,74.21,73.9101
12/24/2015,74.17,12490,73.91,74.27,73.91
12/23/2015,74.1299,104921,74.05,74.13,73.88
12/22/2015,74.32,63689,74.23,74.37,74.04
12/21/2015,74.09,30964,74.12,74.3699,74.0501
12/18/2015,74.22,89559,74.35,74.435,74.16
12/17/2015,74.44,43378,74.26,74.63,74.26
12/16/2015,74.34,148676,74.27,74.37,73.932
12/15/2015,74.31,102035,74.24,74.4,74.1201
12/14/2015,74.17,160291,73.92,74.4,73.92
12/11/2015,74.0999,180307,74.74,74.74,74.05
12/10/2015,74.85,83642,74.95,74.98,74.69
12/09/2015,75.0,132481,74.84,75.1,74.82300000000001
12/08/2015,74.91,107691,75.01,75.13,74.7214
12/07/2015,75.13,110474,75.32,75.3699,75.03
12/04/2015,75.28,24790,75.05,75.28,75.05
12/03/2015,75.09,38069,75.5,75.5,75.03399999999999
12/02/2015,75.58,342911,75.66,75.78,75.45
12/01/2015,75.59,37417,75.41,75.66,75.41
11/30/2015,75.8,32476,75.859,75.95,75.69
11/27/2015,75.83,121312,76.03,76.04,75.78
11/25/2015,75.92,46240,76.01,76.04,75.8491
11/24/2015,75.9825,29827,76.02,76.05,75.91
11/23/2015,76.0,104144,75.89,76.05,75.89
11/20/2015,76.02,62053,76.07,76.09,75.93
11/19/2015,75.98,50815,75.87,76.25,75.87
11/18/2015,75.82,89943,75.69,75.82,75.6
11/17/2015,75.64,63028,75.49,75.69,75.4501
11/16/2015,75.48,77183,75.51,75.545,75.26
11/13/2015,75.63,200642,75.66,75.69,75.3601
11/12/2015,75.65,133016,75.72,75.77,75.36
11/11/2015,75.65,9910,75.38,75.71,75.38
11/10/2015,75.64,109863,75.35,75.67,75.25
11/09/2015,75.32,47223,75.7,75.7,75.0004
11/06/2015,75.7,46245,76.02,76.2399,75.48
11/05/2015,76.15,44681,76.04,76.17,75.86399999999999
11/04/2015,76.17,31908,76.33,76.36,76.02
11/03/2015,76.1,23671,75.97,76.35,75.9401
11/02/2015,75.96,80087,76.2,76.37,75.77
10/30/2015,75.95,32201,75.95,76.08,75.69
10/29/2015,76.0,21376,76.04,76.05,75.83
10/28/2015,76.16,29029,76.13,76.319,75.92
10/27/2015,76.37,43265,76.25,76.3799,76.0201
10/26/2015,76.41,51092,76.19,76.41,76.19
10/23/2015,76.33,45966,76.43,76.43,76.0201
10/22/2015,76.24,58916,76.15,76.24,75.92
10/21/2015,75.98,95938,76.07,76.21,75.74
10/20/2015,76.19,43995,76.4,76.4,75.985
10/19/2015,76.39,40121,76.41,76.42,76.2201
10/16/2015,76.43,14241,76.17,76.43,76.17
10/15/2015,76.23,27291,75.92,76.23,75.44
10/14/2015,75.95,106055,75.74,75.95,75.6316
10/13/2015,75.64,56968,75.77,75.77,75.465
10/12/2015,75.68,15798,75.77,75.77,75.6301
10/09/2015,75.65,34917,75.73,75.84899999999999,75.57
10/08/2015,75.47,125702,75.25,75.54,75.25
10/07/2015,75.27,135536,75.56,75.58,75.26
10/06/2015,75.2,28210,75.03,75.29,74.75
10/05/2015,75.029,47521,74.86,75.0388,74.78
10/02/2015,74.68,69633,74.5,74.68,74.21
10/01/2015,74.12,121825,74.29,74.38,73.99
09/30/2015,74.1901,79341,74.02,74.3,74.01
09/29/2015,73.77,61146,74.07,74.07,73.7
09/28/2015,73.93,47257,74.24,74.3199,73.92
09/25/2015,74.47,405798,74.8,75.02,74.34
09/24/2015,74.58,63235,74.72,74.72,74.45
09/23/2015,75.03,89666,75.0,75.0601,74.81
09/22/2015,75.045,145169,75.35,75.38,75.02
09/21/2015,75.45,34424,75.74,75.805,75.4301
09/18/2015,75.85,42067,75.81,75.87,75.61
09/17/2015,75.71,23900,75.18,75.71,75.1376
09/16/2015,75.1601,14961,75.2,75.34,75.0101
09/15/2015,75.15,82943,75.32,75.32,75.15
09/14/2015,75.21,47853,75.3,75.42,75.09
09/11/2015,75.1797,19446,75.199,75.28,75.085
09/10/2015,75.21,33247,75.25,75.32,75.14
09/09/2015,75.18,27877,75.34,75.34,75.14
09/08/2015,75.18,53559,75.52,75.52,75.1
09/04/2015,75.29,48538,75.44,75.44,75.135
09/03/2015,75.21,115597,74.85,75.2799,74.85
09/02/2015,74.81,37092,75.13,75.13,74.76899999999999
09/01/2015,75.25,61291,75.29,75.3,75.0401
08/31/2015,75.55,25498,75.58,75.69,75.35
08/28/2015,75.58,44651,75.34,75.58,75.12
08/27/2015,75.37,73406,74.96,75.37,74.96
08/26/2015,74.59,44006,74.8,74.8,74.5101
08/25/2015,74.71,154098,75.5,75.82,74.62
08/24/2015,74.4,267987,73.59,74.63,73.5
08/21/2015,75.18,83055,75.2,75.36,75.0
08/20/2015,75.33,98109,75.56,75.6099,75.2156
08/19/2015,75.58,91148,75.82,75.82,75.48
08/18/2015,75.8,34672,75.97,75.97,75.7
08/17/2015,76.0,82674,75.92,76.0,75.7901
08/14/2015,75.92,27218,76.03,76.1099,75.8101
08/13/2015,75.99,52578,76.18,76.18,75.86
08/12/2015,75.97,100094,75.89,76.17,75.89
08/11/2015,76.01,79168,76.43,76.43,75.92
08/10/2015,76.1,87054,76.06,76.16,75.9
08/07/2015,76.02,26072,76.35,76.35,75.9
08/06/2015,76.15,50857,76.14,76.23,75.9201
08/05/2015,76.3,85445,76.68,76.68,76.1101
08/04/2015,76.38,48951,76.68,76.69,76.12
08/03/2015,76.43,82501,76.63,76.63,76.31
07/31/2015,76.84,18341,76.88,76.92,76.67
07/30/2015,76.67,46188,76.25,76.67,76.25
07/29/2015,76.38,17723,76.14,76.4499,76.14
07/28/2015,76.2,32459,76.43,76.43,76.0
07/27/2015,76.24,55606,76.22,76.3999,76.06
07/24/2015,76.46,81415,76.6,76.6,76.3201
07/23/2015,76.57,19358,76.75,76.77,76.4926
07/22/2015,76.74,33169,76.61,76.9299,76.5901
07/21/2015,76.76,42893,76.75,76.7799,76.61
07/20/2015,76.74,48070,76.76,76.83800000000001,76.57
07/17/2015,76.86,34499,76.76,76.87,76.6214
07/16/2015,76.85,164009,76.45,76.85,76.4301
07/15/2015,76.62,35754,76.45,76.68,76.4101
07/14/2015,76.6,41571,76.67,76.7512,76.5
07/13/2015,76.64,25481,76.79,76.79,76.4164
07/10/2015,76.71,31991,76.58,76.74,76.53399999999999
07/09/2015,76.53,16022,76.4,76.6917,76.4
07/08/2015,76.44,26768,76.61,76.61,76.32
07/07/2015,76.54,169316,76.75,76.75,76.38
07/06/2015,76.77,63879,76.99,76.99,76.6352
07/02/2015,76.89,34282,76.58,76.91,76.4901
07/01/2015,76.59,41942,76.73,76.73,76.39
06/30/2015,76.94,83424,77.05,77.05,76.49
06/29/2015,76.89,31479,76.9,76.93,76.6328
06/26/2015,77.03,23863,77.02,77.04,76.7301
06/25/2015,77.24,34223,77.3,77.3,77.0285
06/24/2015,77.31,31095,77.28,77.31,77.0901
06/23/2015,77.22,29899,77.03,77.241,76.8701
06/22/2015,77.1,43922,76.72,77.1,76.72
06/19/2015,76.97,45688,76.77,76.99,76.77
06/18/2015,76.73,23705,76.55,76.73,76.47
06/17/2015,76.43,19214,76.27,76.48899999999999,76.1
06/16/2015,76.24,29543,76.0,76.34,76.0
06/15/2015,76.26,52637,76.5,76.5,76.12
06/12/2015,76.53,29927,76.5,76.5899,76.38
06/11/2015,76.36,42950,76.19,76.36,76.0301
06/10/2015,76.11,72881,76.3,76.3,75.96
06/09/2015,76.4,95377,76.69,76.69,76.24
06/08/2015,76.67,115663,76.84,76.94,76.5501
06/05/2015,76.83,69239,77.31,77.31,76.62
06/04/2015,77.35,38155,77.47,77.47,77.16
06/03/2015,77.37,34101,77.73,77.73,77.2985
06/02/2015,77.68,45805,77.84,77.84,77.5601
06/01/2015,77.84,75489,79.0,79.0,77.7101
05/29/2015,78.43,73014,78.41,78.98,78.25
05/28/2015,78.38,58117,78.78,78.78,78.17
05/27/2015,78.65,25248,78.38,78.65,78.38
05/26/2015,78.67,33266,78.7,78.75,78.5403
05/22/2015,78.63,56928,78.77,78.77,78.46
05/21/2015,78.6205,25223,78.51,78.66,78.468
05/20/2015,78.42,24625,78.38,78.44,78.17
05/19/2015,78.18,35406,78.61,78.61,78.18
05/18/2015,78.46,37149,79.0,79.0,78.45
05/15/2015,78.69,22166,78.51,78.69,78.41
05/14/2015,78.37,32324,78.36,78.37,78.17
05/13/2015,78.27,23479,78.24,78.42,78.15
05/12/2015,78.01,19024,78.0,78.03,77.87
05/11/2015,78.31,52770,78.59,78.59,78.28
05/08/2015,78.55,32868,78.37,78.55,78.37
05/07/2015,78.24,33876,78.43,78.43,78.1301
05/06/2015,78.2,19022,78.27,78.28,78.1704
05/05/2015,78.28,89712,78.21,78.29,78.16
05/04/2015,78.32,31671,78.45,78.45,78.25
05/01/2015,78.42,37799,78.48,78.48,78.13
04/30/2015,78.82,246881,78.91,78.91,78.57
04/29/2015,78.81,27867,78.98,78.98,78.71
04/28/2015,79.18,62789,79.4,79.4,79.1
04/27/2015,79.22,44146,79.44,79.44,79.17
04/24/2015,79.24,21439,79.1,79.24,79.0
04/23/2015,78.98,37341,78.6,78.99,78.575
04/22/2015,78.58,73819,78.73,78.94,78.54
04/21/2015,78.54,37148,78.61,78.61,78.5001
04/20/2015,78.52,31541,78.72,78.72,78.5
04/17/2015,78.63,53927,79.1,79.1,78.58
04/16/2015,78.8,35288,78.94,78.94,78.76
04/15/2015,78.94,182154,79.45,79.45,78.8377
04/14/2015,79.08,137968,79.2,79.256,79.07
04/13/2015,79.02,32101,78.65,79.03,78.65
04/10/2015,78.86,28900,78.99,78.99,78.74
04/09/2015,78.96,33164,78.99,79.0,78.75
04/08/2015,78.69,24347,78.63,78.7113,78.49
04/07/2015,78.27,17691,78.2,78.34,78.07
04/06/2015,78.38,32488,78.46,78.46,78.3
04/02/2015,78.09,30544,78.19,78.19,77.936
04/01/2015,77.9,66085,77.95,78.01,77.6
03/31/2015,77.76,22827,77.85,77.9,77.611
03/30/2015,77.65,19399,77.72,77.72,77.6
03/27/2015,77.44,27800,77.76,77.76,77.38
03/26/2015,77.49,33509,77.89,77.89,77.37100000000001
03/25/2015,77.7304,159939,77.65,77.92,77.65
03/24/2015,77.51,37380,77.36,77.61,77.36
03/23/2015,77.4,36927,77.25,77.59,77.23100000000001
03/20/2015,77.11,19458,76.94,77.14,76.9062
03/19/2015,76.67,18426,76.5,76.77,76.5
03/18/2015,76.3055,28216,75.8,76.7895,75.8
03/17/2015,75.9365,59064,76.0,76.11,75.9
03/16/2015,76.11,44826,76.49,76.49,76.11
03/13/2015,76.35,19956,76.41,76.6799,76.31
03/12/2015,76.54,16093,76.6,76.74,76.53
03/11/2015,76.3,20295,76.3,76.53399999999999,76.25
03/10/2015,76.35,32505,76.57,76.57,76.35
03/09/2015,76.57,29286,76.95,76.95,76.51
03/06/2015,76.725,134691,77.19,77.19,76.68
03/05/2015,77.15,22894,77.26,77.2899,77.1
03/04/2015,77.24,18635,77.37,77.4,77.2
03/03/2015,77.37,20820,77.19,77.438,77.19
03/02/2015,77.32,31178,77.99,77.99,77.3
02/27/2015,77.64,24939,77.64,77.65,77.47
02/26/2015,77.55,15188,77.73,77.73,77.55
02/25/2015,77.61,10773,77.45,77.61,77.392
02/24/2015,77.17,32381,77.14,77.3499,76.9001
02/23/2015,76.92,26708,77.02,77.16,76.831
02/20/2015,77.02,17243,77.32,77.32,77.02
02/19/2015,77.03,24054,77.28,77.28,77.03
02/18/2015,77.117,33627,77.25,77.3299,77.03
02/17/2015,77.12,34082,77.24,77.34,77.0101
02/13/2015,77.15,18570,76.78,77.23,76.78
02/12/2015,76.8643,20035,76.73,76.87,76.626
02/11/2015,76.51,24606,76.97,76.97,76.4001
02/10/2015,76.43,34207,76.86,76.86,76.43
02/09/2015,77.03,27549,77.24,77.24,76.85
02/06/2015,76.83,132492,77.25,77.25,76.7751
02/05/2015,77.12,30150,76.66,77.12,76.66
02/04/2015,76.91,22240,77.1,77.12,76.91
02/03/2015,77.02,37023,77.0,77.26,76.79
02/02/2015,76.81,28608,76.87,76.94,76.73
01/30/2015,76.81,23823,77.06,77.45,76.7245
01/29/2015,76.9,12997,77.1,77.1,76.77
01/28/2015,76.99,50193,76.92,77.23,76.77
01/27/2015,76.87,29059,76.97,77.0,76.73
01/26/2015,76.73,24029,76.89,76.9099,76.55
01/23/2015,76.55,52827,76.77,76.95,76.1806
01/22/2015,76.24,20654,76.33,76.505,76.21
01/21/2015,76.34,33686,76.48,76.6254,76.29
01/20/2015,76.33,35395,76.38,76.67,76.2416
01/16/2015,76.28,22818,76.38,76.41,76.2601
01/15/2015,76.44,20684,76.44,76.4999,75.82
01/14/2015,76.24,8877,76.06,76.25,75.815
01/13/2015,75.9392,23710,75.91,76.07,75.5809
01/12/2015,75.93,29638,76.0,76.14,75.88600000000001
01/09/2015,75.9975,65826,76.52,76.52,75.91
01/08/2015,76.36,57321,76.18,76.4572,76.18
01/07/2015,75.98,13854,75.72,76.03,75.3299
01/06/2015,75.06,34012,75.75,75.75,75.0
01/05/2015,75.8,39203,76.2,76.5062,75.8
01/02/2015,76.36,41895,76.32,76.75,76.32
12/31/2014,76.36,21159,76.0,76.5699,76.0
12/30/2014,76.36,30595,76.67,76.67,76.35
12/29/2014,76.59,44317,76.21,76.61,76.15
12/26/2014,76.33,38572,76.65,76.85,76.32
12/24/2014,76.53,20095,76.53,76.53,76.4399
12/23/2014,76.53,34788,76.68,76.68,76.27
12/22/2014,76.75,34021,76.56,76.85,76.22
12/19/2014,76.37,40994,76.34,76.542,75.97
12/18/2014,76.03,81332,75.83,76.77,75.45
12/17/2014,74.9,54987,73.87,75.62,73.87
12/16/2014,73.69,88460,74.0,74.18,73.15
12/15/2014,74.09,140019,75.0,75.1575,74.02
12/12/2014,75.02,30985,76.0,76.2,75.0
12/11/2014,76.21,68857,76.57,76.9098,76.16
12/10/2014,76.56,73184,76.77,76.93,76.41
12/09/2014,76.82,121000,76.73,76.97,76.66
12/08/2014,77.07,195910,77.87,77.87,76.87
12/05/2014,77.88,185801,78.34,78.34,77.8338
12/04/2014,78.28,53362,78.43,78.43,78.2562
12/03/2014,78.32,47174,78.2,78.33,78.03
12/02/2014,78.29,12485,78.43,78.43,78.251
12/01/2014,78.38,130493,79.04,79.04,78.33
11/28/2014,79.04,22736,79.52,79.52,79.0266
11/26/2014,79.3,23610,79.22,79.32,79.1
11/25/2014,79.14,41837,79.14,79.1999,79.0448
11/24/2014,79.06,413448,79.31,79.31,78.8601
11/21/2014,78.91,26311,79.24,79.273,78.84
11/20/2014,78.66199999999999,20385,78.64,78.74,78.63
11/19/2014,78.67,9941,78.59,78.759,78.56
11/18/2014,78.53,93409,78.56,78.56,78.44
11/17/2014,78.5,23715,78.6,78.6,78.4501
11/14/2014,78.62,30460,78.67,78.95100000000001,78.5676
11/13/2014,78.64,36710,78.95,78.95,78.64
11/12/2014,78.92,48583,78.93,78.93,78.8
11/11/2014,78.8699,117101,78.95,79.16,78.75
11/10/2014,78.94,65829,79.31,79.31,78.75
11/07/2014,78.9,22141,78.78,79.05,78.75
11/06/2014,78.78,22935,79.0,79.0,78.7749
11/05/2014,79.04,39551,79.13,79.37,79.0008
11/04/2014,79.12,14025,79.25,79.2878,79.119
11/03/2014,79.2,148903,79.7,79.7,79.19
10/31/2014,79.74,15216,79.75,79.75,79.65
10/30/2014,79.66,11486,79.59,79.75,79.5899
10/29/2014,79.59,23338,79.59,79.72,79.4901
10/28/2014,79.45,35135,79.4,79.54,79.3923
10/27/2014,79.37,12031,79.3,79.39,79.25
10/24/2014,79.36,18301,79.3399,79.4,79.24
10/23/2014,79.2802,9217,79.33,79.33,79.25
10/22/2014,79.32,69453,79.3,79.3866,79.15
10/21/2014,79.26,48336,79.35,79.35,79.1501
10/20/2014,79.43,128334,79.34,79.43,79.2406
10/17/2014,79.23,23730,79.2,79.27,79.01
10/16/2014,78.99,14522,79.14,79.14,78.7543
10/15/2014,79.15,14024,79.08,79.3475,79.02
10/14/2014,79.18,7950,79.23,79.23,79.021
10/13/2014,79.05,30717,79.16,79.3234,79.0001
10/10/2014,79.05,80155,79.08,79.2956,78.9147
10/09/2014,79.09,12426,79.23,79.35,79.0801
10/08/2014,79.08,126498,78.83,79.0999,78.81
10/07/2014,78.7558,29046,78.79,78.86,78.7
10/06/2014,78.71,73418,78.65,78.75,78.52
10/03/2014,78.64,23088,78.69,78.74,78.4546
10/02/2014,78.54,22610,78.68,78.84,78.4824
10/01/2014,78.6394,151728,78.61,78.69,78.48
09/30/2014,78.76,20209,79.08,79.08,78.76
09/29/2014,79.0167,230904,79.02,79.3499,78.9501
09/26/2014,79.42,73620,79.39,79.43,79.31
09/25/2014,79.5199,79398,79.53,79.6339,79.3917
09/24/2014,79.53,12961,79.45,79.53,79.4441
09/23/2014,79.33,80182,79.2,79.37,79.18
09/22/2014,79.275,66737,79.32,79.32,79.2208
09/19/2014,79.1274,23770,78.99,79.17,78.99
09/18/2014,78.89,33080,79.1,79.1,78.86
09/17/2014,79.125,10094,79.27,79.27,79.02
09/16/2014,79.19,35950,79.34,79.34,79.02
09/15/2014,79.21,12652,79.39,79.39,79.2
09/12/2014,79.4,224833,79.64,79.64,79.33
09/11/2014,79.82,7814,79.86,79.86,79.801
09/10/2014,79.7437,10103,79.63,79.7437,79.55
09/09/2014,79.73,28030,79.91,79.94,79.72
09/08/2014,79.9721,106740,80.33,80.33,79.9491
09/05/2014,80.33,136034,80.07,80.33,80.07
09/04/2014,80.05,34106,80.36,80.4,80.046
09/03/2014,80.1,194938,80.1,80.28,80.0
09/02/2014,80.0543,161545,80.47,80.47,80.05
08/29/2014,80.82,17891,80.8,80.85,80.681
08/28/2014,80.87,12581,81.3,81.3,80.72
08/27/2014,81.02,15409,80.87,81.02,80.77
08/26/2014,80.59,20194,80.56,80.6817,80.518
08/25/2014,80.47,40994,80.54,80.57,80.47
08/22/2014,80.4404,122152,80.59,80.9302,80.39
08/21/2014,80.471,6832,80.625,80.625,80.465
08/20/2014,80.508,15942,80.59,80.7443,80.4735
08/19/2014,80.65,28445,80.82,80.82,80.5901
08/18/2014,80.57,51730,80.63,80.63,80.3812
08/15/2014,80.32,22625,80.7,80.7,80.3
08/14/2014,80.1999,9896,80.15,80.49,80.09
08/13/2014,79.9,19923,79.64,79.93,79.64
08/12/2014,79.78,13508,79.68,79.97,79.68
08/11/2014,79.72,12716,79.65,79.72,79.648
08/08/2014,79.529,11401,79.45,79.8099,79.45
08/07/2014,79.58,8432,79.75,79.7899,79.36
08/06/2014,79.53,24095,79.64,79.64,79.5
08/05/2014,79.62,16929,79.72,79.97,79.501
08/04/2014,79.73,125283,79.2,80.2942,79.2
08/01/2014,79.735,80773,79.83,79.92,79.55
07/31/2014,80.22,258805,80.48,80.48,80.05
07/30/2014,80.58,64725,80.69,80.9085,80.54
07/29/2014,80.67,14188,80.66,80.79,80.5912
07/28/2014,80.67,79167,81.06,81.06,80.61
07/25/2014,81.03,22491,81.27,81.27,80.9931
07/24/2014,81.04,10495,81.51,81.51,81.0032
07/23/2014,81.02,17344,80.87,81.1,80.86
07/22/2014,80.78,8357,80.62,80.79,80.6044
07/21/2014,80.605,9248,80.76,80.76,80.5408
07/18/2014,80.55,14458,80.55,80.76,80.55
07/17/2014,80.52,14850,80.93,80.93,80.4
07/16/2014,80.77,18292,80.78,80.85,80.6801
07/15/2014,80.76,12697,80.77,80.81,80.61
07/14/2014,80.75,11357,80.9,80.9,80.61
07/11/2014,80.73,9773,80.75,80.81,80.6408
07/10/2014,80.655,55607,80.6,81.0088,80.4936
07/09/2014,80.655,22063,80.6,80.67,80.54
07/08/2014,80.56,32415,80.4,80.595,80.3462
07/07/2014,80.2995,15107,80.27,80.42,80.22
07/03/2014,80.27,34237,80.2,80.3,80.15
07/02/2014,80.3,12977,80.21,80.35,80.21
07/01/2014,80.3,29958,80.45,80.45,80.2
06/30/2014,80.72,12335,80.72,80.7392,80.66
06/27/2014,80.72,14370,80.7893,80.7893,80.66
06/26/2014,80.79,19462,80.65,80.881,80.6
06/25/2014,80.72,8783,80.72,80.729,80.7
06/24/2014,80.56,15400,80.52,80.56,80.48
06/23/2014,80.38,25167,80.35,80.5599,80.211
06/20/2014,80.24,27597,80.31,80.31,80.06
06/19/2014,80.19,76222,80.61,80.61,80.07
06/18/2014,80.23,121424,80.34,80.3495,79.89
06/17/2014,80.24,10167,80.29,80.3476,80.21
06/16/2014,80.34,22793,80.42,80.4394,80.21
06/13/2014,80.5,8198,80.52,80.5683,80.34
06/12/2014,80.53,33319,80.35,80.5391,80.35
06/11/2014,80.635,15881,80.7,80.7099,80.46
06/10/2014,80.91,15044,81.01,81.01,80.7366
06/09/2014,80.915,14546,80.9,81.2699,80.8
06/06/2014,80.95,22969,80.65,80.95,80.62
06/05/2014,80.3,12290,79.89,80.35,79.89
06/04/2014,80.13,14857,80.06,80.3,79.9889
06/03/2014,80.315,350734,80.98,80.98,80.26
06/02/2014,80.7,25876,80.75,80.75,80.5
05/30/2014,80.905,19131,80.9,80.91,80.85
05/29/2014,80.91,20273,81.02,81.02,80.76
05/28/2014,80.64,15559,80.53,80.66,80.4001
05/27/2014,80.28,16838,80.32,80.32,80.22
05/23/2014,80.135,13013,80.19,80.19,80.12
05/22/2014,80.04,25729,80.05,80.059,79.99
05/21/2014,80.05,42999,80.04,80.05,79.8
05/20/2014,79.88,18350,79.88,79.89,79.865
05/19/2014,79.87,10006,79.93,79.93,79.773
05/16/2014,79.84,20036,79.9,79.92,79.68
05/15/2014,79.96,11780,80.33,80.33,79.72
05/14/2014,79.81,9769,79.63,79.82,79.63
05/13/2014,79.61,22569,79.39,79.67,79.39
05/12/2014,79.505,26828,79.61,79.61,79.4401
05/09/2014,79.595,20336,79.73,79.73,79.5091
05/08/2014,79.54,14902,79.07,79.62,79.07
05/07/2014,79.01,18930,78.91,79.13,78.9
05/06/2014,78.66,15431,78.53,78.87,78.5201
05/05/2014,78.715,10534,78.81,78.926,78.5001
05/02/2014,78.64,11829,78.64,78.69,78.4001
05/01/2014,78.609,20977,78.36,78.61,78.16
04/30/2014,78.55,11483,78.46,78.7199,78.3704
04/29/2014,78.37,9382,78.46,78.4699,78.29
04/28/2014,78.16,19857,78.43,78.5056,78.06
04/25/2014,78.2964,12158,78.47,78.47,78.0717
04/24/2014,78.43,10867,78.55,78.55,78.3208
04/23/2014,78.45,120019,78.41,78.59,78.41
04/22/2014,78.6,83669,79.05,79.06,78.49
04/21/2014,79.0,15718,79.01,79.1773,78.55
04/17/2014,78.99,8817,78.88,79.08,78.81
04/16/2014,78.815,13308,78.92,78.92,78.7688
04/15/2014,78.78,8502,79.06,79.06,78.4001
04/14/2014,78.8599,16713,79.04,79.04,78.4001
04/11/2014,79.01,9343,79.0,79.09,79.0
04/10/2014,79.005,37076,79.17,79.17,78.82
04/09/2014,78.59,14359,78.77,78.77,78.39
04/08/2014,78.5,12844,78.32,78.51,78.3
04/07/2014,78.3,15256,78.5,78.5,78.07
04/04/2014,78.3,10594,78.0,78.3,77.98
04/03/2014,77.995,7742,77.97,78.01,77.75
04/02/2014,77.97,16075,77.95,78.2,77.82
04/01/2014,78.02,114002,77.95,78.05,77.95
03/31/2014,78.2299,25538,78.16,78.27,77.85600000000001
03/28/2014,78.14,11891,78.42,78.42,77.72
03/27/2014,78.06,27185,77.51,78.09,77.51
03/26/2014,77.6696,7489,77.24,77.67,77.24
03/25/2014,77.25,12408,77.04,77.384,77.04
03/24/2014,77.23,35563,77.34,77.3675,77.0374
03/21/2014,77.1,59433,77.26,77.26,77.02
03/20/2014,77.05,9874,77.09,77.3,76.9666
03/19/2014,77.288,4191,76.97,77.4458,76.97
03/18/2014,77.15,10046,77.28,77.28,77.0401
03/17/2014,77.0,7052,77.2,77.25,76.94
03/14/2014,76.99,5793,77.05,77.32,76.9
03/13/2014,77.1,6593,77.33,77.33,77.07
03/12/2014,77.05,20683,77.3,77.3,76.82
03/11/2014,77.275,8870,77.44,77.44,77.18
03/10/2014,77.33,19009,77.4,77.4,77.0301
03/07/2014,77.339,17740,77.59,77.59,77.2252
03/06/2014,77.395,12706,77.45,77.49,77.1
03/05/2014,77.35,7694,77.7,77.7,77.21
03/04/2014,77.48,10856,77.35,77.48,77.27
03/03/2014,77.3,11158,77.5,77.5,77.2
02/28/2014,77.815,10205,77.65,77.9,77.64
02/27/2014,77.63,8897,77.14,77.67,77.14
02/26/2014,77.54,18058,77.16,77.57,77.16
02/25/2014,77.35,17089,77.05,77.4238,77.0274
02/24/2014,77.08,107288,76.85,77.1099,76.8401
02/21/2014,76.7596,6995,76.23,76.771,76.23
02/20/2014,76.37,49746,76.81,76.81,76.11
02/19/2014,76.73,20460,76.64,76.82,76.3
02/18/2014,76.6814,8556,76.28,76.78,76.28
02/14/2014,76.3,50638,76.19,76.7,76.18
02/13/2014,76.68,16102,76.59,76.68,76.53
02/12/2014,76.69,5978,76.76,76.7899,76.66
02/11/2014,76.72,8346,76.9,76.9,76.67
02/10/2014,76.6599,10269,76.72,76.72,76.62
02/07/2014,76.6,8940,76.51,76.61,76.2601
02/06/2014,76.29,12469,76.06,76.36,76.06
02/05/2014,76.25,28543,76.04,76.27,76.04
02/04/2014,76.0316,15047,76.04,76.07,75.8101
02/03/2014,75.77,11469,75.9,75.9599,75.545
01/31/2014,75.91,17873,76.05,76.0699,75.9
01/30/2014,76.2368,5316,76.2799,76.2799,76.22
01/29/2014,76.268,10975,76.27,76.2899,76.0831
01/28/2014,76.27,30594,76.184,76.27,76.0615
01/27/2014,76.05,39100,76.17,76.2099,76.02
01/24/2014,76.25,22547,76.49,76.49,76.25
01/23/2014,76.5,15516,76.99,76.99,76.5
01/22/2014,76.955,12616,76.98,77.06,76.9
01/21/2014,77.055,13904,77.2,77.2,77.0
01/17/2014,77.15,12158,77.2,77.2,77.07
01/16/2014,76.91,12939,77.24,77.24,76.91
01/15/2014,76.975,16936,77.03,77.03,76.92
01/14/2014,76.91,12835,76.81,76.91,76.7339
01/13/2014,76.87,8076,77.03,77.03,76.811
01/10/2014,76.9,12868,76.82,76.91,76.6701
01/09/2014,76.54,11338,76.72,76.72,76.5
01/08/2014,76.52,45106,76.65,76.65,76.3657
01/07/2014,76.74,30740,76.84,76.84,76.62
01/06/2014,76.645,19693,76.56,76.75,76.5
01/03/2014,76.48,20758,76.26,76.4899,76.26
01/02/2014,76.44,12816,76.47,76.47,76.35
12/31/2013,76.56,41852,76.84,76.84,76.52
12/30/2013,76.51,44441,76.56,76.56,76.3401
12/27/2013,76.31,10330,76.37,76.49,76.20100000000001
12/26/2013,76.44,20052,76.49,76.539,76.28
12/24/2013,76.54,8778,76.83,76.83,76.39
12/23/2013,76.83,21712,77.02,77.03,76.62
12/20/2013,76.5501,16914,76.71,76.71,76.55
12/19/2013,76.509,30959,76.72,76.72,76.35
12/18/2013,76.53,229437,76.43,76.699,76.331
12/17/2013,76.43,52069,76.44,76.46,76.29
12/16/2013,76.31,18059,76.49,76.505,76.26
12/13/2013,76.35,14998,76.47,76.47,76.0829
12/12/2013,76.1148,16429,76.46,76.46,75.98
12/11/2013,76.06,36753,76.301,76.4,76.06
12/10/2013,76.5899,6755,76.63,76.63,76.46
12/09/2013,76.25,7032,76.32,76.34,76.1473
12/06/2013,76.04,7776,75.98,76.1093,75.98
12/05/2013,75.9899,14382,76.19,76.19,75.8
12/04/2013,75.98,9031,76.07,76.07,75.8504
12/03/2013,76.1,14242,76.04,76.1,75.88
12/02/2013,76.02,18154,76.77,76.77,76.0
11/29/2013,76.63,3136,76.69,76.69,76.5887
11/27/2013,76.515,8840,76.77,76.77,76.465
11/26/2013,76.74,22263,76.86,76.86,76.6674
11/25/2013,76.75,10628,76.7,76.77,76.58
11/22/2013,76.65,13234,76.55,76.67,76.51
11/21/2013,76.5,10241,76.59,76.59,76.21
11/20/2013,76.65,22005,76.71,76.72,76.53
11/19/2013,76.71,32307,76.77,76.82,76.66
11/18/2013,76.66,149555,76.68,76.87,76.642
11/15/2013,76.48899999999999,25991,75.87,76.49,75.87
11/14/2013,76.11,6782,76.25,76.25,76.11
11/13/2013,75.92,20089,75.7,76.09,75.68
11/12/2013,76.1,8206,76.37,76.37,75.9524
11/11/2013,76.4,12252,76.24,76.58,76.24
11/08/2013,76.5,15118,77.0,77.0,76.22800000000001
11/07/2013,77.0487,16290,77.27,77.32,77.0
11/06/2013,77.03,5390,77.25,77.25,77.0048
11/05/2013,77.1,3983,77.6,77.6,77.0
11/04/2013,77.52,5431,77.56,77.56,77.5
11/01/2013,77.23,31159,77.8,77.8,77.23
10/31/2013,78.0501,2620,78.158,78.158,77.91
10/30/2013,77.83,7606,77.71,78.14,77.7089
10/29/2013,78.1,15160,78.87,78.87,78.0
10/28/2013,78.1099,19216,78.23,78.24,77.94
10/25/2013,78.325,11849,77.94,78.42,77.94
10/24/2013,78.1764,4426,78.36,78.36,78.1
10/23/2013,78.24,9205,78.07,78.24,78.07
10/22/2013,78.08,4758,78.05,78.08,77.83
10/21/2013,77.89,8241,77.9,77.9,77.8499
10/18/2013,77.7936,7978,77.56,77.9599,77.56
10/17/2013,77.54,13722,77.23,77.59,77.23
10/16/2013,77.1,9357,76.9601,77.2499,76.9601
10/15/2013,76.83,21072,77.2,77.24,76.66
10/14/2013,77.29,16478,77.3,77.38,77.24
10/11/2013,77.2235,7712,77.19,77.27,76.8601
10/10/2013,77.07,12646,77.14,77.14,76.89
10/09/2013,77.11,13144,76.58,77.16,76.48
10/08/2013,76.88,8876,77.0,77.0,76.84
10/07/2013,76.97,3811,77.04,77.04,76.86
10/04/2013,76.625,5341,76.51,76.84899999999999,76.51
10/03/2013,76.40899999999999,5864,76.45,76.45,76.375
10/02/2013,76.4258,7709,76.46,76.5,76.3401
10/01/2013,76.4675,8165,76.45,76.54,76.4
09/30/2013,76.89,13233,76.28,76.91,76.28
09/27/2013,76.83,11828,76.7584,76.86,76.7584
09/26/2013,77.05,8739,77.14,77.3,76.9896
09/25/2013,77.29,2610,77.2,77.3,77.1613
09/24/2013,77.16,15021,77.61,77.61,76.7
09/23/2013,77.35,11598,77.7,77.7,77.35
09/20/2013,77.2978,5991,77.5,77.5,76.9101
09/19/2013,77.2937,33448,76.51,77.56,76.47
09/18/2013,76.5,5771,76.17,76.5,76.17
09/17/2013,76.1699,15356,76.24,76.24,75.94
09/16/2013,75.9508,6908,75.47,76.04,75.47
09/13/2013,75.3,11470,75.11,75.33,75.11
09/12/2013,75.22,15518,75.3,75.36,75.22
09/11/2013,74.96,9206,74.7,75.0,74.7
09/10/2013,74.68,12730,74.6,74.69,74.31
09/09/2013,74.72,7710,75.17,75.17,74.68
09/06/2013,74.432,8836,74.4,74.6399,74.4
09/05/2013,74.126,5950,74.25,74.25,74.054
09/04/2013,74.31,6341,74.27,74.36,74.27
09/03/2013,74.3178,3695,74.45,74.45,74.25
08/30/2013,74.85,5210,75.15,75.15,74.8475
08/29/2013,75.07,6172,74.8,75.08,74.8
08/28/2013,74.96,3820,74.9799,75.11,74.9437
08/27/2013,75.27,7495,75.3,75.3,75.002
08/26/2013,75.53,3178,75.3954,75.54,75.31
08/23/2013,75.3096,1769,74.92,75.3096,74.92
08/22/2013,74.78,4279,75.43,75.43,74.78
08/21/2013,74.86,9085,74.95,75.27,74.65
08/20/2013,75.05,6052,75.27,75.35,74.94
08/19/2013,74.98,43586,75.75,75.75,74.98
08/16/2013,76.05,10446,76.28,76.28,75.9
08/15/2013,76.22,7596,76.25,76.25,76.2001
08/14/2013,76.57,6148,76.6,76.6,76.5098
08/13/2013,76.4701,6019,76.57,76.6356,76.47
08/12/2013,76.79,3070,76.79,76.79,76.72
08/09/2013,76.79,16209,76.6,76.79,76.6
08/08/2013,76.729,5362,76.55,76.73,76.5
08/07/2013,76.46,13081,76.77,76.77,76.31
08/06/2013,76.6,5949,76.66,76.66,76.45
08/05/2013,76.738,11395,76.51,76.8,76.47
08/02/2013,76.7,10051,76.75,76.83,76.515
08/01/2013,76.5199,3631,76.56,76.78,76.5199
07/31/2013,76.676,10003,77.35,77.35,76.6401
07/30/2013,77.12,8196,76.9,77.25,76.87
07/29/2013,77.1326,6921,77.45,77.45,77.13
07/26/2013,77.27,46501,77.5,77.5,77.13
07/25/2013,77.23,5773,77.31,77.31,77.01
07/24/2013,77.34,9372,77.72,77.72,77.34
07/23/2013,77.78,27603,77.97,77.98,77.7022
07/22/2013,77.94,151631,78.05,78.2,77.8
07/19/2013,77.79,9184,77.79,77.81,77.7
07/18/2013,77.75,7732,77.7,77.81,77.54
07/17/2013,77.24,11947,77.26,77.26,77.01
07/16/2013,76.88,8292,77.14,77.5,76.811
07/15/2013,76.6164,21710,77.18,77.18,76.472
07/12/2013,76.25,16970,76.95,76.95,75.8
07/11/2013,76.64,148943,76.0,76.79,76.0
07/10/2013,75.8685,15079,76.49,76.49,75.8685
07/09/2013,76.3,2742,76.23,76.4,75.9999
07/08/2013,75.85,24989,75.98,75.98,75.51
07/05/2013,75.68,13370,76.55,76.55,75.54
07/03/2013,76.54,8578,77.12,77.12,76.4654
07/02/2013,76.54,14866,76.9,76.9,76.54
07/01/2013,76.4,11485,75.96,76.4,75.96
06/28/2013,76.03,26366,75.29,76.04,75.29
06/27/2013,75.87,10603,75.99,76.0,75.64
06/26/2013,74.91,4095,75.199,75.2,74.91
06/25/2013,74.59,5274,74.7,74.999,74.499
06/24/2013,74.46,30196,75.75,75.75,73.49
06/21/2013,75.22,57801,76.8,76.8,74.9
06/20/2013,75.49,21323,77.5,77.5,75.35
06/19/2013,77.21,11276,78.36,78.4197,77.01
06/18/2013,78.1106,9509,78.59,78.59,78.1106
06/17/2013,78.719,14493,79.75,79.75,78.719
06/14/2013,79.16,31009,78.64,79.298,78.64
06/13/2013,78.24,108427,77.99,78.24,77.65
06/12/2013,77.5,7208,78.31,78.31,77.5
06/11/2013,76.5,33454,77.26,77.26,76.21
06/10/2013,77.75,80969,78.74,78.74,77.42
06/07/2013,78.52,45804,79.0,79.0,78.1501
06/06/2013,78.91,56740,79.57,79.57,78.6
06/05/2013,79.3299,25354,79.86,79.86,79.3299
06/04/2013,79.87,12244,80.15,80.15,79.84
